<?xml version='1.0' encoding='UTF-8'?>
<osm version='0.6' generator='JOSM'>
  <node id='-241116' visible='true' lat='-34.44217641356' lon='150.4692961777'>
    <tag k='addr:housenumber' v='6' />
    <tag k='addr:street' v='Renwick Drive' />
  </node>
  <node id='-241118' visible='true' lat='-34.44165379116' lon='150.48299882107'>
    <tag k='addr:housenumber' v='22' />
    <tag k='addr:street' v='Scarlet Street' />
  </node>
  <node id='-241120' visible='true' lat='-34.43971901798' lon='150.4741104266'>
    <tag k='addr:housenumber' v='23' />
    <tag k='addr:street' v='Balaclava Street' />
  </node>
  <node id='-241122' visible='true' lat='-34.43897679796' lon='150.47410010191'>
    <tag k='addr:housenumber' v='14' />
    <tag k='addr:street' v='Balaclava Street' />
  </node>
  <node id='-241124' visible='true' lat='-34.44082464013' lon='150.4727829171'>
    <tag k='addr:housenumber' v='17' />
    <tag k='addr:street' v='Crimea Street' />
  </node>
  <node id='-241126' visible='true' lat='-34.44063975202' lon='150.4715057809'>
    <tag k='addr:housenumber' v='7' />
    <tag k='addr:street' v='Crimea Street' />
  </node>
  <node id='-241128' visible='true' lat='-34.44331569035' lon='150.46771206709'>
    <tag k='addr:housenumber' v='13' />
    <tag k='addr:street' v='Highlander Street' />
  </node>
  <node id='-241130' visible='true' lat='-34.44059239322' lon='150.4711791874'>
    <tag k='addr:housenumber' v='3' />
    <tag k='addr:street' v='Crimea Street' />
  </node>
  <node id='-241132' visible='true' lat='-34.4429885595' lon='150.469777588'>
    <tag k='addr:housenumber' v='19' />
    <tag k='addr:street' v='Renwick Drive' />
  </node>
  <node id='-241134' visible='true' lat='-34.44220483078' lon='150.46949213152'>
    <tag k='addr:housenumber' v='8' />
    <tag k='addr:street' v='Renwick Drive' />
  </node>
  <node id='-241136' visible='true' lat='-34.44200049654' lon='150.47097159098'>
    <tag k='addr:housenumber' v='17A' />
    <tag k='addr:street' v='Elsworth Avenue' />
  </node>
  <node id='-241138' visible='true' lat='-34.43999878379' lon='150.47220002811'>
    <tag k='addr:housenumber' v='12' />
    <tag k='addr:street' v='Crimea Street' />
  </node>
  <node id='-241140' visible='true' lat='-34.44120450377' lon='150.47155477319'>
    <tag k='addr:housenumber' v='26' />
    <tag k='addr:street' v='Elsworth Avenue' />
  </node>
  <node id='-241142' visible='true' lat='-34.44222850477' lon='150.46965543121'>
    <tag k='addr:housenumber' v='10' />
    <tag k='addr:street' v='Renwick Drive' />
  </node>
  <node id='-241144' visible='true' lat='-34.44193620043' lon='150.47562919076'>
    <tag k='addr:housenumber' v='4' />
    <tag k='addr:street' v='Scarlet Street' />
  </node>
  <node id='-241146' visible='true' lat='-34.4410821236' lon='150.47022996135'>
    <tag k='addr:housenumber' v='10' />
    <tag k='addr:street' v='Elsworth Avenue' />
  </node>
  <node id='-241148' visible='true' lat='-34.44113346629' lon='150.47106487809'>
    <tag k='addr:housenumber' v='20' />
    <tag k='addr:street' v='Elsworth Avenue' />
  </node>
  <node id='-241150' visible='true' lat='-34.43955330408' lon='150.47296736223'>
    <tag k='addr:housenumber' v='9' />
    <tag k='addr:street' v='Balaclava Street' />
  </node>
  <node id='-241152' visible='true' lat='-34.44006982514' lon='150.47268992235'>
    <tag k='addr:housenumber' v='18' />
    <tag k='addr:street' v='Crimea Street' />
  </node>
  <node id='-241154' visible='true' lat='-34.44108609376' lon='150.47073825357'>
    <tag k='addr:housenumber' v='16' />
    <tag k='addr:street' v='Elsworth Avenue' />
  </node>
  <node id='-241156' visible='true' lat='-34.44384875151' lon='150.47381757825'>
    <tag k='addr:housenumber' v='3' />
    <tag k='addr:street' v='Cardigan Street' />
  </node>
  <node id='-241158' visible='true' lat='-34.44100844467' lon='150.46945487734'>
    <tag k='addr:housenumber' v='2' />
    <tag k='addr:street' v='Elsworth Avenue' />
  </node>
  <node id='-241160' visible='true' lat='-34.44101460114' lon='150.46968669291'>
    <tag k='addr:housenumber' v='4' />
    <tag k='addr:street' v='Elsworth Avenue' />
  </node>
  <node id='-241162' visible='true' lat='-34.44349831946' lon='150.4837684285'>
    <tag k='addr:housenumber' v='70' />
    <tag k='addr:street' v='Inkerman Road' />
  </node>
  <node id='-241164' visible='true' lat='-34.4418747323' lon='150.46864902833'>
    <tag k='addr:housenumber' v='4' />
    <tag k='addr:street' v='Nightingale Lane' />
  </node>
  <node id='-241166' visible='true' lat='-34.44127554699' lon='150.47204466993'>
    <tag k='addr:housenumber' v='32' />
    <tag k='addr:street' v='Elsworth Avenue' />
  </node>
  <node id='-241168' visible='true' lat='-34.44290920595' lon='150.46779296266'>
    <tag k='addr:housenumber' v='7' />
    <tag k='addr:street' v='Highlander Street' />
  </node>
  <node id='-241170' visible='true' lat='-34.44066343129' lon='150.47166907761'>
    <tag k='addr:housenumber' v='9' />
    <tag k='addr:street' v='Crimea Street' />
  </node>
  <node id='-241172' visible='true' lat='-34.44087199612' lon='150.47310951286'>
    <tag k='addr:housenumber' v='19' />
    <tag k='addr:street' v='Crimea Street' />
  </node>
  <node id='-241174' visible='true' lat='-34.44068711391' lon='150.47183237571'>
    <tag k='addr:housenumber' v='11' />
    <tag k='addr:street' v='Crimea Street' />
  </node>
  <node id='-241176' visible='true' lat='-34.4431410402' lon='150.46842925801'>
    <tag k='addr:housenumber' v='1' />
    <tag k='addr:street' v='Crane Street' />
  </node>
  <node id='-241178' visible='true' lat='-34.44360340608' lon='150.47303921597'>
    <tag k='addr:housenumber' v='33-35' />
    <tag k='addr:street' v='Inkerman Road' />
  </node>
  <node id='-241180' visible='true' lat='-34.43788829492' lon='150.4743218396'>
    <tag k='addr:housenumber' v='5' />
    <tag k='addr:street' v='Beresford Street' />
  </node>
  <node id='-241182' visible='true' lat='-34.44016771252' lon='150.47334515456'>
    <tag k='addr:housenumber' v='26' />
    <tag k='addr:street' v='Crimea Street' />
  </node>
  <node id='-241184' visible='true' lat='-34.43885894249' lon='150.47328323555'>
    <tag k='addr:housenumber' v='4' />
    <tag k='addr:street' v='Balaclava Street' />
  </node>
  <node id='-241186' visible='true' lat='-34.44041955506' lon='150.47094936477'>
    <tag k='addr:housenumber' v='1B' />
    <tag k='addr:street' v='Crimea Street' />
  </node>
  <node id='-241188' visible='true' lat='-34.4428934944' lon='150.4691244888'>
    <tag k='addr:housenumber' v='11' />
    <tag k='addr:street' v='Renwick Drive' />
  </node>
  <node id='-241190' visible='true' lat='-34.44129921777' lon='150.47220796919'>
    <tag k='addr:housenumber' v='34' />
    <tag k='addr:street' v='Elsworth Avenue' />
  </node>
  <node id='-241192' visible='true' lat='-34.44327631634' lon='150.46840066064'>
    <tag k='addr:housenumber' v='3' />
    <tag k='addr:street' v='Crane Street' />
  </node>
  <node id='-241194' visible='true' lat='-34.44292581701' lon='150.47749352854'>
    <tag k='addr:housenumber' v='50-54' />
    <tag k='addr:street' v='Inkerman Road' />
  </node>
  <node id='-241196' visible='true' lat='-34.44106241224' lon='150.47057493459'>
    <tag k='addr:housenumber' v='14' />
    <tag k='addr:street' v='Elsworth Avenue' />
  </node>
  <node id='-241198' visible='true' lat='-34.43969534429' lon='150.47394712961'>
    <tag k='addr:housenumber' v='21' />
    <tag k='addr:street' v='Balaclava Street' />
  </node>
  <node id='-241200' visible='true' lat='-34.44281469768' lon='150.46858235942'>
    <tag k='addr:housenumber' v='7' />
    <tag k='addr:street' v='Renwick Drive' />
  </node>
  <node id='-241202' visible='true' lat='-34.44148041387' lon='150.47707879134'>
    <tag k='addr:housenumber' v='6' />
    <tag k='addr:street' v='Scarlet Street' />
  </node>
  <node id='-241204' action='modify' visible='true' lat='-34.44368214528' lon='150.46833667946'>
    <tag k='addr:housenumber' v='9' />
    <tag k='addr:street' v='Crane Street' />
  </node>
  <node id='-241206' action='modify' visible='true' lat='-34.44368214528' lon='150.46829310802'>
    <tag k='addr:housenumber' v='23' />
    <tag k='addr:street' v='Crane Street' />
  </node>
  <node id='-241208' visible='true' lat='-34.44122818352' lon='150.47171807259'>
    <tag k='addr:housenumber' v='28' />
    <tag k='addr:street' v='Elsworth Avenue' />
  </node>
  <node id='-241210' visible='true' lat='-34.44225218079' lon='150.46981873261'>
    <tag k='addr:housenumber' v='12' />
    <tag k='addr:street' v='Renwick Drive' />
  </node>
  <node id='-241212' visible='true' lat='-34.43962432508' lon='150.47345724373'>
    <tag k='addr:housenumber' v='15' />
    <tag k='addr:street' v='Balaclava Street' />
  </node>
  <node id='-241214' visible='true' lat='-34.44110977366' lon='150.47090157294'>
    <tag k='addr:housenumber' v='18' />
    <tag k='addr:street' v='Elsworth Avenue' />
  </node>
  <node id='-241216' visible='true' lat='-34.43997510149' lon='150.47203673403'>
    <tag k='addr:housenumber' v='10' />
    <tag k='addr:street' v='Crimea Street' />
  </node>
  <node id='-241218' visible='true' lat='-34.44173463764' lon='150.47009633314'>
    <tag k='addr:housenumber' v='11' />
    <tag k='addr:street' v='Elsworth Avenue' />
  </node>
  <node id='-241220' visible='true' lat='-34.44074630362' lon='150.47224062025'>
    <tag k='addr:housenumber' v='15' />
    <tag k='addr:street' v='Crimea Street' />
  </node>
  <node id='-241222' visible='true' lat='-34.44294102288' lon='150.46945103107'>
    <tag k='addr:housenumber' v='15' />
    <tag k='addr:street' v='Renwick Drive' />
  </node>
  <node id='-241224' visible='true' lat='-34.44177692538' lon='150.47134965338'>
    <tag k='addr:housenumber' v='19' />
    <tag k='addr:street' v='Elsworth Avenue' />
  </node>
  <node id='-241226' visible='true' lat='-34.43818942545' lon='150.47563733037'>
    <tag k='addr:housenumber' v='6' />
    <tag k='addr:street' v='Beresford Street' />
  </node>
  <node id='-241228' visible='true' lat='-34.4434115919' lon='150.46837207271'>
    <tag k='addr:housenumber' v='5' />
    <tag k='addr:street' v='Crane Street' />
  </node>
  <node id='-241230' visible='true' lat='-34.43674866744' lon='150.48884232946'>
    <tag k='addr:housenumber' v='16' />
    <tag k='addr:street' v='Clariville Street' />
  </node>
  <node id='-241232' visible='true' lat='-34.44277420433' lon='150.46782148208'>
    <tag k='addr:housenumber' v='5' />
    <tag k='addr:street' v='Highlander Street' />
  </node>
  <node id='-241234' visible='true' lat='-34.44354686747' lon='150.46834348011'>
    <tag k='addr:housenumber' v='7' />
    <tag k='addr:street' v='Crane Street' />
  </node>
  <node id='-241236' visible='true' lat='-34.44264944652' lon='150.46789945671'>
    <tag k='addr:housenumber' v='3' />
    <tag k='addr:street' v='Highlander Street' />
  </node>
  <node id='-241238' visible='true' lat='-34.44241315193' lon='150.47132569997'>
    <tag k='addr:housenumber' v='5' />
    <tag k='addr:street' v='Nobel Lane' />
  </node>
  <node id='-241240' visible='true' lat='-34.43900037133' lon='150.4742634768'>
    <tag k='addr:housenumber' v='16' />
    <tag k='addr:street' v='Balaclava Street' />
  </node>
  <node id='-241242' visible='true' lat='-34.4385467974' lon='150.47556279756'>
    <tag k='addr:housenumber' v='8' />
    <tag k='addr:street' v='Beresford Street' />
  </node>
  <node id='-241244' visible='true' lat='-34.44021190676' lon='150.47366970773'>
    <tag k='addr:housenumber' v='30' />
    <tag k='addr:street' v='Crimea Street' />
  </node>
  <node id='-241246' visible='true' lat='-34.443589344' lon='150.46765760315'>
    <tag k='addr:housenumber' v='17' />
    <tag k='addr:street' v='Highlander Street' />
  </node>
  <node id='-241248' visible='true' lat='-34.44200764986' lon='150.468613539'>
    <tag k='addr:housenumber' v='3' />
    <tag k='addr:street' v='Nightingale Lane' />
  </node>
  <node id='-241250' visible='true' lat='-34.44547768569' lon='150.48186438112'>
    <tag k='addr:housenumber' v='57' />
    <tag k='addr:street' v='Inkerman Road' />
  </node>
  <node id='-241252' visible='true' lat='-34.43964799633' lon='150.47362053594'>
    <tag k='addr:housenumber' v='17' />
    <tag k='addr:street' v='Balaclava Street' />
  </node>
  <node id='-241254' visible='true' lat='-34.44025926779' lon='150.47399630111'>
    <tag k='addr:housenumber' v='34' />
    <tag k='addr:street' v='Crimea Street' />
  </node>
  <node id='-241256' visible='true' lat='-34.43967166769' lon='150.47378383249'>
    <tag k='addr:housenumber' v='19' />
    <tag k='addr:street' v='Balaclava Street' />
  </node>
  <node id='-241258' visible='true' lat='-34.441180825' lon='150.4713914765'>
    <tag k='addr:housenumber' v='24' />
    <tag k='addr:street' v='Elsworth Avenue' />
  </node>
  <node id='-241260' visible='true' lat='-34.44258388647' lon='150.47305837312'>
    <tag k='addr:housenumber' v='36-40' />
    <tag k='addr:street' v='Inkerman Road' />
  </node>
  <node id='-241262' visible='true' lat='-34.44340127551' lon='150.46925239661'>
    <tag k='addr:housenumber' v='4' />
    <tag k='addr:street' v='Crane Street' />
  </node>
  <node id='-241264' visible='true' lat='-34.43957697921' lon='150.47313065622'>
    <tag k='addr:housenumber' v='11' />
    <tag k='addr:street' v='Balaclava Street' />
  </node>
  <node id='-241266' visible='true' lat='-34.44276729512' lon='150.46825577818'>
    <tag k='addr:housenumber' v='3' />
    <tag k='addr:street' v='Renwick Drive' />
  </node>
  <node id='-241268' visible='true' lat='-34.44042730551' lon='150.48547381607'>
    <tag k='addr:housenumber' v='19' />
    <tag k='addr:street' v='Scarlet Street' />
  </node>
  <node id='-241270' visible='true' lat='-34.44345616569' lon='150.48261974197'>
    <tag k='addr:housenumber' v='68' />
    <tag k='addr:street' v='Inkerman Road' />
  </node>
  <node id='-241272' visible='true' lat='-34.44105012208' lon='150.46987832916'>
    <tag k='addr:housenumber' v='6' />
    <tag k='addr:street' v='Elsworth Avenue' />
  </node>
  <node id='-241274' visible='true' lat='-34.4375379143' lon='150.47437843744'>
    <tag k='addr:housenumber' v='1' />
    <tag k='addr:street' v='Beresford Street' />
  </node>
  <node id='-241276' visible='true' lat='-34.43936154551' lon='150.48570930276'>
    <tag k='addr:housenumber' v='12' />
    <tag k='addr:street' v='Clariville Street' />
  </node>
  <node id='-241278' visible='true' lat='-34.440235587' lon='150.473833004'>
    <tag k='addr:housenumber' v='32' />
    <tag k='addr:street' v='Crimea Street' />
  </node>
  <node id='-241280' visible='true' lat='-34.44304469797' lon='150.46776599394'>
    <tag k='addr:housenumber' v='9' />
    <tag k='addr:street' v='Highlander Street' />
  </node>
  <node id='-241282' visible='true' lat='-34.44283839729' lon='150.46874565047'>
    <tag k='addr:housenumber' v='9' />
    <tag k='addr:street' v='Renwick Drive' />
  </node>
  <node id='-241284' visible='true' lat='-34.44279098845' lon='150.46841906932'>
    <tag k='addr:housenumber' v='5' />
    <tag k='addr:street' v='Renwick Drive' />
  </node>
  <node id='-241286' visible='true' lat='-34.44291725235' lon='150.46928776224'>
    <tag k='addr:housenumber' v='13' />
    <tag k='addr:street' v='Renwick Drive' />
  </node>
  <node id='-241288' visible='true' lat='-34.44252877402' lon='150.46801475833'>
    <tag k='addr:housenumber' v='1' />
    <tag k='addr:street' v='Renwick Drive' />
  </node>
  <node id='-241290' visible='true' lat='-34.4417109666' lon='150.4699330342'>
    <tag k='addr:housenumber' v='11A' />
    <tag k='addr:street' v='Elsworth Avenue' />
  </node>
  <node id='-241292' visible='true' lat='-34.44167545125' lon='150.46968808594'>
    <tag k='addr:housenumber' v='9' />
    <tag k='addr:street' v='Elsworth Avenue' />
  </node>
  <node id='-241294' visible='true' lat='-34.4401856381' lon='150.47350961057'>
    <tag k='addr:housenumber' v='28' />
    <tag k='addr:street' v='Crimea Street' />
  </node>
  <node id='-241296' visible='true' lat='-34.44345118469' lon='150.46768510155'>
    <tag k='addr:housenumber' v='15' />
    <tag k='addr:street' v='Highlander Street' />
  </node>
  <node id='-241298' visible='true' lat='-34.44002246663' lon='150.47236332608'>
    <tag k='addr:housenumber' v='14' />
    <tag k='addr:street' v='Crimea Street' />
  </node>
  <node id='-241300' visible='true' lat='-34.43950595729' lon='150.47264076811'>
    <tag k='addr:housenumber' v='5' />
    <tag k='addr:street' v='Balaclava Street' />
  </node>
  <node id='-241302' visible='true' lat='-34.43821854685' lon='150.48514343807'>
    <tag k='addr:housenumber' v='14' />
    <tag k='addr:street' v='Clariville Street' />
  </node>
  <node id='-241304' visible='true' lat='-34.44318019584' lon='150.46773903355'>
    <tag k='addr:housenumber' v='11' />
    <tag k='addr:street' v='Highlander Street' />
  </node>
  <node id='-241306' visible='true' lat='-34.43948228835' lon='150.4724774739'>
    <tag k='addr:housenumber' v='3' />
    <tag k='addr:street' v='Balaclava Street' />
  </node>
  <node id='-241308' visible='true' lat='-34.44296479321' lon='150.46961430439'>
    <tag k='addr:housenumber' v='17' />
    <tag k='addr:street' v='Renwick Drive' />
  </node>
  <node id='-241310' visible='true' lat='-34.43895322964' lon='150.47393672582'>
    <tag k='addr:housenumber' v='12' />
    <tag k='addr:street' v='Balaclava Street' />
  </node>
  <node id='-241312' visible='true' lat='-34.44061607498' lon='150.4713424841'>
    <tag k='addr:housenumber' v='5' />
    <tag k='addr:street' v='Crimea Street' />
  </node>
  <node id='-241314' visible='true' lat='-34.44385766982' lon='150.46760420981'>
    <tag k='addr:housenumber' v='21' />
    <tag k='addr:street' v='Highlander Street' />
  </node>
  <node id='-241316' visible='true' lat='-34.44204751182' lon='150.47129245855'>
    <tag k='addr:housenumber' v='19A' />
    <tag k='addr:street' v='Elsworth Avenue' />
  </node>
  <node id='-241318' visible='true' lat='-34.44214089486' lon='150.46905123124'>
    <tag k='addr:housenumber' v='4' />
    <tag k='addr:street' v='Renwick Drive' />
  </node>
  <node id='-241320' visible='true' lat='-34.43695788868' lon='150.48370816749'>
    <tag k='addr:housenumber' v='13-15' />
    <tag k='addr:street' v='Clariville Street' />
  </node>
  <node id='-241322' visible='true' lat='-34.43960065046' lon='150.47329395118'>
    <tag k='addr:housenumber' v='13' />
    <tag k='addr:street' v='Balaclava Street' />
  </node>
  <node id='-241324' visible='true' lat='-34.44125186652' lon='150.4718813709'>
    <tag k='addr:housenumber' v='30' />
    <tag k='addr:street' v='Elsworth Avenue' />
  </node>
  <node id='-241326' visible='true' lat='-34.44484490222' lon='150.47750719643'>
    <tag k='addr:housenumber' v='45' />
    <tag k='addr:street' v='Inkerman Road' />
  </node>
  <node id='-241328' visible='true' lat='-34.44004614395' lon='150.47252662559'>
    <tag k='addr:housenumber' v='16' />
    <tag k='addr:street' v='Crimea Street' />
  </node>
  <node id='-241330' visible='true' lat='-34.44103873272' lon='150.47041161347'>
    <tag k='addr:housenumber' v='12' />
    <tag k='addr:street' v='Elsworth Avenue' />
  </node>
  <node id='-241332' visible='true' lat='-34.44089243262' lon='150.47805074816'>
    <tag k='addr:housenumber' v='8' />
    <tag k='addr:street' v='Scarlet Street' />
  </node>
  <node id='-241334' visible='true' lat='-34.44331585285' lon='150.48164783566'>
    <tag k='addr:housenumber' v='64-66' />
    <tag k='addr:street' v='Inkerman Road' />
  </node>
  <node id='-241336' visible='true' lat='-34.44285753746' lon='150.4752133492'>
    <tag k='addr:housenumber' v='42-48' />
    <tag k='addr:street' v='Inkerman Road' />
  </node>
  <node id='-241338' visible='true' lat='-34.44071079279' lon='150.47199567561'>
    <tag k='addr:housenumber' v='13' />
    <tag k='addr:street' v='Crimea Street' />
  </node>
  <node id='-241340' visible='true' lat='-34.44105725543' lon='150.47005852718'>
    <tag k='addr:housenumber' v='8' />
    <tag k='addr:street' v='Elsworth Avenue' />
  </node>
  <node id='-241342' visible='true' lat='-34.44036842507' lon='150.470510261'>
    <tag k='addr:housenumber' v='1A' />
    <tag k='addr:street' v='Crimea Street' />
  </node>
  <node id='-241344' visible='true' lat='-34.44172924657' lon='150.47101736233'>
    <tag k='addr:housenumber' v='17' />
    <tag k='addr:street' v='Elsworth Avenue' />
  </node>
  <node id='-241346' visible='true' lat='-34.43952962869' lon='150.47280406499'>
    <tag k='addr:housenumber' v='7' />
    <tag k='addr:street' v='Balaclava Street' />
  </node>
  <node id='-241348' visible='true' lat='-34.43793779271' lon='150.48292653168'>
    <tag k='addr:housenumber' v='11' />
    <tag k='addr:street' v='Clariville Street' />
  </node>
  <node id='-241350' visible='true' lat='-34.44372484598' lon='150.46763064175'>
    <tag k='addr:housenumber' v='19' />
    <tag k='addr:street' v='Highlander Street' />
  </node>
  <node id='-241352' visible='true' lat='-34.43588847056' lon='150.48495714656'>
    <tag k='addr:housenumber' v='17' />
    <tag k='addr:street' v='Clariville Street' />
  </node>
  <node id='-241354' visible='true' lat='-34.43943967111' lon='150.47197239003'>
    <tag k='addr:housenumber' v='51-55' />
    <tag k='addr:street' v='Old Hume Highway' />
  </node>
  <node id='-241356' visible='true' lat='-34.44358032563' lon='150.47450174762'>
    <tag k='addr:housenumber' v='1' />
    <tag k='addr:street' v='Cardigan Street' />
  </node>
  <node id='-241358' visible='true' lat='-34.4435742651' lon='150.46908022954'>
    <tag k='addr:housenumber' v='6' />
    <tag k='addr:street' v='Crane Street' />
  </node>
  <node id='-241360' visible='true' lat='-34.44115714941' lon='150.47122817671'>
    <tag k='addr:housenumber' v='22' />
    <tag k='addr:street' v='Elsworth Avenue' />
  </node>
  <node id='-241362' visible='true' lat='-34.43991219662' lon='150.47143790956'>
    <tag k='addr:housenumber' v='21-29' />
    <tag k='addr:street' v='Old Hume Highway' />
  </node>
  <node id='-241364' visible='true' lat='-34.4420560745' lon='150.47187741463'>
    <tag k='addr:housenumber' v='23' />
    <tag k='addr:street' v='Elsworth Avenue' />
  </node>
  <node id='-241366' visible='true' lat='-34.44077761275' lon='150.47003704768'>
    <tag k='addr:housenumber' v='33' />
    <tag k='addr:street' v='Old Hume Highway' />
  </node>
  <node id='-241368' visible='true' lat='-34.44142087945' lon='150.48138554477'>
    <tag k='addr:housenumber' v='14-20' />
    <tag k='addr:street' v='Scarlet Street' />
  </node>
  <node id='-241370' visible='true' lat='-34.44390404476' lon='150.4682035664'>
    <tag k='addr:housenumber' v='11-13' />
    <tag k='addr:street' v='Crane Street' />
  </node>
  <node id='-241372' visible='true' lat='-34.4431306425' lon='150.48036503969'>
    <tag k='addr:housenumber' v='60-62' />
    <tag k='addr:street' v='Inkerman Road' />
  </node>
  <node id='-241374' visible='true' lat='-34.44228769358' lon='150.47006368304'>
    <tag k='addr:housenumber' v='14-16' />
    <tag k='addr:street' v='Renwick Drive' />
  </node>
  <node id='-241376' visible='true' lat='-34.44191858473' lon='150.48482739317'>
    <tag k='addr:housenumber' v='24' />
    <tag k='addr:street' v='Scarlet Street' />
  </node>
  <node id='-241378' visible='true' lat='-34.44390417057' lon='150.48572902093'>
    <tag k='addr:housenumber' v='76-82' />
    <tag k='addr:street' v='Inkerman Road' />
  </node>
  <node id='-241380' visible='true' lat='-34.44350875795' lon='150.47238564423'>
    <tag k='addr:housenumber' v='29-31' />
    <tag k='addr:street' v='Inkerman Road' />
  </node>
  <node id='-241382' visible='true' lat='-34.44177015173' lon='150.47034128028'>
    <tag k='addr:housenumber' v='13' />
    <tag k='addr:street' v='Elsworth Avenue' />
  </node>
  <node id='-241384' visible='true' lat='-34.4420273452' lon='150.47915473813'>
    <tag k='addr:housenumber' v='56-58' />
    <tag k='addr:street' v='Inkerman Road' />
  </node>
  <node id='-241386' visible='true' lat='-34.44448038632' lon='150.47218083298'>
    <tag k='addr:housenumber' v='5-11' />
    <tag k='addr:street' v='Campbell Street' />
  </node>
  <node id='-241388' visible='true' lat='-34.44162282099' lon='150.46910538'>
    <tag k='addr:housenumber' v='1-7' />
    <tag k='addr:street' v='Elsworth Avenue' />
  </node>
  <node id='-241390' visible='true' lat='-34.44063901662' lon='150.47050278774'>
    <tag k='addr:housenumber' v='15-17' />
    <tag k='addr:street' v='Old Hume Highway' />
  </node>
  <node id='-241392' visible='true' lat='-34.44457131845' lon='150.47563237671'>
    <tag k='addr:housenumber' v='39-41' />
    <tag k='addr:street' v='Inkerman Road' />
  </node>
  <node id='-241394' visible='true' lat='-34.44427831146' lon='150.48399542706'>
    <tag k='addr:housenumber' v='72-74' />
    <tag k='addr:street' v='Inkerman Road' />
  </node>
  <node id='-241396' visible='true' lat='-34.44568146027' lon='150.48326278954'>
    <tag k='addr:housenumber' v='59-61' />
    <tag k='addr:street' v='Inkerman Road' />
  </node>
  <node id='-241398' visible='true' lat='-34.44195957066' lon='150.47164765204'>
    <tag k='addr:housenumber' v='21' />
    <tag k='addr:street' v='Elsworth Avenue' />
  </node>
  <node id='-241400' visible='true' lat='-34.44219412332' lon='150.47070054986'>
    <tag k='addr:housenumber' v='15' />
    <tag k='addr:street' v='Elsworth Avenue' />
  </node>
  <node id='-241402' visible='true' lat='-34.44407372933' lon='150.46750326256'>
    <tag k='addr:housenumber' v='23-25' />
    <tag k='addr:street' v='Highlander Street' />
  </node>
  <node id='-241404' visible='true' lat='-34.44327935573' lon='150.46938810712'>
    <tag k='addr:housenumber' v='2' />
    <tag k='addr:street' v='Crane Street' />
  </node>
  <node id='-241406' visible='true' lat='-34.43938738566' lon='150.48177499701'>
    <tag k='addr:housenumber' v='9-23' />
    <tag k='addr:street' v='Scarlet Street' />
  </node>
  <node id='-241408' visible='true' lat='-34.44202357845' lon='150.47205208867'>
    <tag k='addr:housenumber' v='23A' />
    <tag k='addr:street' v='Elsworth Avenue' />
  </node>
  <node id='-241410' visible='true' lat='-34.44221057396' lon='150.46857430017'>
    <tag k='addr:housenumber' v='1-2' />
    <tag k='addr:street' v='Nightingale Lane' />
  </node>
  <node id='-241412' visible='true' lat='-34.44091935257' lon='150.47343611089'>
    <tag k='addr:housenumber' v='21' />
    <tag k='addr:street' v='Crimea Street' />
  </node>
  <node id='-241414' visible='true' lat='-34.44096670658' lon='150.47376271269'>
    <tag k='addr:housenumber' v='23' />
    <tag k='addr:street' v='Crimea Street' />
  </node>
  <node id='-241416' visible='true' lat='-34.44127656047' lon='150.47285578234'>
    <tag k='addr:housenumber' v='5' />
    <tag k='addr:street' v='Anatolia Avenue' />
  </node>
  <node id='-241418' visible='true' lat='-34.44187710097' lon='150.47260861806'>
    <tag k='addr:housenumber' v='1' />
    <tag k='addr:street' v='Anatolia Avenue' />
  </node>
  <node id='-241420' visible='true' lat='-34.44142077504' lon='150.47343361219'>
    <tag k='addr:housenumber' v='29' />
    <tag k='addr:street' v='Beresford Street' />
  </node>
  <node id='-241422' visible='true' lat='-34.44159160625' lon='150.47278887671'>
    <tag k='addr:housenumber' v='3' />
    <tag k='addr:street' v='Anatolia Avenue' />
  </node>
  <node id='-241424' visible='true' lat='-34.43860552881' lon='150.47295674798'>
    <tag k='addr:housenumber' v='2B' />
    <tag k='addr:street' v='Balaclava Street' />
  </node>
  <node id='-241426' visible='true' lat='-34.44414459794' lon='150.4729249613'>
    <tag k='addr:housenumber' v='4' />
    <tag k='addr:street' v='Cardigan Street' />
  </node>
  <node id='-241428' visible='true' lat='-34.44441518855' lon='150.47286783033'>
    <tag k='addr:housenumber' v='6' />
    <tag k='addr:street' v='Cardigan Street' />
  </node>
  <node id='-241430' visible='true' lat='-34.44009972988' lon='150.47285742972'>
    <tag k='addr:housenumber' v='20' />
    <tag k='addr:street' v='Crimea Street' />
  </node>
  <node id='-241432' visible='true' lat='-34.44014086589' lon='150.47317981774'>
    <tag k='addr:housenumber' v='24' />
    <tag k='addr:street' v='Crimea Street' />
  </node>
  <node id='-241434' visible='true' lat='-34.44011174012' lon='150.47302296111'>
    <tag k='addr:housenumber' v='22' />
    <tag k='addr:street' v='Crimea Street' />
  </node>
  <node id='-241436' visible='true' lat='-34.43855419454' lon='150.47352817814'>
    <tag k='addr:housenumber' v='15' />
    <tag k='addr:street' v='Beresford Street' />
  </node>
  <node id='-241438' visible='true' lat='-34.43784557141' lon='150.47535177563'>
    <tag k='addr:housenumber' v='4' />
    <tag k='addr:street' v='Beresford Street' />
  </node>
  <node id='-241440' visible='true' lat='-34.43788581109' lon='150.47604054981'>
    <tag k='addr:housenumber' v='4A' />
    <tag k='addr:street' v='Beresford Street' />
  </node>
  <node id='-241442' visible='true' lat='-34.44468578214' lon='150.47281070284'>
    <tag k='addr:housenumber' v='8' />
    <tag k='addr:street' v='Cardigan Street' />
  </node>
  <node id='-241444' visible='true' lat='-34.44498397739' lon='150.47274874066'>
    <tag k='addr:housenumber' v='10' />
    <tag k='addr:street' v='Cardigan Street' />
  </node>
  <node id='-241446' visible='true' lat='-34.43948853516' lon='150.4773060599'>
    <tag k='addr:housenumber' v='24' />
    <tag k='addr:street' v='Balaclava Street' />
  </node>
  <node id='-241448' visible='true' lat='-34.43923918021' lon='150.47738347615'>
    <tag k='addr:housenumber' v='24A' />
    <tag k='addr:street' v='Balaclava Street' />
  </node>
  <node id='-241450' visible='true' lat='-34.43901434759' lon='150.47743056818'>
    <tag k='addr:housenumber' v='24B' />
    <tag k='addr:street' v='Balaclava Street' />
  </node>
  <node id='-241452' visible='true' lat='-34.43977562421' lon='150.47460933963'>
    <tag k='addr:housenumber' v='16' />
    <tag k='addr:street' v='Beresford Street' />
  </node>
  <node id='-241454' visible='true' lat='-34.43960714974' lon='150.47464690854'>
    <tag k='addr:housenumber' v='14' />
    <tag k='addr:street' v='Beresford Street' />
  </node>
  <node id='-241456' visible='true' lat='-34.43997264964' lon='150.47657697446'>
    <tag k='addr:housenumber' v='47' />
    <tag k='addr:street' v='Balaclava Street' />
  </node>
  <node id='-241458' visible='true' lat='-34.44016929165' lon='150.47452619956'>
    <tag k='addr:housenumber' v='22' />
    <tag k='addr:street' v='Beresford Street' />
  </node>
  <node id='-241460' visible='true' lat='-34.43999894296' lon='150.4745621403'>
    <tag k='addr:housenumber' v='20' />
    <tag k='addr:street' v='Beresford Street' />
  </node>
  <node id='-241462' visible='true' lat='-34.43973386643' lon='150.47492748519'>
    <tag k='addr:housenumber' v='27' />
    <tag k='addr:street' v='Balaclava Street' />
  </node>
  <node id='-241464' visible='true' lat='-34.4397636507' lon='150.475130882'>
    <tag k='addr:housenumber' v='29' />
    <tag k='addr:street' v='Balaclava Street' />
  </node>
  <node id='-241466' visible='true' lat='-34.43983393662' lon='150.47561832559'>
    <tag k='addr:housenumber' v='39' />
    <tag k='addr:street' v='Balaclava Street' />
  </node>
  <node id='-241468' visible='true' lat='-34.43998510123' lon='150.47488864882'>
    <tag k='addr:housenumber' v='18' />
    <tag k='addr:street' v='Beresford Street' />
  </node>
  <node id='-241470' visible='true' lat='-34.43980284977' lon='150.47540410942'>
    <tag k='addr:housenumber' v='37' />
    <tag k='addr:street' v='Balaclava Street' />
  </node>
  <node id='-241472' visible='true' lat='-34.44006178828' lon='150.47578554822'>
    <tag k='addr:housenumber' v='41' />
    <tag k='addr:street' v='Balaclava Street' />
  </node>
  <node id='-241474' visible='true' lat='-34.44461065137' lon='150.47433013493'>
    <tag k='addr:housenumber' v='5-11' />
    <tag k='addr:street' v='Cardigan Street' />
  </node>
  <node id='-241476' visible='true' lat='-34.44004288881' lon='150.47619966614'>
    <tag k='addr:housenumber' v='45' />
    <tag k='addr:street' v='Balaclava Street' />
  </node>
  <node id='-241478' visible='true' lat='-34.44007757793' lon='150.47598701789'>
    <tag k='addr:housenumber' v='43' />
    <tag k='addr:street' v='Balaclava Street' />
  </node>
  <node id='-241480' visible='true' lat='-34.43934552833' lon='150.47599940554'>
    <tag k='addr:housenumber' v='20C' />
    <tag k='addr:street' v='Balaclava Street' />
  </node>
  <node id='-241482' visible='true' lat='-34.43926481706' lon='150.47543658389'>
    <tag k='addr:housenumber' v='18D' />
    <tag k='addr:street' v='Balaclava Street' />
  </node>
  <node id='-241484' visible='true' lat='-34.43923791223' lon='150.47524897765'>
    <tag k='addr:housenumber' v='18C' />
    <tag k='addr:street' v='Balaclava Street' />
  </node>
  <node id='-241486' visible='true' lat='-34.43918044846' lon='150.47484830581'>
    <tag k='addr:housenumber' v='18A' />
    <tag k='addr:street' v='Balaclava Street' />
  </node>
  <node id='-241488' visible='true' lat='-34.43921100489' lon='150.47506137245'>
    <tag k='addr:housenumber' v='18B' />
    <tag k='addr:street' v='Balaclava Street' />
  </node>
  <node id='-241490' action='modify' visible='true' lat='-34.43914810902' lon='150.474636477'>
    <tag k='addr:housenumber' v='18' />
    <tag k='addr:street' v='Balaclava Street' />
  </node>
  <node id='-241492' visible='true' lat='-34.4423232085' lon='150.47030862948'>
    <tag k='addr:housenumber' v='18' />
    <tag k='addr:street' v='Renwick Drive' />
  </node>
  <node id='-241494' visible='true' lat='-34.4430564007' lon='150.46998356526'>
    <tag k='addr:housenumber' v='21-25' />
    <tag k='addr:street' v='Renwick Drive' />
  </node>
  <node id='-241496' visible='true' lat='-34.43757625448' lon='150.47577329192'>
    <tag k='addr:housenumber' v='2' />
    <tag k='addr:street' v='Beresford Street' />
  </node>
  <node id='-241498' visible='true' lat='-34.43830503961' lon='150.47968097995'>
    <tag k='addr:housenumber' v='32' />
    <tag k='addr:street' v='Balaclava Street' />
  </node>
  <node id='-241500' visible='true' lat='-34.43890416645' lon='150.47548826868'>
    <tag k='addr:housenumber' v='10' />
    <tag k='addr:street' v='Beresford Street' />
  </node>
  <node id='-241502' visible='true' lat='-34.43937281587' lon='150.476189692'>
    <tag k='addr:housenumber' v='20D' />
    <tag k='addr:street' v='Balaclava Street' />
  </node>
  <node id='-241504' visible='true' lat='-34.43910439953' lon='150.47663082637'>
    <tag k='addr:housenumber' v='40' />
    <tag k='addr:street' v='Balaclava Street' />
  </node>
  <node id='-241506' visible='true' lat='-34.43920907427' lon='150.47650542628'>
    <tag k='addr:housenumber' v='38' />
    <tag k='addr:street' v='Balaclava Street' />
  </node>
  <node id='-241508' visible='true' lat='-34.43947987505' lon='150.47644827953'>
    <tag k='addr:housenumber' v='20' />
    <tag k='addr:street' v='Balaclava Street' />
  </node>
  <node id='-241510' visible='true' lat='-34.43988655195' lon='150.4903613242'>
    <tag k='addr:housenumber' v='21' />
    <tag k='addr:street' v='Scarlet Street' />
  </node>
  <node id='-241512' visible='true' lat='-34.44470434089' lon='150.47654392131'>
    <tag k='addr:housenumber' v='43' />
    <tag k='addr:street' v='Inkerman Road' />
  </node>
  <node id='-241514' visible='true' lat='-34.43845009804' lon='150.47760430101'>
    <tag k='addr:housenumber' v='24C' />
    <tag k='addr:street' v='Balaclava Street' />
  </node>
  <node id='-241516' visible='true' lat='-34.43899990462' lon='150.47790259805'>
    <tag k='addr:housenumber' v='100' />
    <tag k='addr:street' v='Balaclava Street' />
  </node>
  <node id='-241518' visible='true' lat='-34.43809171409' lon='150.47810065038'>
    <tag k='addr:housenumber' v='102' />
    <tag k='addr:street' v='Balaclava Street' />
  </node>
  <node id='-241520' visible='true' lat='-34.43973451066' lon='150.47860026693'>
    <tag k='addr:housenumber' v='1' />
    <tag k='addr:street' v='Scarlet Street' />
  </node>
  <node id='-241522' visible='true' lat='-34.44531381408' lon='150.48073317613'>
    <tag k='addr:housenumber' v='53' />
    <tag k='addr:street' v='Inkerman Road' />
  </node>
  <node id='-241524' visible='true' lat='-34.4451743864' lon='150.47976940404'>
    <tag k='addr:housenumber' v='51' />
    <tag k='addr:street' v='Inkerman Road' />
  </node>
  <node id='-241526' visible='true' lat='-34.44500978403' lon='150.4786372228'>
    <tag k='addr:housenumber' v='47-49' />
    <tag k='addr:street' v='Inkerman Road' />
  </node>
  <node id='-241528' action='modify' visible='true' lat='-34.43846055176' lon='150.47887557349'>
    <tag k='addr:housenumber' v='130' />
    <tag k='addr:street' v='Balaclava Street' />
  </node>
  <node id='-241530' action='modify' visible='true' lat='-34.43846055176' lon='150.47891914221'>
    <tag k='addr:housenumber' v='30' />
    <tag k='addr:street' v='Balaclava Street' />
  </node>
  <node id='-241532' action='modify' visible='true' lat='-34.43835156062' lon='150.47842259439'>
    <tag k='addr:housenumber' v='116' />
    <tag k='addr:street' v='Balaclava Street' />
  </node>
  <node id='-241534' action='modify' visible='true' lat='-34.43835156062' lon='150.47846616305'>
    <tag k='addr:housenumber' v='28' />
    <tag k='addr:street' v='Balaclava Street' />
  </node>
  <node id='-241536' action='modify' visible='true' lat='-34.4388094141' lon='150.47841155718'>
    <tag k='addr:housenumber' v='128' />
    <tag k='addr:street' v='Balaclava Street' />
  </node>
  <node id='-241538' action='modify' visible='true' lat='-34.4388094141' lon='150.47845512609'>
    <tag k='addr:housenumber' v='28A' />
    <tag k='addr:street' v='Balaclava Street' />
  </node>
  <node id='-241540' visible='true' lat='-34.43931862208' lon='150.47581179709'>
    <tag k='addr:housenumber' v='30' />
    <tag k='addr:street' v='Balaclava Street' />
  </node>
  <node id='-241542' visible='true' lat='-34.43929171847' lon='150.47562418988'>
    <tag k='addr:housenumber' v='28' />
    <tag k='addr:street' v='Balaclava Street' />
  </node>
  <node id='-241544' visible='true' lat='-34.43863899866' lon='150.4771052749'>
    <tag k='addr:housenumber' v='44' />
    <tag k='addr:street' v='Balaclava Street' />
  </node>
  <node id='-241546' visible='true' lat='-34.44015894695' lon='150.47499230837'>
    <tag k='addr:housenumber' v='31' />
    <tag k='addr:street' v='Balaclava Street' />
  </node>
</osm>
