<?xml version='1.0' encoding='UTF-8'?>
<osm version='0.6' generator='JOSM'>
  <node id='-102242' visible='true' lat='-33.84670674877' lon='151.10893219136'>
    <tag k='addr:housenumber' v='11' />
    <tag k='addr:street' v='Spring Park Circuit' />
  </node>
  <node id='-102244' visible='true' lat='-33.84672763861' lon='151.11263991039'>
    <tag k='addr:housenumber' v='11' />
    <tag k='addr:street' v='Bishop Street' />
  </node>
  <node id='-102246' visible='true' lat='-33.84599757914' lon='151.1117098133'>
    <tag k='addr:housenumber' v='34' />
    <tag k='addr:street' v='Admiralty Drive' />
  </node>
  <node id='-102248' visible='true' lat='-33.84681172967' lon='151.112327752'>
    <tag k='addr:housenumber' v='15' />
    <tag k='addr:street' v='Bishop Street' />
  </node>
  <node id='-102250' visible='true' lat='-33.84550856665' lon='151.11403340633'>
    <tag k='addr:housenumber' v='16' />
    <tag k='addr:street' v='Medora Street' />
  </node>
  <node id='-102252' visible='true' lat='-33.84688257942' lon='151.11162017039'>
    <tag k='addr:housenumber' v='1' />
    <tag k='addr:street' v='Fairwater Drive' />
  </node>
  <node id='-102254' visible='true' lat='-33.84654016809' lon='151.11335340659'>
    <tag k='addr:housenumber' v='2' />
    <tag k='addr:street' v='Breakfast Point Boulevard' />
  </node>
  <node id='-102256' visible='true' lat='-33.8460985399' lon='151.10925598519'>
    <tag k='addr:housenumber' v='26' />
    <tag k='addr:street' v='Adams Street' />
  </node>
  <node id='-102258' visible='true' lat='-33.84601865536' lon='151.10939086949'>
    <tag k='addr:housenumber' v='28' />
    <tag k='addr:street' v='Adams Street' />
  </node>
  <node id='-102260' visible='true' lat='-33.84663150623' lon='151.10909327408'>
    <tag k='addr:housenumber' v='12' />
    <tag k='addr:street' v='Spring Park Circuit' />
  </node>
  <node id='-102262' visible='true' lat='-33.84636214906' lon='151.11294536584'>
    <tag k='addr:housenumber' v='4' />
    <tag k='addr:street' v='Breakfast Point Boulevard' />
  </node>
  <node id='-102264' visible='true' lat='-33.84525998828' lon='151.11416444297'>
    <tag k='addr:housenumber' v='20' />
    <tag k='addr:street' v='Medora Street' />
  </node>
  <node id='-102266' visible='true' lat='-33.84673379688' lon='151.10837607668'>
    <tag k='addr:housenumber' v='12' />
    <tag k='addr:street' v='Adams Street' />
  </node>
  <node id='-102268' visible='true' lat='-33.84577886298' lon='151.11271753732'>
    <tag k='addr:housenumber' v='19' />
    <tag k='addr:street' v='Breakfast Point Boulevard' />
  </node>
  <node id='-102270' visible='true' lat='-33.84750550064' lon='151.10870357146'>
    <tag k='addr:housenumber' v='29K' />
    <tag k='addr:street' v='Brays Road' />
  </node>
  <node id='-102272' visible='true' lat='-33.84713053002' lon='151.10900001557'>
    <tag k='addr:housenumber' v='8' />
    <tag k='addr:street' v='Spring Park Circuit' />
  </node>
  <node id='-102274' visible='true' lat='-33.84589470727' lon='151.11202728729'>
    <tag k='addr:housenumber' v='26' />
    <tag k='addr:street' v='Breakfast Point Boulevard' />
  </node>
  <node id='-102276' visible='true' lat='-33.84644126636' lon='151.10875918098'>
    <tag k='addr:housenumber' v='18' />
    <tag k='addr:street' v='Adams Street' />
  </node>
  <node id='-102278' visible='true' lat='-33.84661511389' lon='151.11052520185'>
    <tag k='addr:housenumber' v='18' />
    <tag k='addr:street' v='Fairwater Drive' />
  </node>
  <node id='-102280' visible='true' lat='-33.84628359483' lon='151.11275041475'>
    <tag k='addr:housenumber' v='8' />
    <tag k='addr:street' v='Breakfast Point Boulevard' />
  </node>
  <node id='-102282' visible='true' lat='-33.84630895061' lon='151.11095283999'>
    <tag k='addr:housenumber' v='56' />
    <tag k='addr:street' v='Admiralty Drive' />
  </node>
  <node id='-102284' visible='true' lat='-33.84747267653' lon='151.10886091102'>
    <tag k='addr:housenumber' v='29J' />
    <tag k='addr:street' v='Brays Road' />
  </node>
  <node id='-102286' visible='true' lat='-33.84701608755' lon='151.11099381873'>
    <tag k='addr:housenumber' v='9' />
    <tag k='addr:street' v='Fairwater Drive' />
  </node>
  <node id='-102288' visible='true' lat='-33.84661071426' lon='151.108486194'>
    <tag k='addr:housenumber' v='14' />
    <tag k='addr:street' v='Adams Street' />
  </node>
  <node id='-102290' visible='true' lat='-33.84664361925' lon='151.11295198819'>
    <tag k='addr:housenumber' v='7' />
    <tag k='addr:street' v='Bishop Street' />
  </node>
  <node id='-102292' visible='true' lat='-33.84659347369' lon='151.11094042775'>
    <tag k='addr:housenumber' v='10' />
    <tag k='addr:street' v='Fairwater Drive' />
  </node>
  <node id='-102294' visible='true' lat='-33.84699871887' lon='151.10954661561'>
    <tag k='addr:housenumber' v='5' />
    <tag k='addr:street' v='Spring Park Circuit' />
  </node>
  <node id='-102296' visible='true' lat='-33.84652354825' lon='151.11125631034'>
    <tag k='addr:housenumber' v='6' />
    <tag k='addr:street' v='Fairwater Drive' />
  </node>
  <node id='-102298' visible='true' lat='-33.84605649734' lon='151.11321763677'>
    <tag k='addr:housenumber' v='5' />
    <tag k='addr:street' v='Breakfast Point Boulevard' />
  </node>
  <node id='-102300' visible='true' lat='-33.84698066989' lon='151.1111502009'>
    <tag k='addr:housenumber' v='7' />
    <tag k='addr:street' v='Fairwater Drive' />
  </node>
  <node id='-102302' visible='true' lat='-33.84575901677' lon='151.11390142571'>
    <tag k='addr:housenumber' v='12' />
    <tag k='addr:street' v='Medora Street' />
  </node>
  <node id='-102304' visible='true' lat='-33.84716764473' lon='151.11026680164'>
    <tag k='addr:housenumber' v='29A' />
    <tag k='addr:street' v='Brays Road' />
  </node>
  <node id='-102306' visible='true' lat='-33.84674543123' lon='151.11056531921'>
    <tag k='addr:housenumber' v='16' />
    <tag k='addr:street' v='Fairwater Drive' />
  </node>
  <node id='-102308' visible='true' lat='-33.84694100256' lon='151.11011961947'>
    <tag k='addr:housenumber' v='19' />
    <tag k='addr:street' v='Fairwater Drive' />
  </node>
  <node id='-102310' visible='true' lat='-33.845935512' lon='151.11212122811'>
    <tag k='addr:housenumber' v='24' />
    <tag k='addr:street' v='Breakfast Point Boulevard' />
  </node>
  <node id='-102312' visible='true' lat='-33.84500481228' lon='151.11429119249'>
    <tag k='addr:housenumber' v='2' />
    <tag k='addr:street' v='Admiralty Drive' />
  </node>
  <node id='-102314' visible='true' lat='-33.84734242901' lon='151.10948743021'>
    <tag k='addr:housenumber' v='29F' />
    <tag k='addr:street' v='Brays Road' />
  </node>
  <node id='-102316' visible='true' lat='-33.84693772116' lon='151.11185960637'>
    <tag k='addr:housenumber' v='21' />
    <tag k='addr:street' v='Bishop Street' />
  </node>
  <node id='-102318' visible='true' lat='-33.84639035725' lon='151.11002448146'>
    <tag k='addr:housenumber' v='25' />
    <tag k='addr:street' v='Fairwater Drive' />
  </node>
  <node id='-102320' visible='true' lat='-33.84582651167' lon='151.11280382688'>
    <tag k='addr:housenumber' v='17' />
    <tag k='addr:street' v='Breakfast Point Boulevard' />
  </node>
  <node id='-102322' visible='true' lat='-33.84616431656' lon='151.1125350144'>
    <tag k='addr:housenumber' v='14' />
    <tag k='addr:street' v='Breakfast Point Boulevard' />
  </node>
  <node id='-102324' visible='true' lat='-33.84694545654' lon='151.11130819979'>
    <tag k='addr:housenumber' v='5' />
    <tag k='addr:street' v='Fairwater Drive' />
  </node>
  <node id='-102326' visible='true' lat='-33.84705082261' lon='151.11083707314'>
    <tag k='addr:housenumber' v='11' />
    <tag k='addr:street' v='Fairwater Drive' />
  </node>
  <node id='-102328' visible='true' lat='-33.84609049447' lon='151.11240128865'>
    <tag k='addr:housenumber' v='16' />
    <tag k='addr:street' v='Breakfast Point Boulevard' />
  </node>
  <node id='-102330' visible='true' lat='-33.84626953648' lon='151.11042771561'>
    <tag k='addr:housenumber' v='62' />
    <tag k='addr:street' v='Admiralty Drive' />
  </node>
  <node id='-102332' visible='true' lat='-33.84713237144' lon='151.11051443731'>
    <tag k='addr:housenumber' v='17' />
    <tag k='addr:street' v='Fairwater Drive' />
  </node>
  <node id='-102334' visible='true' lat='-33.84723851312' lon='151.10995459436'>
    <tag k='addr:housenumber' v='29C' />
    <tag k='addr:street' v='Brays Road' />
  </node>
  <node id='-102336' visible='true' lat='-33.84688294253' lon='151.10840480839'>
    <tag k='addr:housenumber' v='10' />
    <tag k='addr:street' v='Adams Street' />
  </node>
  <node id='-102338' visible='true' lat='-33.84588566322' lon='151.11383467606'>
    <tag k='addr:housenumber' v='10' />
    <tag k='addr:street' v='Medora Street' />
  </node>
  <node id='-102340' visible='true' lat='-33.84632807619' lon='151.10991712948'>
    <tag k='addr:housenumber' v='66' />
    <tag k='addr:street' v='Admiralty Drive' />
  </node>
  <node id='-102342' visible='true' lat='-33.84654390219' lon='151.10922392013'>
    <tag k='addr:housenumber' v='15' />
    <tag k='addr:street' v='Spring Park Circuit' />
  </node>
  <node id='-102344' visible='true' lat='-33.84607346869' lon='151.11159016881'>
    <tag k='addr:housenumber' v='36' />
    <tag k='addr:street' v='Admiralty Drive' />
  </node>
  <node id='-102346' visible='true' lat='-33.84635555312' lon='151.10888343353'>
    <tag k='addr:housenumber' v='20' />
    <tag k='addr:street' v='Adams Street' />
  </node>
  <node id='-102348' visible='true' lat='-33.84563236956' lon='151.11396816405'>
    <tag k='addr:housenumber' v='14' />
    <tag k='addr:street' v='Medora Street' />
  </node>
  <node id='-102350' visible='true' lat='-33.84594869759' lon='151.11302325499'>
    <tag k='addr:housenumber' v='11' />
    <tag k='addr:street' v='Breakfast Point Boulevard' />
  </node>
  <node id='-102352' visible='true' lat='-33.84668215664' lon='151.11004413053'>
    <tag k='addr:housenumber' v='23' />
    <tag k='addr:street' v='Fairwater Drive' />
  </node>
  <node id='-102354' visible='true' lat='-33.84637776557' lon='151.10948169131'>
    <tag k='addr:housenumber' v='17' />
    <tag k='addr:street' v='Spring Park Circuit' />
  </node>
  <node id='-102356' visible='true' lat='-33.84590093777' lon='151.11293715279'>
    <tag k='addr:housenumber' v='15' />
    <tag k='addr:street' v='Breakfast Point Boulevard' />
  </node>
  <node id='-102358' visible='true' lat='-33.84618398191' lon='151.10913240241'>
    <tag k='addr:housenumber' v='24' />
    <tag k='addr:street' v='Adams Street' />
  </node>
  <node id='-102360' visible='true' lat='-33.8469642606' lon='151.10970339049'>
    <tag k='addr:housenumber' v='3' />
    <tag k='addr:street' v='Spring Park Circuit' />
  </node>
  <node id='-102362' visible='true' lat='-33.84636802175' lon='151.1104569958'>
    <tag k='addr:housenumber' v='22' />
    <tag k='addr:street' v='Fairwater Drive' />
  </node>
  <node id='-102364' visible='true' lat='-33.84625747574' lon='151.10969057685'>
    <tag k='addr:housenumber' v='70' />
    <tag k='addr:street' v='Admiralty Drive' />
  </node>
  <node id='-102366' visible='true' lat='-33.84668564277' lon='151.11279593928'>
    <tag k='addr:housenumber' v='9' />
    <tag k='addr:street' v='Bishop Street' />
  </node>
  <node id='-102368' visible='true' lat='-33.84714295692' lon='151.10849518456'>
    <tag k='addr:housenumber' v='6' />
    <tag k='addr:street' v='Adams Street' />
  </node>
  <node id='-102370' visible='true' lat='-33.84619064885' lon='151.10958748662'>
    <tag k='addr:housenumber' v='72' />
    <tag k='addr:street' v='Admiralty Drive' />
  </node>
  <node id='-102372' visible='true' lat='-33.84626964855' lon='151.10900809118'>
    <tag k='addr:housenumber' v='22' />
    <tag k='addr:street' v='Adams Street' />
  </node>
  <node id='-102374' visible='true' lat='-33.84538445386' lon='151.11409927722'>
    <tag k='addr:housenumber' v='18' />
    <tag k='addr:street' v='Medora Street' />
  </node>
  <node id='-102376' visible='true' lat='-33.84692962086' lon='151.10986091077'>
    <tag k='addr:housenumber' v='2' />
    <tag k='addr:street' v='Spring Park Circuit' />
  </node>
  <node id='-102378' visible='true' lat='-33.8463194529' lon='151.11281516813'>
    <tag k='addr:housenumber' v='6' />
    <tag k='addr:street' v='Breakfast Point Boulevard' />
  </node>
  <node id='-102380' visible='true' lat='-33.84604301229' lon='151.11231557575'>
    <tag k='addr:housenumber' v='18' />
    <tag k='addr:street' v='Breakfast Point Boulevard' />
  </node>
  <node id='-102382' visible='true' lat='-33.84624539739' lon='151.11121133085'>
    <tag k='addr:housenumber' v='52' />
    <tag k='addr:street' v='Admiralty Drive' />
  </node>
  <node id='-102384' visible='true' lat='-33.84574286455' lon='151.11265281172'>
    <tag k='addr:housenumber' v='21' />
    <tag k='addr:street' v='Breakfast Point Boulevard' />
  </node>
  <node id='-102386' visible='true' lat='-33.84652662588' lon='151.10863487776'>
    <tag k='addr:housenumber' v='16' />
    <tag k='addr:street' v='Adams Street' />
  </node>
  <node id='-102388' visible='true' lat='-33.84659001393' lon='151.1132493638'>
    <tag k='addr:housenumber' v='3' />
    <tag k='addr:street' v='Bishop Street' />
  </node>
  <node id='-102390' visible='true' lat='-33.84481947292' lon='151.10876737543'>
    <tag k='addr:housenumber' v='7' />
    <tag k='addr:street' v='Emily Street' />
  </node>
  <node id='-102392' visible='true' lat='-33.84508319224' lon='151.10896491635'>
    <tag k='addr:housenumber' v='5' />
    <tag k='addr:street' v='Emily Street' />
  </node>
  <node id='-102394' visible='true' lat='-33.84531145312' lon='151.1091358802'>
    <tag k='addr:housenumber' v='3' />
    <tag k='addr:street' v='Emily Street' />
  </node>
  <node id='-102396' visible='true' lat='-33.84552349337' lon='151.1092869048'>
    <tag k='addr:housenumber' v='1' />
    <tag k='addr:street' v='Emily Street' />
  </node>
  <node id='-102398' visible='true' lat='-33.83921700699' lon='151.10846608598'>
    <tag k='addr:housenumber' v='145' />
    <tag k='addr:street' v='Peninsula Drive' />
  </node>
  <node id='-102400' visible='true' lat='-33.83942791095' lon='151.10873231213'>
    <tag k='addr:housenumber' v='139' />
    <tag k='addr:street' v='Peninsula Drive' />
  </node>
  <node id='-102402' visible='true' lat='-33.83941022351' lon='151.109112592'>
    <tag k='addr:housenumber' v='133' />
    <tag k='addr:street' v='Peninsula Drive' />
  </node>
  <node id='-102404' visible='true' lat='-33.83937434576' lon='151.1093023309'>
    <tag k='addr:housenumber' v='129' />
    <tag k='addr:street' v='Peninsula Drive' />
  </node>
  <node id='-102406' visible='true' lat='-33.83943008055' lon='151.10901864581'>
    <tag k='addr:housenumber' v='135' />
    <tag k='addr:street' v='Peninsula Drive' />
  </node>
  <node id='-102408' visible='true' lat='-33.83934042877' lon='151.10863498693'>
    <tag k='addr:housenumber' v='141' />
    <tag k='addr:street' v='Peninsula Drive' />
  </node>
  <node id='-102410' visible='true' lat='-33.83948954476' lon='151.10889816631'>
    <tag k='addr:housenumber' v='137' />
    <tag k='addr:street' v='Peninsula Drive' />
  </node>
  <node id='-102412' visible='true' lat='-33.83939250844' lon='151.10920726319'>
    <tag k='addr:housenumber' v='131' />
    <tag k='addr:street' v='Peninsula Drive' />
  </node>
  <node id='-102414' visible='true' lat='-33.83929212693' lon='151.10855687444'>
    <tag k='addr:housenumber' v='143' />
    <tag k='addr:street' v='Peninsula Drive' />
  </node>
  <node id='-102416' visible='true' lat='-33.83936080136' lon='151.10941405176'>
    <tag k='addr:housenumber' v='127' />
    <tag k='addr:street' v='Peninsula Drive' />
  </node>
  <node id='-102418' visible='true' lat='-33.84172380182' lon='151.11038591739'>
    <tag k='addr:housenumber' v='41' />
    <tag k='addr:street' v='Vineyard Way' />
  </node>
  <node id='-102420' visible='true' lat='-33.84187988578' lon='151.11042951004'>
    <tag k='addr:housenumber' v='37' />
    <tag k='addr:street' v='Vineyard Way' />
  </node>
  <node id='-102422' visible='true' lat='-33.84180801325' lon='151.11040705055'>
    <tag k='addr:housenumber' v='39' />
    <tag k='addr:street' v='Vineyard Way' />
  </node>
  <node id='-102424' visible='true' lat='-33.84203051428' lon='151.11047809362'>
    <tag k='addr:housenumber' v='33' />
    <tag k='addr:street' v='Vineyard Way' />
  </node>
  <node id='-102426' visible='true' lat='-33.84224303719' lon='151.11054235724'>
    <tag k='addr:housenumber' v='27' />
    <tag k='addr:street' v='Vineyard Way' />
  </node>
  <node id='-102428' visible='true' lat='-33.84238662362' lon='151.11058824101'>
    <tag k='addr:housenumber' v='23' />
    <tag k='addr:street' v='Vineyard Way' />
  </node>
  <node id='-102430' visible='true' lat='-33.84195166087' lon='151.11045320066'>
    <tag k='addr:housenumber' v='35' />
    <tag k='addr:street' v='Vineyard Way' />
  </node>
  <node id='-102432' visible='true' lat='-33.84216425211' lon='151.11051816308'>
    <tag k='addr:housenumber' v='29' />
    <tag k='addr:street' v='Vineyard Way' />
  </node>
  <node id='-102434' visible='true' lat='-33.84231492973' lon='151.11056441716'>
    <tag k='addr:housenumber' v='25' />
    <tag k='addr:street' v='Vineyard Way' />
  </node>
  <node id='-102436' visible='true' lat='-33.84247352161' lon='151.11061127226'>
    <tag k='addr:housenumber' v='21' />
    <tag k='addr:street' v='Vineyard Way' />
  </node>
  <node id='-102438' visible='true' lat='-33.84305744801' lon='151.11076745313'>
    <tag k='addr:housenumber' v='7' />
    <tag k='addr:street' v='Vineyard Way' />
  </node>
  <node id='-102440' visible='true' lat='-33.84291344061' lon='151.11072275735'>
    <tag k='addr:housenumber' v='11' />
    <tag k='addr:street' v='Vineyard Way' />
  </node>
  <node id='-102442' visible='true' lat='-33.84298539357' lon='151.1107451191'>
    <tag k='addr:housenumber' v='9' />
    <tag k='addr:street' v='Vineyard Way' />
  </node>
  <node id='-102444' visible='true' lat='-33.84284031394' lon='151.1107116669'>
    <tag k='addr:housenumber' v='15' />
    <tag k='addr:street' v='Vineyard Way' />
  </node>
  <node id='-102446' visible='true' lat='-33.84331003644' lon='151.11091277629'>
    <tag k='addr:housenumber' v='1' />
    <tag k='addr:street' v='Vineyard Way' />
  </node>
  <node id='-102448' visible='true' lat='-33.84312932522' lon='151.11079049739'>
    <tag k='addr:housenumber' v='5' />
    <tag k='addr:street' v='Vineyard Way' />
  </node>
  <node id='-102450' visible='true' lat='-33.84320233638' lon='151.11081514162'>
    <tag k='addr:housenumber' v='3' />
    <tag k='addr:street' v='Vineyard Way' />
  </node>
  <node id='-102452' visible='true' lat='-33.84275155098' lon='151.11069650537'>
    <tag k='addr:housenumber' v='17' />
    <tag k='addr:street' v='Vineyard Way' />
  </node>
  <node id='-102456' visible='true' lat='-33.83878461622' lon='151.10714492192'>
    <tag k='addr:housenumber' v='169' />
    <tag k='addr:street' v='Peninsula Drive' />
  </node>
  <node id='-102458' visible='true' lat='-33.83873844963' lon='151.10706511698'>
    <tag k='addr:housenumber' v='171' />
    <tag k='addr:street' v='Peninsula Drive' />
  </node>
  <node id='-102460' visible='true' lat='-33.8388290276' lon='151.107225041'>
    <tag k='addr:housenumber' v='167' />
    <tag k='addr:street' v='Peninsula Drive' />
  </node>
  <node id='-102462' visible='true' lat='-33.83868072122' lon='151.10697365805'>
    <tag k='addr:housenumber' v='173' />
    <tag k='addr:street' v='Peninsula Drive' />
  </node>
  <node id='-102464' visible='true' lat='-33.83854879082' lon='151.10679504697'>
    <tag k='addr:housenumber' v='175-177' />
    <tag k='addr:street' v='Peninsula Drive' />
  </node>
  <node id='-102466' visible='true' lat='-33.83909214738' lon='151.10805122305'>
    <tag k='addr:housenumber' v='151' />
    <tag k='addr:street' v='Peninsula Drive' />
  </node>
  <node id='-102468' visible='true' lat='-33.83907441948' lon='151.10795626303'>
    <tag k='addr:housenumber' v='153' />
    <tag k='addr:street' v='Peninsula Drive' />
  </node>
  <node id='-102470' visible='true' lat='-33.83905781125' lon='151.10786151084'>
    <tag k='addr:housenumber' v='155' />
    <tag k='addr:street' v='Peninsula Drive' />
  </node>
  <node id='-102472' visible='true' lat='-33.8391108697' lon='151.10814678217'>
    <tag k='addr:housenumber' v='149' />
    <tag k='addr:street' v='Peninsula Drive' />
  </node>
  <node id='-102474' visible='true' lat='-33.83892086716' lon='151.10738678914'>
    <tag k='addr:housenumber' v='163' />
    <tag k='addr:street' v='Peninsula Drive' />
  </node>
  <node id='-102476' visible='true' lat='-33.83904015377' lon='151.10776660233'>
    <tag k='addr:housenumber' v='157' />
    <tag k='addr:street' v='Peninsula Drive' />
  </node>
  <node id='-102478' visible='true' lat='-33.83887603834' lon='151.10730484373'>
    <tag k='addr:housenumber' v='165' />
    <tag k='addr:street' v='Peninsula Drive' />
  </node>
  <node id='-102480' visible='true' lat='-33.83898560594' lon='151.10749421982'>
    <tag k='addr:housenumber' v='161' />
    <tag k='addr:street' v='Peninsula Drive' />
  </node>
  <node id='-102482' visible='true' lat='-33.83902676011' lon='151.10764441376'>
    <tag k='addr:housenumber' v='159' />
    <tag k='addr:street' v='Peninsula Drive' />
  </node>
  <node id='-102484' visible='true' lat='-33.83912056907' lon='151.10826658888'>
    <tag k='addr:housenumber' v='147' />
    <tag k='addr:street' v='Peninsula Drive' />
  </node>
  <node id='-102486' visible='true' lat='-33.83909922923' lon='151.11126176936'>
    <tag k='addr:housenumber' v='95' />
    <tag k='addr:street' v='Peninsula Drive' />
  </node>
  <node id='-102488' visible='true' lat='-33.83922038336' lon='151.11135285523'>
    <tag k='addr:housenumber' v='93' />
    <tag k='addr:street' v='Peninsula Drive' />
  </node>
  <node id='-102490' visible='true' lat='-33.83935571583' lon='151.11143992177'>
    <tag k='addr:housenumber' v='91' />
    <tag k='addr:street' v='Peninsula Drive' />
  </node>
  <node id='-102492' visible='true' lat='-33.83961968251' lon='151.11160472806'>
    <tag k='addr:housenumber' v='87' />
    <tag k='addr:street' v='Peninsula Drive' />
  </node>
  <node id='-102494' visible='true' lat='-33.83974848816' lon='151.11169651572'>
    <tag k='addr:housenumber' v='85' />
    <tag k='addr:street' v='Peninsula Drive' />
  </node>
  <node id='-102496' visible='true' lat='-33.83988759202' lon='151.11178690737'>
    <tag k='addr:housenumber' v='83' />
    <tag k='addr:street' v='Peninsula Drive' />
  </node>
  <node id='-102498' visible='true' lat='-33.84002474023' lon='151.11186358469'>
    <tag k='addr:housenumber' v='81' />
    <tag k='addr:street' v='Peninsula Drive' />
  </node>
  <node id='-102500' visible='true' lat='-33.83922209505' lon='151.11020305316'>
    <tag k='addr:housenumber' v='111' />
    <tag k='addr:street' v='Peninsula Drive' />
  </node>
  <node id='-102502' visible='true' lat='-33.83912177994' lon='151.11035846506'>
    <tag k='addr:housenumber' v='109' />
    <tag k='addr:street' v='Peninsula Drive' />
  </node>
  <node id='-102504' visible='true' lat='-33.83905611565' lon='151.11049016811'>
    <tag k='addr:housenumber' v='107' />
    <tag k='addr:street' v='Peninsula Drive' />
  </node>
  <node id='-102506' visible='true' lat='-33.8389908848' lon='151.11061847265'>
    <tag k='addr:housenumber' v='105' />
    <tag k='addr:street' v='Peninsula Drive' />
  </node>
  <node id='-102508' visible='true' lat='-33.83894515114' lon='151.11073769102'>
    <tag k='addr:housenumber' v='103' />
    <tag k='addr:street' v='Peninsula Drive' />
  </node>
  <node id='-102510' visible='true' lat='-33.84624625569' lon='151.11363787589'>
    <tag k='addr:housenumber' v='4' />
    <tag k='addr:street' v='Medora Street' />
  </node>
  <node id='-102512' visible='true' lat='-33.84632719721' lon='151.11355738873'>
    <tag k='addr:housenumber' v='1' />
    <tag k='addr:street' v='Breakfast Point Boulevard' />
  </node>
  <node id='-102514' visible='true' lat='-33.8394889281' lon='151.11152904368'>
    <tag k='addr:housenumber' v='89' />
    <tag k='addr:street' v='Peninsula Drive' />
  </node>
  <node id='-102516' visible='true' lat='-33.84227909086' lon='151.1093865735'>
    <tag k='addr:housenumber' v='20' />
    <tag k='addr:street' v='Juniper Drive' />
  </node>
  <node id='-102518' visible='true' lat='-33.84258634679' lon='151.10948202531'>
    <tag k='addr:housenumber' v='10' />
    <tag k='addr:street' v='Juniper Drive' />
  </node>
  <node id='-102520' visible='true' lat='-33.84244235963' lon='151.10943737186'>
    <tag k='addr:housenumber' v='16' />
    <tag k='addr:street' v='Juniper Drive' />
  </node>
  <node id='-102522' visible='true' lat='-33.84237041112' lon='151.10941477517'>
    <tag k='addr:housenumber' v='18' />
    <tag k='addr:street' v='Juniper Drive' />
  </node>
  <node id='-102524' visible='true' lat='-33.84250169223' lon='151.10917385458'>
    <tag k='addr:housenumber' v='19' />
    <tag k='addr:street' v='Market Street' />
  </node>
  <node id='-102526' visible='true' lat='-33.8424340482' lon='151.10915286498'>
    <tag k='addr:housenumber' v='21' />
    <tag k='addr:street' v='Market Street' />
  </node>
  <node id='-102528' visible='true' lat='-33.84234065254' lon='151.10912377969'>
    <tag k='addr:housenumber' v='23' />
    <tag k='addr:street' v='Market Street' />
  </node>
  <node id='-102530' visible='true' lat='-33.84267229325' lon='151.109505769'>
    <tag k='addr:housenumber' v='8' />
    <tag k='addr:street' v='Juniper Drive' />
  </node>
  <node id='-102532' visible='true' lat='-33.84272528633' lon='151.10924339273'>
    <tag k='addr:housenumber' v='11' />
    <tag k='addr:street' v='Market Street' />
  </node>
  <node id='-102534' visible='true' lat='-33.84263707481' lon='151.10921598462'>
    <tag k='addr:housenumber' v='15' />
    <tag k='addr:street' v='Market Street' />
  </node>
  <node id='-102536' visible='true' lat='-33.84256944665' lon='151.1091949104'>
    <tag k='addr:housenumber' v='17' />
    <tag k='addr:street' v='Market Street' />
  </node>
  <node id='-102538' visible='true' lat='-33.84036317785' lon='151.10797481722'>
    <tag k='addr:housenumber' v='10' />
    <tag k='addr:street' v='Woodlands Avenue' />
  </node>
  <node id='-102540' visible='true' lat='-33.84013051551' lon='151.10787652902'>
    <tag k='addr:housenumber' v='16' />
    <tag k='addr:street' v='Woodlands Avenue' />
  </node>
  <node id='-102542' visible='true' lat='-33.84028181728' lon='151.10794316'>
    <tag k='addr:housenumber' v='12' />
    <tag k='addr:street' v='Woodlands Avenue' />
  </node>
  <node id='-102544' visible='true' lat='-33.84021352544' lon='151.1079060113'>
    <tag k='addr:housenumber' v='12A' />
    <tag k='addr:street' v='Woodlands Avenue' />
  </node>
  <node id='-102546' visible='true' lat='-33.84045847464' lon='151.10903287621'>
    <tag k='addr:housenumber' v='15' />
    <tag k='addr:street' v='Woodlands Avenue' />
  </node>
  <node id='-102548' visible='true' lat='-33.83890271964' lon='151.11087407596'>
    <tag k='addr:housenumber' v='101' />
    <tag k='addr:street' v='Peninsula Drive' />
  </node>
  <node id='-102550' visible='true' lat='-33.83863440149' lon='151.11108976326'>
    <tag k='addr:housenumber' v='99B' />
    <tag k='addr:street' v='Peninsula Drive' />
  </node>
  <node id='-102552' visible='true' lat='-33.83888627052' lon='151.11140130131'>
    <tag k='addr:housenumber' v='97C' />
    <tag k='addr:street' v='Peninsula Drive' />
  </node>
  <node id='-102554' visible='true' lat='-33.83875682063' lon='151.11142349177'>
    <tag k='addr:housenumber' v='97B' />
    <tag k='addr:street' v='Peninsula Drive' />
  </node>
  <node id='-102556' visible='true' lat='-33.83876125728' lon='151.11099288791'>
    <tag k='addr:housenumber' v='99C' />
    <tag k='addr:street' v='Peninsula Drive' />
  </node>
  <node id='-102558' visible='true' lat='-33.83849800193' lon='151.11122379543'>
    <tag k='addr:housenumber' v='99A' />
    <tag k='addr:street' v='Peninsula Drive' />
  </node>
  <node id='-102560' visible='true' lat='-33.83857640459' lon='151.11143850488'>
    <tag k='addr:housenumber' v='97A' />
    <tag k='addr:street' v='Peninsula Drive' />
  </node>
  <node id='-102562' visible='true' lat='-33.84090549278' lon='151.11176360011'>
    <tag k='addr:housenumber' v='24' />
    <tag k='addr:street' v='Peninsula Drive' />
  </node>
  <node id='-102564' visible='true' lat='-33.84077480083' lon='151.11172245889'>
    <tag k='addr:housenumber' v='26' />
    <tag k='addr:street' v='Peninsula Drive' />
  </node>
  <node id='-102566' visible='true' lat='-33.8403942558' lon='151.10918451265'>
    <tag k='addr:housenumber' v='11' />
    <tag k='addr:street' v='Woodlands Avenue' />
  </node>
  <node id='-102568' visible='true' lat='-33.84567084766' lon='151.11252334962'>
    <tag k='addr:housenumber' v='25' />
    <tag k='addr:street' v='Breakfast Point Boulevard' />
  </node>
  <node id='-102570' visible='true' lat='-33.84689575994' lon='151.11201562593'>
    <tag k='addr:housenumber' v='19' />
    <tag k='addr:street' v='Bishop Street' />
  </node>
  <node id='-102572' visible='true' lat='-33.84662845417' lon='151.11078404388'>
    <tag k='addr:housenumber' v='12' />
    <tag k='addr:street' v='Fairwater Drive' />
  </node>
  <node id='-102574' visible='true' lat='-33.84720289527' lon='151.11011087918'>
    <tag k='addr:housenumber' v='29B' />
    <tag k='addr:street' v='Brays Road' />
  </node>
  <node id='-102576' visible='true' lat='-33.84613257483' lon='151.11370106157'>
    <tag k='addr:housenumber' v='6' />
    <tag k='addr:street' v='Medora Street' />
  </node>
  <node id='-102578' visible='true' lat='-33.84621088984' lon='151.11133752107'>
    <tag k='addr:housenumber' v='50' />
    <tag k='addr:street' v='Admiralty Drive' />
  </node>
  <node id='-102580' visible='true' lat='-33.84621191644' lon='151.11262091985'>
    <tag k='addr:housenumber' v='12' />
    <tag k='addr:street' v='Breakfast Point Boulevard' />
  </node>
  <node id='-102582' visible='true' lat='-33.84597138123' lon='151.11218596563'>
    <tag k='addr:housenumber' v='22' />
    <tag k='addr:street' v='Breakfast Point Boulevard' />
  </node>
  <node id='-102584' visible='true' lat='-33.84627895163' lon='151.11108268107'>
    <tag k='addr:housenumber' v='54' />
    <tag k='addr:street' v='Admiralty Drive' />
  </node>
  <node id='-102586' visible='true' lat='-33.84702676123' lon='151.10884793837'>
    <tag k='addr:housenumber' v='9' />
    <tag k='addr:street' v='Spring Park Circuit' />
  </node>
  <node id='-102588' visible='true' lat='-33.84561330302' lon='151.11241920269'>
    <tag k='addr:housenumber' v='27' />
    <tag k='addr:street' v='Breakfast Point Boulevard' />
  </node>
  <node id='-102590' visible='true' lat='-33.84685373954' lon='151.11217167717'>
    <tag k='addr:housenumber' v='17' />
    <tag k='addr:street' v='Bishop Street' />
  </node>
  <node id='-102592' visible='true' lat='-33.84684095974' lon='151.10881228596'>
    <tag k='addr:housenumber' v='10' />
    <tag k='addr:street' v='Spring Park Circuit' />
  </node>
  <node id='-102594' visible='true' lat='-33.84737489334' lon='151.10933074885'>
    <tag k='addr:housenumber' v='29G' />
    <tag k='addr:street' v='Brays Road' />
  </node>
  <node id='-102596' visible='true' lat='-33.84570696921' lon='151.11258801503'>
    <tag k='addr:housenumber' v='23' />
    <tag k='addr:street' v='Breakfast Point Boulevard' />
  </node>
  <node id='-102598' visible='true' lat='-33.84600946801' lon='151.11376943318'>
    <tag k='addr:housenumber' v='8' />
    <tag k='addr:street' v='Medora Street' />
  </node>
  <node id='-102600' visible='true' lat='-33.84708552275' lon='151.11067974235'>
    <tag k='addr:housenumber' v='15' />
    <tag k='addr:street' v='Fairwater Drive' />
  </node>
  <node id='-102602' visible='true' lat='-33.84624775033' lon='151.11268566844'>
    <tag k='addr:housenumber' v='10' />
    <tag k='addr:street' v='Breakfast Point Boulevard' />
  </node>
  <node id='-102604' visible='true' lat='-33.84681121464' lon='151.11008294807'>
    <tag k='addr:housenumber' v='21' />
    <tag k='addr:street' v='Fairwater Drive' />
  </node>
  <node id='-102606' visible='true' lat='-33.84744017552' lon='151.10901717059'>
    <tag k='addr:housenumber' v='29I' />
    <tag k='addr:street' v='Brays Road' />
  </node>
  <node id='-102608' visible='true' lat='-33.84655876095' lon='151.11109867901'>
    <tag k='addr:housenumber' v='8' />
    <tag k='addr:street' v='Fairwater Drive' />
  </node>
  <node id='-102610' visible='true' lat='-33.84610371335' lon='151.11331000049'>
    <tag k='addr:housenumber' v='3' />
    <tag k='addr:street' v='Breakfast Point Boulevard' />
  </node>
  <node id='-102612' visible='true' lat='-33.84635479871' lon='151.11069401144'>
    <tag k='addr:housenumber' v='60' />
    <tag k='addr:street' v='Admiralty Drive' />
  </node>
  <node id='-102614' visible='true' lat='-33.84727465974' lon='151.1085311382'>
    <tag k='addr:housenumber' v='2' />
    <tag k='addr:street' v='Adams Street' />
  </node>
  <node id='-102616' visible='true' lat='-33.84645801769' lon='151.10935059516'>
    <tag k='addr:housenumber' v='16' />
    <tag k='addr:street' v='Spring Park Circuit' />
  </node>
  <node id='-102618' visible='true' lat='-33.84602055067' lon='151.11315264944'>
    <tag k='addr:housenumber' v='7' />
    <tag k='addr:street' v='Breakfast Point Boulevard' />
  </node>
  <node id='-102620' visible='true' lat='-33.84708166033' lon='151.10922757678'>
    <tag k='addr:housenumber' v='7' />
    <tag k='addr:street' v='Spring Park Circuit' />
  </node>
  <node id='-102624' visible='true' lat='-33.84661399427' lon='151.11310489056'>
    <tag k='addr:housenumber' v='5' />
    <tag k='addr:street' v='Bishop Street' />
  </node>
  <node id='-102626' visible='true' lat='-33.84598462666' lon='151.11308793188'>
    <tag k='addr:housenumber' v='9' />
    <tag k='addr:street' v='Breakfast Point Boulevard' />
  </node>
  <node id='-102628' visible='true' lat='-33.84740759917' lon='151.10917379089'>
    <tag k='addr:housenumber' v='29H' />
    <tag k='addr:street' v='Brays Road' />
  </node>
  <node id='-102630' visible='true' lat='-33.84676970515' lon='151.11248386757'>
    <tag k='addr:housenumber' v='13' />
    <tag k='addr:street' v='Bishop Street' />
  </node>
  <node id='-102632' visible='true' lat='-33.84648580731' lon='151.11143559649'>
    <tag k='addr:housenumber' v='2' />
    <tag k='addr:street' v='Fairwater Drive' />
  </node>
  <node id='-102634' visible='true' lat='-33.84691011462' lon='151.11146556057'>
    <tag k='addr:housenumber' v='3' />
    <tag k='addr:street' v='Fairwater Drive' />
  </node>
  <node id='-102636' visible='true' lat='-33.8473092562' lon='151.1096435013'>
    <tag k='addr:housenumber' v='29E' />
    <tag k='addr:street' v='Brays Road' />
  </node>
  <node id='-102638' visible='true' lat='-33.84648462756' lon='151.11048578792'>
    <tag k='addr:housenumber' v='20' />
    <tag k='addr:street' v='Fairwater Drive' />
  </node>
  <node id='-102640' visible='true' lat='-33.84727403062' lon='151.1097987616'>
    <tag k='addr:housenumber' v='29D' />
    <tag k='addr:street' v='Brays Road' />
  </node>
  <node id='-102642' visible='true' lat='-33.84628211059' lon='151.10981449295'>
    <tag k='addr:housenumber' v='68' />
    <tag k='addr:street' v='Admiralty Drive' />
  </node>
  <node id='-102644' visible='true' lat='-33.8451341213' lon='151.11422686352'>
    <tag k='addr:housenumber' v='22' />
    <tag k='addr:street' v='Medora Street' />
  </node>
  <node id='-102646' visible='true' lat='-33.84073336009' lon='151.10757898626'>
    <tag k='addr:housenumber' v='23' />
    <tag k='addr:street' v='Tennyson Road' />
  </node>
  <node id='-102648' visible='true' lat='-33.8470313871' lon='151.10938734907'>
    <tag k='addr:housenumber' v='6' />
    <tag k='addr:street' v='Spring Park Circuit' />
  </node>
  <node id='-102650' visible='true' lat='-33.84701239831' lon='151.10845642103'>
    <tag k='addr:housenumber' v='8' />
    <tag k='addr:street' v='Adams Street' />
  </node>
  <node id='-102652' visible='true' lat='-33.84600727494' lon='151.11225073301'>
    <tag k='addr:housenumber' v='20' />
    <tag k='addr:street' v='Breakfast Point Boulevard' />
  </node>
  <node id='-102654' visible='true' lat='-33.84633555787' lon='151.11082307744'>
    <tag k='addr:housenumber' v='58' />
    <tag k='addr:street' v='Admiralty Drive' />
  </node>
  <node id='-102656' visible='true' lat='-33.83916595315' lon='151.10966679031'>
    <tag k='addr:housenumber' v='123' />
    <tag k='addr:street' v='Peninsula Drive' />
  </node>
  <node id='-102658' visible='true' lat='-33.8421703555' lon='151.10824863071'>
    <tag k='addr:housenumber' v='8' />
    <tag k='addr:street' v='Market Street' />
  </node>
  <node id='-102660' visible='true' lat='-33.84251439601' lon='151.10945967069'>
    <tag k='addr:housenumber' v='12' />
    <tag k='addr:street' v='Juniper Drive' />
  </node>
</osm>
