<?xml version='1.0' encoding='UTF-8'?>
<osm version='0.6' generator='JOSM'>
  <node id='-273649' visible='true' lat='-34.34248481557' lon='150.1372782502'>
    <tag k='addr:housenumber' v='3220' />
    <tag k='addr:street' v='Wombeyan Caves Road' />
  </node>
  <node id='-273651' visible='true' lat='-34.35648381547' lon='150.16984279459'>
    <tag k='addr:housenumber' v='129' />
    <tag k='addr:street' v='Pulpit Rock Road' />
  </node>
  <node id='-273653' visible='true' lat='-34.33098295277' lon='150.13535305547'>
    <tag k='addr:housenumber' v='150' />
    <tag k='addr:street' v='Pheasant Gully Road' />
  </node>
  <node id='-273655' visible='true' lat='-34.35316497898' lon='150.159796104'>
    <tag k='addr:housenumber' v='200' />
    <tag k='addr:street' v='Pulpit Rock Road' />
  </node>
  <node id='-273657' visible='true' lat='-34.35017126524' lon='150.13200203429'>
    <tag k='addr:housenumber' v='3225' />
    <tag k='addr:street' v='Wombeyan Caves Road' />
  </node>
  <node id='-273659' visible='true' lat='-34.34440923074' lon='150.14078610725'>
    <tag k='addr:housenumber' v='3188' />
    <tag k='addr:street' v='Wombeyan Caves Road' />
  </node>
  <node id='-273661' visible='true' lat='-34.35209857484' lon='150.1284552693'>
    <tag k='addr:housenumber' v='3255' />
    <tag k='addr:street' v='Wombeyan Caves Road' />
  </node>
  <node id='-273663' visible='true' lat='-34.3196905757' lon='150.14275989529'>
    <tag k='addr:housenumber' v='3006' />
    <tag k='addr:street' v='Wombeyan Caves Road' />
  </node>
  <node id='-273665' visible='true' lat='-34.33643056102' lon='150.16529057111'>
    <tag k='addr:housenumber' v='2946' />
    <tag k='addr:street' v='Wombeyan Caves Road' />
  </node>
  <node id='-273667' visible='true' lat='-34.34444293713' lon='150.13238650901'>
    <tag k='addr:housenumber' v='3252' />
    <tag k='addr:street' v='Wombeyan Caves Road' />
  </node>
  <node id='-273669' visible='true' lat='-34.36431493172' lon='150.10293321503'>
    <tag k='addr:housenumber' v='321' />
    <tag k='addr:street' v='River Island Road' />
  </node>
  <node id='-273671' visible='true' lat='-34.36135669408' lon='150.15611165977'>
    <tag k='addr:housenumber' v='235' />
    <tag k='addr:street' v='Pulpit Rock Road' />
  </node>
  <node id='-273673' visible='true' lat='-34.34870564396' lon='150.17267614166'>
    <tag k='addr:housenumber' v='2841' />
    <tag k='addr:street' v='Wombeyan Caves Road' />
  </node>
  <node id='-273675' visible='true' lat='-34.34542493985' lon='150.15816777878'>
    <tag k='addr:housenumber' v='2951' />
    <tag k='addr:street' v='Wombeyan Caves Road' />
  </node>
  <node id='-273677' visible='true' lat='-34.33646973208' lon='150.11538837767'>
    <tag k='addr:housenumber' v='99' />
    <tag k='addr:street' v='Pheasant Gully Road' />
  </node>
  <node id='-273679' visible='true' lat='-34.33935357387' lon='150.12784116151'>
    <tag k='addr:housenumber' v='116' />
    <tag k='addr:street' v='Pheasant Gully Road' />
  </node>
  <node id='-273681' visible='true' lat='-34.34719715542' lon='150.11206727582'>
    <tag k='addr:housenumber' v='3580' />
    <tag k='addr:street' v='Wombeyan Caves Road' />
  </node>
  <node id='-273683' visible='true' lat='-34.33708320014' lon='150.15704456854'>
    <tag k='addr:housenumber' v='3004' />
    <tag k='addr:street' v='Wombeyan Caves Road' />
  </node>
  <node id='-273685' visible='true' lat='-34.31433953041' lon='150.10941049075'>
    <tag k='addr:housenumber' v='401' />
    <tag k='addr:street' v='Pheasant Gully Road' />
  </node>
  <node id='-273687' visible='true' lat='-34.35076385407' lon='150.15530606246'>
    <tag k='addr:housenumber' v='272' />
    <tag k='addr:street' v='Pulpit Rock Road' />
  </node>
  <node id='-273689' visible='true' lat='-34.33357890918' lon='150.20042389642'>
    <tag k='addr:housenumber' v='235' />
    <tag k='addr:street' v='Bullio Trig Station Road' />
  </node>
  <node id='-273691' visible='true' lat='-34.33121288834' lon='150.19245120355'>
    <tag k='addr:housenumber' v='160' />
    <tag k='addr:street' v='Obriens Road' />
  </node>
  <node id='-273693' visible='true' lat='-34.34366739194' lon='150.14433978058'>
    <tag k='addr:housenumber' v='3102' />
    <tag k='addr:street' v='Wombeyan Caves Road' />
  </node>
  <node id='-273695' visible='true' lat='-34.32073007317' lon='150.21711407414'>
    <tag k='addr:housenumber' v='650' />
    <tag k='addr:street' v='Bullio Trig Station Road' />
  </node>
  <node id='-273697' visible='true' lat='-34.35701813132' lon='150.13128564257'>
    <tag k='addr:housenumber' v='3223' />
    <tag k='addr:street' v='Wombeyan Caves Road' />
  </node>
  <node id='-273699' visible='true' lat='-34.31435343104' lon='150.17201230599'>
    <tag k='addr:housenumber' v='632' />
    <tag k='addr:street' v='Obriens Road' />
  </node>
  <node id='-273701' visible='true' lat='-34.33104924751' lon='150.21775984846'>
    <tag k='addr:housenumber' v='526' />
    <tag k='addr:street' v='Bullio Trig Station Road' />
  </node>
  <node id='-273703' visible='true' lat='-34.32390448896' lon='150.10974186123'>
    <tag k='addr:housenumber' v='351' />
    <tag k='addr:street' v='Pheasant Gully Road' />
  </node>
  <node id='-273705' visible='true' lat='-34.33777317968' lon='150.16077054727'>
    <tag k='addr:housenumber' v='2952' />
    <tag k='addr:street' v='Wombeyan Caves Road' />
  </node>
  <node id='-273707' visible='true' lat='-34.34266246009' lon='150.14749015112'>
    <tag k='addr:housenumber' v='3044' />
    <tag k='addr:street' v='Wombeyan Caves Road' />
  </node>
  <node id='-273709' visible='true' lat='-34.35962813781' lon='150.15263126221'>
    <tag k='addr:housenumber' v='271' />
    <tag k='addr:street' v='Pulpit Rock Road' />
  </node>
  <node id='-273711' visible='true' lat='-34.36137158341' lon='150.16541314668'>
    <tag k='addr:housenumber' v='171' />
    <tag k='addr:street' v='Pulpit Rock Road' />
  </node>
  <node id='-273713' visible='true' lat='-34.3559544286' lon='150.10935410417'>
    <tag k='addr:housenumber' v='322' />
    <tag k='addr:street' v='River Island Road' />
  </node>
  <node id='-273715' visible='true' lat='-34.36153662305' lon='150.16038042664'>
    <tag k='addr:housenumber' v='185' />
    <tag k='addr:street' v='Pulpit Rock Road' />
  </node>
  <node id='-273717' visible='true' lat='-34.34778490777' lon='150.10664690306'>
    <tag k='addr:housenumber' v='80' />
    <tag k='addr:street' v='River Island Road' />
  </node>
  <node id='-273719' visible='true' lat='-34.31159277131' lon='150.16615828975'>
    <tag k='addr:housenumber' v='633' />
    <tag k='addr:street' v='Obriens Road' />
  </node>
  <node id='-273721' visible='true' lat='-34.3281900068' lon='150.21885196711'>
    <tag k='addr:housenumber' v='580' />
    <tag k='addr:street' v='Bullio Trig Station Road' />
  </node>
  <node id='-273723' visible='true' lat='-34.29975301325' lon='150.11521609055'>
    <tag k='addr:housenumber' v='352' />
    <tag k='addr:street' v='Pheasant Gully Road' />
  </node>
  <node id='-273725' visible='true' lat='-34.3353845209' lon='150.19091230477'>
    <tag k='addr:housenumber' v='220' />
    <tag k='addr:street' v='Bullio Trig Station Road' />
  </node>
  <node id='-273727' visible='true' lat='-34.30654776739' lon='150.15138704557'>
    <tag k='addr:housenumber' v='631' />
    <tag k='addr:street' v='Obriens Road' />
  </node>
  <node id='-273729' visible='true' lat='-34.33616276872' lon='150.14568614012'>
    <tag k='addr:housenumber' v='3026' />
    <tag k='addr:street' v='Wombeyan Caves Road' />
  </node>
  <node id='-273731' visible='true' lat='-34.35043013004' lon='150.16590454482'>
    <tag k='addr:housenumber' v='2877' />
    <tag k='addr:street' v='Wombeyan Caves Road' />
  </node>
  <node id='-273733' visible='true' lat='-34.31251020129' lon='150.17759206125'>
    <tag k='addr:housenumber' v='670' />
    <tag k='addr:street' v='Obriens Road' />
  </node>
  <node id='-273735' visible='true' lat='-34.33404795137' lon='150.20735029171'>
    <tag k='addr:housenumber' v='370' />
    <tag k='addr:street' v='Bullio Trig Station Road' />
  </node>
  <node id='-273737' visible='true' lat='-34.3283341162' lon='150.20414018237'>
    <tag k='addr:housenumber' v='233' />
    <tag k='addr:street' v='Bullio Trig Station Road' />
  </node>
  <node id='-273739' visible='true' lat='-34.32438162216' lon='150.12810335163'>
    <tag k='addr:housenumber' v='244' />
    <tag k='addr:street' v='Pheasant Gully Road' />
  </node>
  <node id='-273741' visible='true' lat='-34.35510146267' lon='150.13728103755'>
    <tag k='addr:housenumber' v='3181' />
    <tag k='addr:street' v='Wombeyan Caves Road' />
  </node>
  <node id='-273743' visible='true' lat='-34.3559805372' lon='150.11380166836'>
    <tag k='addr:housenumber' v='3511' />
    <tag k='addr:street' v='Wombeyan Caves Road' />
  </node>
  <node id='-273745' visible='true' lat='-34.36368076129' lon='150.18063603057'>
    <tag k='addr:housenumber' v='2765' />
    <tag k='addr:street' v='Wombeyan Caves Road' />
  </node>
  <node id='-273747' visible='true' lat='-34.3266058529' lon='150.193366231'>
    <tag k='addr:housenumber' v='231' />
    <tag k='addr:street' v='Bullio Trig Station Road' />
  </node>
  <node id='-273749' visible='true' lat='-34.35622172831' lon='150.12304026236'>
    <tag k='addr:housenumber' v='3505' />
    <tag k='addr:street' v='Wombeyan Caves Road' />
  </node>
  <node id='-273751' visible='true' lat='-34.35806057508' lon='150.1186349693'>
    <tag k='addr:housenumber' v='3507' />
    <tag k='addr:street' v='Wombeyan Caves Road' />
  </node>
  <node id='-273753' visible='true' lat='-34.34509013884' lon='150.1257826463'>
    <tag k='addr:housenumber' v='3410' />
    <tag k='addr:street' v='Wombeyan Caves Road' />
  </node>
  <node id='-273755' visible='true' lat='-34.34483317699' lon='150.11862803653'>
    <tag k='addr:housenumber' v='3434' />
    <tag k='addr:street' v='Wombeyan Caves Road' />
  </node>
  <node id='-273757' visible='true' lat='-34.34187940963' lon='150.11411536594'>
    <tag k='addr:housenumber' v='3588' />
    <tag k='addr:street' v='Wombeyan Caves Road' />
  </node>
  <node id='-273759' visible='true' lat='-34.35329528177' lon='150.1436530269'>
    <tag k='addr:housenumber' v='3123' />
    <tag k='addr:street' v='Wombeyan Caves Road' />
  </node>
  <node id='-273761' visible='true' lat='-34.33868100274' lon='150.16400636951'>
    <tag k='addr:housenumber' v='2944' />
    <tag k='addr:street' v='Wombeyan Caves Road' />
  </node>
  <node id='-273763' visible='true' lat='-34.35668780088' lon='150.14801862747'>
    <tag k='addr:housenumber' v='3093' />
    <tag k='addr:street' v='Wombeyan Caves Road' />
  </node>
  <node id='-273765' visible='true' lat='-34.33841000779' lon='150.17038524206'>
    <tag k='addr:housenumber' v='11' />
    <tag k='addr:street' v='Bullio Trig Station Road' />
  </node>
  <node id='-273767' visible='true' lat='-34.34110612577' lon='150.18146737181'>
    <tag k='addr:housenumber' v='2764' />
    <tag k='addr:street' v='Wombeyan Caves Road' />
  </node>
  <node id='-273769' visible='true' lat='-34.33015029462' lon='150.17963675934'>
    <tag k='addr:housenumber' v='161' />
    <tag k='addr:street' v='Obriens Road' />
  </node>
  <node id='5311364382' action='modify' timestamp='2017-12-30T02:19:19Z' uid='6781013' user='TravelTrog' visible='true' version='1' changeset='55025140' lat='-34.3642511' lon='150.1091628' />
  <node id='5311364383' action='modify' timestamp='2017-12-30T02:19:19Z' uid='6781013' user='TravelTrog' visible='true' version='1' changeset='55025140' lat='-34.3642478' lon='150.1092359' />
  <node id='5311364384' action='modify' timestamp='2017-12-30T02:19:19Z' uid='6781013' user='TravelTrog' visible='true' version='1' changeset='55025140' lat='-34.3641369' lon='150.1092379' />
  <node id='5311364385' action='modify' timestamp='2017-12-30T02:19:19Z' uid='6781013' user='TravelTrog' visible='true' version='1' changeset='55025140' lat='-34.3641369' lon='150.1093031' />
  <node id='5311364386' action='modify' timestamp='2017-12-30T02:19:19Z' uid='6781013' user='TravelTrog' visible='true' version='1' changeset='55025140' lat='-34.3642136' lon='150.1093071' />
  <node id='5311364387' action='modify' timestamp='2017-12-30T02:19:19Z' uid='6781013' user='TravelTrog' visible='true' version='1' changeset='55025140' lat='-34.3642119' lon='150.1093704' />
  <node id='5311364388' action='modify' timestamp='2017-12-30T02:19:19Z' uid='6781013' user='TravelTrog' visible='true' version='1' changeset='55025140' lat='-34.3643392' lon='150.1093763' />
  <node id='5311364389' action='modify' timestamp='2017-12-30T02:19:19Z' uid='6781013' user='TravelTrog' visible='true' version='1' changeset='55025140' lat='-34.3643719' lon='150.1094198' />
  <node id='5311364390' action='modify' timestamp='2017-12-30T02:19:19Z' uid='6781013' user='TravelTrog' visible='true' version='1' changeset='55025140' lat='-34.3643148' lon='150.1094811' />
  <node id='5311364391' action='modify' timestamp='2017-12-30T02:19:19Z' uid='6781013' user='TravelTrog' visible='true' version='1' changeset='55025140' lat='-34.3644845' lon='150.1097322' />
  <node id='5311364392' action='modify' timestamp='2017-12-30T02:19:19Z' uid='6781013' user='TravelTrog' visible='true' version='1' changeset='55025140' lat='-34.3645432' lon='150.1096768' />
  <node id='5311364393' action='modify' timestamp='2017-12-30T02:19:19Z' uid='6781013' user='TravelTrog' visible='true' version='1' changeset='55025140' lat='-34.3645677' lon='150.1097124' />
  <node id='5311364394' action='modify' timestamp='2017-12-30T02:19:19Z' uid='6781013' user='TravelTrog' visible='true' version='1' changeset='55025140' lat='-34.3646118' lon='150.1096729' />
  <node id='5311364395' action='modify' timestamp='2017-12-30T02:19:19Z' uid='6781013' user='TravelTrog' visible='true' version='1' changeset='55025140' lat='-34.3645416' lon='150.1095681' />
  <node id='5311364396' action='modify' timestamp='2017-12-30T02:19:19Z' uid='6781013' user='TravelTrog' visible='true' version='1' changeset='55025140' lat='-34.364522' lon='150.1095859' />
  <node id='5311364397' action='modify' timestamp='2017-12-30T02:19:19Z' uid='6781013' user='TravelTrog' visible='true' version='1' changeset='55025140' lat='-34.3644306' lon='150.1094495' />
  <node id='5311364398' action='modify' timestamp='2017-12-30T02:19:19Z' uid='6781013' user='TravelTrog' visible='true' version='1' changeset='55025140' lat='-34.3644551' lon='150.1094218' />
  <node id='5311364399' action='modify' timestamp='2017-12-30T02:19:19Z' uid='6781013' user='TravelTrog' visible='true' version='1' changeset='55025140' lat='-34.3644421' lon='150.1093901' />
  <node id='5311364400' action='modify' timestamp='2017-12-30T02:19:19Z' uid='6781013' user='TravelTrog' visible='true' version='1' changeset='55025140' lat='-34.3644111' lon='150.1093921' />
  <node id='5311364401' action='modify' timestamp='2017-12-30T02:19:20Z' uid='6781013' user='TravelTrog' visible='true' version='1' changeset='55025140' lat='-34.3643915' lon='150.1093664' />
  <node id='5311364402' action='modify' timestamp='2017-12-30T02:19:20Z' uid='6781013' user='TravelTrog' visible='true' version='1' changeset='55025140' lat='-34.3643964' lon='150.1092992' />
  <node id='5311364403' action='modify' timestamp='2017-12-30T02:19:20Z' uid='6781013' user='TravelTrog' visible='true' version='1' changeset='55025140' lat='-34.364336' lon='150.1093249' />
  <node id='5311364404' action='modify' timestamp='2017-12-30T02:19:20Z' uid='6781013' user='TravelTrog' visible='true' version='1' changeset='55025140' lat='-34.364336' lon='150.1092913' />
  <node id='5311364405' action='modify' timestamp='2017-12-30T02:19:20Z' uid='6781013' user='TravelTrog' visible='true' version='1' changeset='55025140' lat='-34.3643115' lon='150.1092913' />
  <node id='5311364406' action='modify' timestamp='2017-12-30T02:19:20Z' uid='6781013' user='TravelTrog' visible='true' version='1' changeset='55025140' lat='-34.3643131' lon='150.1091647' />
  <way id='549835271' action='modify' timestamp='2017-12-30T03:32:45Z' uid='6781013' user='TravelTrog' visible='true' version='2' changeset='55025811'>
    <nd ref='5311364382' />
    <nd ref='5311364383' />
    <nd ref='5311364384' />
    <nd ref='5311364385' />
    <nd ref='5311364386' />
    <nd ref='5311364387' />
    <nd ref='5311364388' />
    <nd ref='5311364389' />
    <nd ref='5311364390' />
    <nd ref='5311364391' />
    <nd ref='5311364392' />
    <nd ref='5311364393' />
    <nd ref='5311364394' />
    <nd ref='5311364395' />
    <nd ref='5311364396' />
    <nd ref='5311364397' />
    <nd ref='5311364398' />
    <nd ref='5311364399' />
    <nd ref='5311364400' />
    <nd ref='5311364401' />
    <nd ref='5311364402' />
    <nd ref='5311364403' />
    <nd ref='5311364404' />
    <nd ref='5311364405' />
    <nd ref='5311364406' />
    <nd ref='5311364382' />
    <tag k='addr:city' v='Bullio' />
    <tag k='addr:housenumber' v='291' />
    <tag k='addr:postcode' v='2575' />
    <tag k='addr:province' v='NSW' />
    <tag k='addr:street' v='River Island Nature Retreat Access Road' />
    <tag k='building' v='yes' />
    <tag k='name' v='Office and amenities' />
  </way>
</osm>
