<?xml version='1.0' encoding='UTF-8'?>
<osm version='0.6' generator='JOSM'>
  <node id='-462451' lat='-33.86563076905' lon='151.07333964157'>
    <tag k='addr:housenumber' v='82' />
    <tag k='addr:street' v='The Crescent' />
  </node>
  <node id='-462453' lat='-33.85877167609' lon='151.06693913326'>
    <tag k='addr:housenumber' v='19' />
    <tag k='addr:street' v='Courallie Avenue' />
  </node>
  <node id='-462455' lat='-33.86633432467' lon='151.07352205633'>
    <tag k='addr:housenumber' v='10B' />
    <tag k='addr:street' v='Kessell Avenue' />
  </node>
  <node id='-462471' lat='-33.86563482644' lon='151.07318962053'>
    <tag k='addr:housenumber' v='83' />
    <tag k='addr:street' v='The Crescent' />
  </node>
  <node id='-462473' lat='-33.86177508684' lon='151.06593835979'>
    <tag k='addr:housenumber' v='5' />
    <tag k='addr:street' v='Mandemar Avenue' />
  </node>
  <node id='-462475' lat='-33.85971888525' lon='151.06775209005'>
    <tag k='addr:housenumber' v='18' />
    <tag k='addr:street' v='Marlborough Road' />
  </node>
  <node id='-462477' lat='-33.86587517062' lon='151.07130947566'>
    <tag k='addr:housenumber' v='3' />
    <tag k='addr:street' v='Hampstead Road' />
  </node>
  <node id='-462523' lat='-33.85907489917' lon='151.06752488032'>
    <tag k='addr:housenumber' v='22' />
    <tag k='addr:street' v='Courallie Avenue' />
  </node>
  <node id='-462525' lat='-33.86713340173' lon='151.06940234348'>
    <tag k='addr:housenumber' v='8-10' />
    <tag k='addr:street' v='Exeter Road' />
  </node>
  <node id='-462527' action='modify' lat='-33.86604074964' lon='151.07017162838'>
    <tag k='addr:housenumber' v='14' />
    <tag k='addr:street' v='Henley Road' />
  </node>
  <node id='-462529' action='modify' lat='-33.86600963109' lon='151.07017162838'>
    <tag k='addr:housenumber' v='14A' />
    <tag k='addr:street' v='Henley Road' />
  </node>
  <node id='-462531' action='modify' lat='-33.86602519036' lon='151.0702040842'>
    <tag k='addr:housenumber' v='14B' />
    <tag k='addr:street' v='Henley Road' />
  </node>
  <node id='-462605' lat='-33.867175924' lon='151.06758586492'>
    <tag k='addr:housenumber' v='26A' />
    <tag k='addr:street' v='Hornsey Road' />
  </node>
  <node id='-462607' lat='-33.85959811023' lon='151.06782269055'>
    <tag k='addr:housenumber' v='16' />
    <tag k='addr:street' v='Marlborough Road' />
  </node>
  <node id='-462609' lat='-33.86543703645' lon='151.063795337'>
    <tag k='addr:housenumber' v='21A' />
    <tag k='addr:street' v='Richmond Road' />
  </node>
  <node id='-462611' lat='-33.86570253359' lon='151.07270425847'>
    <tag k='addr:housenumber' v='86' />
    <tag k='addr:street' v='The Crescent' />
  </node>
  <node id='-462743' lat='-33.85947246301' lon='151.06729179402'>
    <tag k='addr:housenumber' v='30' />
    <tag k='addr:street' v='Courallie Avenue' />
  </node>
  <node id='-462745' lat='-33.86726119805' lon='151.07294624443'>
    <tag k='addr:housenumber' v='26' />
    <tag k='addr:street' v='Kessell Avenue' />
  </node>
  <node id='-462747' lat='-33.86054505353' lon='151.0659446738'>
    <tag k='addr:housenumber' v='51' />
    <tag k='addr:street' v='Courallie Avenue' />
  </node>
  <node id='-462749' lat='-33.86737986705' lon='151.07285708063'>
    <tag k='addr:housenumber' v='28' />
    <tag k='addr:street' v='Kessell Avenue' />
  </node>
  <node id='-462751' lat='-33.86044903576' lon='151.06600070235'>
    <tag k='addr:housenumber' v='49' />
    <tag k='addr:street' v='Courallie Avenue' />
  </node>
  <node id='-462753' lat='-33.86761683798' lon='151.07271017763'>
    <tag k='addr:housenumber' v='32' />
    <tag k='addr:street' v='Kessell Avenue' />
  </node>
  <node id='-462755' lat='-33.86763786909' lon='151.06822234241'>
    <tag k='addr:housenumber' v='7' />
    <tag k='addr:street' v='Tavistock Road' />
  </node>
  <node id='-462757' lat='-33.86550614109' lon='151.07041079156'>
    <tag k='addr:housenumber' v='98' />
    <tag k='addr:street' v='The Crescent' />
  </node>
  <node id='-462759' lat='-33.8609331512' lon='151.06571451058'>
    <tag k='addr:housenumber' v='59' />
    <tag k='addr:street' v='Courallie Avenue' />
  </node>
  <node id='-462761' lat='-33.86505262513' lon='151.06649326442'>
    <tag k='addr:housenumber' v='1' />
    <tag k='addr:street' v='Eastbourne Road' />
  </node>
  <node id='-462763' lat='-33.86323086528' lon='151.06561260698'>
    <tag k='addr:housenumber' v='74-76' />
    <tag k='addr:street' v='Marlborough Road' />
  </node>
  <node id='-462765' lat='-33.86877660491' lon='151.06691648574'>
    <tag k='addr:housenumber' v='40' />
    <tag k='addr:street' v='Hornsey Road' />
  </node>
  <node id='-462767' lat='-33.86587118573' lon='151.07384803222'>
    <tag k='addr:housenumber' v='2' />
    <tag k='addr:street' v='Kessell Avenue' />
  </node>
  <node id='-462769' lat='-33.85969270548' lon='151.07475270541'>
    <tag k='addr:housenumber' v='29-31' />
    <tag k='addr:street' v='Park Road' />
  </node>
  <node id='-462779' lat='-33.85801933597' lon='151.0661984006'>
    <tag k='addr:housenumber' v='13' />
    <tag k='addr:street' v='Telopea Avenue' />
  </node>
  <node id='-462833' lat='-33.86624241535' lon='151.07274100321'>
    <tag k='addr:housenumber' v='9' />
    <tag k='addr:street' v='Kessell Avenue' />
  </node>
  <node id='-462835' lat='-33.86182766685' lon='151.06606472679'>
    <tag k='addr:housenumber' v='3' />
    <tag k='addr:street' v='Mandemar Avenue' />
  </node>
  <node id='-462837' lat='-33.866839848' lon='151.07237256504'>
    <tag k='addr:housenumber' v='21' />
    <tag k='addr:street' v='Kessell Avenue' />
  </node>
  <node id='-462839' lat='-33.85946875691' lon='151.07353529951'>
    <tag k='addr:housenumber' v='195' />
    <tag k='addr:street' v='Parramatta Road' />
  </node>
  <node id='-462841' lat='-33.86577684728' lon='151.0641906368'>
    <tag k='addr:housenumber' v='17' />
    <tag k='addr:street' v='Richmond Road' />
  </node>
  <node id='-462843' lat='-33.86219206229' lon='151.06486522636'>
    <tag k='addr:housenumber' v='69' />
    <tag k='addr:street' v='Courallie Avenue' />
  </node>
  <node id='-462879' lat='-33.86590265613' lon='151.06411944062'>
    <tag k='addr:housenumber' v='19' />
    <tag k='addr:street' v='Richmond Road' />
  </node>
  <node id='-463003' lat='-33.85897357331' lon='151.06683358623'>
    <tag k='addr:housenumber' v='23' />
    <tag k='addr:street' v='Courallie Avenue' />
  </node>
  <node id='-463005' lat='-33.86575381327' lon='151.06873802671'>
    <tag k='addr:housenumber' v='6' />
    <tag k='addr:street' v='Hornsey Road' />
  </node>
  <node id='-463007' lat='-33.86749807112' lon='151.07278329642'>
    <tag k='addr:housenumber' v='30' />
    <tag k='addr:street' v='Kessell Avenue' />
  </node>
  <node id='-463009' lat='-33.85989395455' lon='151.06636320656'>
    <tag k='addr:housenumber' v='39' />
    <tag k='addr:street' v='Courallie Avenue' />
  </node>
  <node id='-463033' lat='-33.86653727586' lon='151.07256254607'>
    <tag k='addr:housenumber' v='15' />
    <tag k='addr:street' v='Kessell Avenue' />
  </node>
  <node id='-463035' lat='-33.85819583321' lon='151.06734429172'>
    <tag k='addr:housenumber' v='7' />
    <tag k='addr:street' v='Courallie Avenue' />
  </node>
  <node id='-463059' lat='-33.86001088715' lon='151.06626800311'>
    <tag k='addr:housenumber' v='41' />
    <tag k='addr:street' v='Courallie Avenue' />
  </node>
  <node id='-463087' lat='-33.86565464521' lon='151.06426739164'>
    <tag k='addr:housenumber' v='15' />
    <tag k='addr:street' v='Richmond Road' />
  </node>
  <node id='-463089' lat='-33.85829707816' lon='151.06727503633'>
    <tag k='addr:housenumber' v='9' />
    <tag k='addr:street' v='Courallie Avenue' />
  </node>
  <node id='-463129' lat='-33.86641413993' lon='151.07347865612'>
    <tag k='addr:housenumber' v='12' />
    <tag k='addr:street' v='Kessell Avenue' />
  </node>
  <node id='-463131' lat='-33.86628402638' lon='151.06388879176'>
    <tag k='addr:housenumber' v='25' />
    <tag k='addr:street' v='Richmond Road' />
  </node>
  <node id='-463133' lat='-33.86563692019' lon='151.0730421982'>
    <tag k='addr:housenumber' v='84' />
    <tag k='addr:street' v='The Crescent' />
  </node>
  <node id='-463135' lat='-33.85858277136' lon='151.06707159216'>
    <tag k='addr:housenumber' v='15' />
    <tag k='addr:street' v='Courallie Avenue' />
  </node>
  <node id='-463137' lat='-33.86652442999' lon='151.07340355927'>
    <tag k='addr:housenumber' v='14' />
    <tag k='addr:street' v='Kessell Avenue' />
  </node>
  <node id='-463139' lat='-33.86732406884' lon='151.06764817859'>
    <tag k='addr:housenumber' v='17' />
    <tag k='addr:street' v='Tavistock Road' />
  </node>
  <node id='-463141' lat='-33.85867588363' lon='151.06700403147'>
    <tag k='addr:housenumber' v='17' />
    <tag k='addr:street' v='Courallie Avenue' />
  </node>
  <node id='-463289' lat='-33.85937344535' lon='151.06734937162'>
    <tag k='addr:housenumber' v='28' />
    <tag k='addr:street' v='Courallie Avenue' />
  </node>
  <node id='-463291' lat='-33.86246695739' lon='151.06552963616'>
    <tag k='addr:housenumber' v='72' />
    <tag k='addr:street' v='Courallie Avenue' />
  </node>
  <node id='-463293' action='modify' lat='-33.86895630936' lon='151.06857740894'>
    <tag k='addr:housenumber' v='46' />
    <tag k='addr:street' v='Henley Road' />
  </node>
  <node id='-463295' action='modify' lat='-33.86892519081' lon='151.06857740894'>
    <tag k='addr:housenumber' v='1/46' />
    <tag k='addr:street' v='Henley Road' />
  </node>
  <node id='-463297' action='modify' lat='-33.86894075008' lon='151.06860986586'>
    <tag k='addr:housenumber' v='2/46' />
    <tag k='addr:street' v='Henley Road' />
  </node>
  <node id='-463299' lat='-33.8656035173' lon='151.07388656372'>
    <tag k='addr:housenumber' v='80' />
    <tag k='addr:street' v='The Crescent' />
  </node>
  <node id='-463301' lat='-33.86256603491' lon='151.06546947537'>
    <tag k='addr:housenumber' v='74' />
    <tag k='addr:street' v='Courallie Avenue' />
  </node>
  <node id='-463303' lat='-33.86904213521' lon='151.06852762972'>
    <tag k='addr:housenumber' v='48' />
    <tag k='addr:street' v='Henley Road' />
  </node>
  <node id='-463305' lat='-33.86180525838' lon='151.06356636576'>
    <tag k='addr:housenumber' v='22' />
    <tag k='addr:street' v='Mandemar Avenue' />
  </node>
  <node id='-463307' lat='-33.86019029957' lon='151.07446206369'>
    <tag k='addr:housenumber' v='185' />
    <tag k='addr:street' v='Parramatta Road' />
  </node>
  <node id='-463309' lat='-33.86589129778' lon='151.06503408375'>
    <tag k='addr:housenumber' v='20' />
    <tag k='addr:street' v='Richmond Road' />
  </node>
  <node id='-463311' lat='-33.85791889486' lon='151.06625598629'>
    <tag k='addr:housenumber' v='11' />
    <tag k='addr:street' v='Telopea Avenue' />
  </node>
  <node id='-463313' lat='-33.85927425233' lon='151.06740794045'>
    <tag k='addr:housenumber' v='26' />
    <tag k='addr:street' v='Courallie Avenue' />
  </node>
  <node id='-463315' lat='-33.86761117799' lon='151.07187805379'>
    <tag k='addr:housenumber' v='33' />
    <tag k='addr:street' v='Kessell Avenue' />
  </node>
  <node id='-463317' lat='-33.86010001357' lon='151.07502681687'>
    <tag k='addr:housenumber' v='179-181' />
    <tag k='addr:street' v='Parramatta Road' />
  </node>
  <node id='-463319' lat='-33.86558296828' lon='151.06521071067'>
    <tag k='addr:housenumber' v='14' />
    <tag k='addr:street' v='Richmond Road' />
  </node>
  <node id='-463361' lat='-33.86688897172' lon='151.07004584652'>
    <tag k='addr:housenumber' v='26' />
    <tag k='addr:street' v='Henley Road' />
  </node>
  <node id='-463363' lat='-33.86663777976' lon='151.07250298136'>
    <tag k='addr:housenumber' v='17' />
    <tag k='addr:street' v='Kessell Avenue' />
  </node>
  <node id='-463365' lat='-33.86719356556' lon='151.06424665538'>
    <tag k='addr:housenumber' v='40' />
    <tag k='addr:street' v='Richmond Road' />
  </node>
  <node id='-463367' lat='-33.85751509053' lon='151.06648804116'>
    <tag k='addr:housenumber' v='3' />
    <tag k='addr:street' v='Telopea Avenue' />
  </node>
  <node id='-463383' lat='-33.86580801911' lon='151.07211138118'>
    <tag k='addr:housenumber' v='6' />
    <tag k='addr:street' v='Hampstead Road' />
  </node>
  <node id='-463385' lat='-33.86220438123' lon='151.06552449146'>
    <tag k='addr:housenumber' v='8-10' />
    <tag k='addr:street' v='Mandemar Avenue' />
  </node>
  <node id='-463387' lat='-33.86558256559' lon='151.07420635819'>
    <tag k='addr:housenumber' v='78' />
    <tag k='addr:street' v='The Crescent' />
  </node>
  <node id='-463389' lat='-33.85887294424' lon='151.06688637986'>
    <tag k='addr:housenumber' v='21' />
    <tag k='addr:street' v='Courallie Avenue' />
  </node>
  <node id='-463413' lat='-33.86664564378' lon='151.07332426058'>
    <tag k='addr:housenumber' v='16' />
    <tag k='addr:street' v='Kessell Avenue' />
  </node>
  <node id='-463415' lat='-33.86795924593' lon='151.0712913519'>
    <tag k='addr:housenumber' v='43' />
    <tag k='addr:street' v='Kessell Avenue' />
  </node>
  <node id='-463437' lat='-33.86900856696' lon='151.06767132394'>
    <tag k='addr:housenumber' v='55' />
    <tag k='addr:street' v='Henley Road' />
  </node>
  <node id='-463439' lat='-33.86797071823' lon='151.07246989259'>
    <tag k='addr:housenumber' v='38' />
    <tag k='addr:street' v='Kessell Avenue' />
  </node>
  <node id='-463441' lat='-33.86791081738' lon='151.07178533355'>
    <tag k='addr:housenumber' v='37' />
    <tag k='addr:street' v='Kessell Avenue' />
  </node>
  <node id='-463461' lat='-33.86721379523' lon='151.07214039797'>
    <tag k='addr:housenumber' v='27' />
    <tag k='addr:street' v='Kessell Avenue' />
  </node>
  <node id='-463463' lat='-33.86004028846' lon='151.07581775014'>
    <tag k='addr:housenumber' v='37-39' />
    <tag k='addr:street' v='Park Road' />
  </node>
  <node id='-463465' lat='-33.8664097075' lon='151.06381355843'>
    <tag k='addr:housenumber' v='27' />
    <tag k='addr:street' v='Richmond Road' />
  </node>
  <node id='-463475' lat='-33.86775963312' lon='151.07178584871'>
    <tag k='addr:housenumber' v='35' />
    <tag k='addr:street' v='Kessell Avenue' />
  </node>
  <node id='-463477' lat='-33.86480204287' lon='151.06484052254'>
    <tag k='addr:housenumber' v='1' />
    <tag k='addr:street' v='Richmond Road' />
  </node>
  <node id='-463513' action='modify' lat='-33.86590258891' lon='151.07023381084'>
    <tag k='addr:housenumber' v='12' />
    <tag k='addr:street' v='Henley Road' />
  </node>
  <node id='-463515' action='modify' lat='-33.86590258891' lon='151.0702770852'>
    <tag k='addr:housenumber' v='12B' />
    <tag k='addr:street' v='Henley Road' />
  </node>
  <node id='-463517' lat='-33.86589706149' lon='151.06765344194'>
    <tag k='addr:housenumber' v='11' />
    <tag k='addr:street' v='Hornsey Road' />
  </node>
  <node id='-463519' lat='-33.86689164733' lon='151.07317536337'>
    <tag k='addr:housenumber' v='20' />
    <tag k='addr:street' v='Kessell Avenue' />
  </node>
  <node id='-463521' lat='-33.86664085171' lon='151.06458269959'>
    <tag k='addr:housenumber' v='30-32' />
    <tag k='addr:street' v='Richmond Road' />
  </node>
  <node id='-463523' lat='-33.86561511161' lon='151.07373977786'>
    <tag k='addr:housenumber' v='81' />
    <tag k='addr:street' v='The Crescent' />
  </node>
  <node id='-463821' lat='-33.86100953117' lon='151.06638857739'>
    <tag k='addr:housenumber' v='60' />
    <tag k='addr:street' v='Courallie Avenue' />
  </node>
  <node id='-463823' lat='-33.85797429894' lon='151.06695830343'>
    <tag k='addr:housenumber' v='8' />
    <tag k='addr:street' v='Telopea Avenue' />
  </node>
  <node id='-463847' lat='-33.86620722744' lon='151.07360429875'>
    <tag k='addr:housenumber' v='8' />
    <tag k='addr:street' v='Kessell Avenue' />
  </node>
  <node id='-463849' lat='-33.85761644963' lon='151.06643033983'>
    <tag k='addr:housenumber' v='5' />
    <tag k='addr:street' v='Telopea Avenue' />
  </node>
  <node id='-463859' lat='-33.86643558204' lon='151.07261964536'>
    <tag k='addr:housenumber' v='13' />
    <tag k='addr:street' v='Kessell Avenue' />
  </node>
  <node id='-463861' lat='-33.86673142812' lon='151.07243630794'>
    <tag k='addr:housenumber' v='19' />
    <tag k='addr:street' v='Kessell Avenue' />
  </node>
  <node id='-463863' lat='-33.86677471808' lon='151.06359726673'>
    <tag k='addr:housenumber' v='33' />
    <tag k='addr:street' v='Richmond Road' />
  </node>
  <node id='-463865' lat='-33.86225692936' lon='151.06565182492'>
    <tag k='addr:housenumber' v='6' />
    <tag k='addr:street' v='Mandemar Avenue' />
  </node>
  <node id='-463867' lat='-33.86553026315' lon='151.07058006984'>
    <tag k='addr:housenumber' v='96' />
    <tag k='addr:street' v='The Crescent' />
  </node>
  <node id='-463869' lat='-33.86837404673' lon='151.06877667467'>
    <tag k='addr:housenumber' v='10' />
    <tag k='addr:street' v='Tavistock Road' />
  </node>
  <node id='-463871' lat='-33.86498578592' lon='151.06467048206'>
    <tag k='addr:housenumber' v='3-5' />
    <tag k='addr:street' v='Richmond Road' />
  </node>
  <node id='-463873' lat='-33.8677446263' lon='151.06725237345'>
    <tag k='addr:housenumber' v='32' />
    <tag k='addr:street' v='Tavistock Road' />
  </node>
  <node id='-463875' lat='-33.86746359048' lon='151.07196793694'>
    <tag k='addr:housenumber' v='31' />
    <tag k='addr:street' v='Kessell Avenue' />
  </node>
  <node id='-463877' lat='-33.86502118348' lon='151.06317696035'>
    <tag k='addr:housenumber' v='21B' />
    <tag k='addr:street' v='Richmond Road' />
  </node>
  <node id='-463879' lat='-33.86741986382' lon='151.06628480648'>
    <tag k='addr:housenumber' v='44' />
    <tag k='addr:street' v='Tavistock Road' />
  </node>
  <node id='-463881' lat='-33.85811894806' lon='151.0661413304'>
    <tag k='addr:housenumber' v='15' />
    <tag k='addr:street' v='Telopea Avenue' />
  </node>
  <node id='-463985' lat='-33.86643455058' lon='151.06470819863'>
    <tag k='addr:housenumber' v='28A' />
    <tag k='addr:street' v='Richmond Road' />
  </node>
  <node id='-464065' lat='-33.86625035684' lon='151.06481567987'>
    <tag k='addr:housenumber' v='26-28' />
    <tag k='addr:street' v='Richmond Road' />
  </node>
  <node id='-464067' lat='-33.86493804447' lon='151.05974458915'>
    <tag k='addr:housenumber' v='161' />
    <tag k='addr:street' v='Arthur Street' />
  </node>
  <node id='-464069' lat='-33.85787803444' lon='151.06702630971'>
    <tag k='addr:housenumber' v='6' />
    <tag k='addr:street' v='Telopea Avenue' />
  </node>
  <node id='-464071' lat='-33.86229516837' lon='151.06481804195'>
    <tag k='addr:housenumber' v='71' />
    <tag k='addr:street' v='Courallie Avenue' />
  </node>
  <node id='-464123' lat='-33.86616149411' lon='151.06396460562'>
    <tag k='addr:housenumber' v='23' />
    <tag k='addr:street' v='Richmond Road' />
  </node>
  <node id='-464125' lat='-33.8580742967' lon='151.06689037612'>
    <tag k='addr:housenumber' v='10' />
    <tag k='addr:street' v='Telopea Avenue' />
  </node>
  <node id='-464127' lat='-33.86123011844' lon='151.06554187706'>
    <tag k='addr:housenumber' v='65' />
    <tag k='addr:street' v='Courallie Avenue' />
  </node>
  <node id='-464139' lat='-33.86013152561' lon='151.06618741113'>
    <tag k='addr:housenumber' v='43' />
    <tag k='addr:street' v='Courallie Avenue' />
  </node>
  <node id='-464167' lat='-33.86628530865' lon='151.07355723443'>
    <tag k='addr:housenumber' v='10A' />
    <tag k='addr:street' v='Kessell Avenue' />
  </node>
  <node id='-464169' lat='-33.85917646824' lon='151.06673095195'>
    <tag k='addr:housenumber' v='27' />
    <tag k='addr:street' v='Courallie Avenue' />
  </node>
  <node id='-464193' action='modify' lat='-33.86655149906' lon='151.06917964932'>
    <tag k='addr:housenumber' v='27' />
    <tag k='addr:street' v='Henley Road' />
  </node>
  <node id='-464195' action='modify' lat='-33.8665203805' lon='151.06917964932'>
    <tag k='addr:housenumber' v='1/27' />
    <tag k='addr:street' v='Henley Road' />
  </node>
  <node id='-464197' action='modify' lat='-33.86653593978' lon='151.06921210534'>
    <tag k='addr:housenumber' v='2/27' />
    <tag k='addr:street' v='Henley Road' />
  </node>
  <node id='-464199' lat='-33.86610149152' lon='151.07366876421'>
    <tag k='addr:housenumber' v='6' />
    <tag k='addr:street' v='Kessell Avenue' />
  </node>
  <node id='-464201' lat='-33.85848789189' lon='151.06713923398'>
    <tag k='addr:housenumber' v='13' />
    <tag k='addr:street' v='Courallie Avenue' />
  </node>
  <node id='-464225' lat='-33.86574283461' lon='151.06949924614'>
    <tag k='addr:housenumber' v='13' />
    <tag k='addr:street' v='Henley Road' />
  </node>
  <node id='-464227' lat='-33.86722066805' lon='151.0669950534'>
    <tag k='addr:housenumber' v='33' />
    <tag k='addr:street' v='Hornsey Road' />
  </node>
  <node id='-464229' lat='-33.86604444628' lon='151.07286747008'>
    <tag k='addr:housenumber' v='5' />
    <tag k='addr:street' v='Kessell Avenue' />
  </node>
  <node id='-464231' action='modify' lat='-33.86172374252' lon='151.06583101974'>
    <tag k='addr:housenumber' v='7-9' />
    <tag k='addr:street' v='Mandemar Avenue' />
  </node>
  <node id='-464233' action='modify' lat='-33.8617393018' lon='151.06579856556'>
    <tag k='addr:housenumber' v='2/7-9' />
    <tag k='addr:street' v='Mandemar Avenue' />
  </node>
  <node id='-464235' action='modify' lat='-33.86170818324' lon='151.06579856556'>
    <tag k='addr:housenumber' v='1/7-9' />
    <tag k='addr:street' v='Mandemar Avenue' />
  </node>
  <node id='-464237' lat='-33.86813510448' lon='151.06821591568'>
    <tag k='addr:housenumber' v='16' />
    <tag k='addr:street' v='Tavistock Road' />
  </node>
  <node id='-464239' lat='-33.86642787976' lon='151.06746624272'>
    <tag k='addr:housenumber' v='17' />
    <tag k='addr:street' v='Hornsey Road' />
  </node>
  <node id='-464241' lat='-33.86186194932' lon='151.06473718369'>
    <tag k='addr:housenumber' v='20' />
    <tag k='addr:street' v='Mandemar Avenue' />
  </node>
  <node id='-464293' lat='-33.86000618755' lon='151.06697771267'>
    <tag k='addr:housenumber' v='42' />
    <tag k='addr:street' v='Courallie Avenue' />
  </node>
  <node id='-464295' lat='-33.86680701812' lon='151.06899137091'>
    <tag k='addr:housenumber' v='29' />
    <tag k='addr:street' v='Henley Road' />
  </node>
  <node id='-464297' lat='-33.86536013595' lon='151.06963240165'>
    <tag k='addr:housenumber' v='108' />
    <tag k='addr:street' v='The Crescent' />
  </node>
  <node id='-464299' action='modify' lat='-33.86706977435' lon='151.06276071575'>
    <tag k='addr:housenumber' v='131-135' />
    <tag k='addr:street' v='Arthur Street' />
  </node>
  <node id='-464301' action='modify' lat='-33.86703865579' lon='151.06276071575'>
    <tag k='addr:housenumber' v='2/131-135' />
    <tag k='addr:street' v='Arthur Street' />
  </node>
  <node id='-464303' action='modify' lat='-33.86705421507' lon='151.06279317196'>
    <tag k='addr:housenumber' v='1/131-135' />
    <tag k='addr:street' v='Arthur Street' />
  </node>
  <node id='-464305' lat='-33.85839126644' lon='151.06720471432'>
    <tag k='addr:housenumber' v='11' />
    <tag k='addr:street' v='Courallie Avenue' />
  </node>
  <node id='-464359' lat='-33.8607407301' lon='151.06582920168'>
    <tag k='addr:housenumber' v='55' />
    <tag k='addr:street' v='Courallie Avenue' />
  </node>
  <node id='-464361' lat='-33.86773533747' lon='151.07263376405'>
    <tag k='addr:housenumber' v='34' />
    <tag k='addr:street' v='Kessell Avenue' />
  </node>
  <node id='-464363' lat='-33.86825782804' lon='151.06829947974'>
    <tag k='addr:housenumber' v='14' />
    <tag k='addr:street' v='Tavistock Road' />
  </node>
  <node id='-464387' lat='-33.86083747386' lon='151.06577242781'>
    <tag k='addr:housenumber' v='57' />
    <tag k='addr:street' v='Courallie Avenue' />
  </node>
  <node id='-464415' lat='-33.86578960236' lon='151.06509219974'>
    <tag k='addr:housenumber' v='18' />
    <tag k='addr:street' v='Richmond Road' />
  </node>
  <node id='-464417' lat='-33.86779498439' lon='151.06737508884'>
    <tag k='addr:housenumber' v='30' />
    <tag k='addr:street' v='Tavistock Road' />
  </node>
  <node id='-464419' lat='-33.85818757173' lon='151.06680970897'>
    <tag k='addr:housenumber' v='12' />
    <tag k='addr:street' v='Telopea Avenue' />
  </node>
  <node id='-464537' lat='-33.86614276011' lon='151.07280250603'>
    <tag k='addr:housenumber' v='7' />
    <tag k='addr:street' v='Kessell Avenue' />
  </node>
  <node id='-464539' lat='-33.85937949449' lon='151.06662376051'>
    <tag k='addr:housenumber' v='31' />
    <tag k='addr:street' v='Courallie Avenue' />
  </node>
  <node id='-464541' lat='-33.85947444826' lon='151.06789446932'>
    <tag k='addr:housenumber' v='14' />
    <tag k='addr:street' v='Marlborough Road' />
  </node>
  <node id='-464543' lat='-33.85822129276' lon='151.0660834977'>
    <tag k='addr:housenumber' v='17' />
    <tag k='addr:street' v='Telopea Avenue' />
  </node>
  <node id='-464545' lat='-33.86805359841' lon='151.07169578468'>
    <tag k='addr:housenumber' v='39' />
    <tag k='addr:street' v='Kessell Avenue' />
  </node>
  <node id='-464547' lat='-33.86192402309' lon='151.06484837924'>
    <tag k='addr:housenumber' v='18' />
    <tag k='addr:street' v='Mandemar Avenue' />
  </node>
  <node id='-464549' lat='-33.86024825645' lon='151.06611870458'>
    <tag k='addr:housenumber' v='45' />
    <tag k='addr:street' v='Courallie Avenue' />
  </node>
  <node id='-464573' lat='-33.86621787241' lon='151.06758873728'>
    <tag k='addr:housenumber' v='13' />
    <tag k='addr:street' v='Hornsey Road' />
  </node>
  <node id='-464575' lat='-33.85832169879' lon='151.06602409127'>
    <tag k='addr:housenumber' v='19' />
    <tag k='addr:street' v='Telopea Avenue' />
  </node>
  <node id='-464577' lat='-33.86632059035' lon='151.06752550238'>
    <tag k='addr:housenumber' v='15' />
    <tag k='addr:street' v='Hornsey Road' />
  </node>
  <node id='-464579' lat='-33.86634030561' lon='151.07268618913'>
    <tag k='addr:housenumber' v='11' />
    <tag k='addr:street' v='Kessell Avenue' />
  </node>
  <node id='-464581' lat='-33.85771805231' lon='151.06637212339'>
    <tag k='addr:housenumber' v='7' />
    <tag k='addr:street' v='Telopea Avenue' />
  </node>
  <node id='-464583' lat='-33.8656417104' lon='151.07288778727'>
    <tag k='addr:housenumber' v='85' />
    <tag k='addr:street' v='The Crescent' />
  </node>
  <node id='-464585' lat='-33.85808939313' lon='151.06742028644'>
    <tag k='addr:housenumber' v='5' />
    <tag k='addr:street' v='Courallie Avenue' />
  </node>
  <node id='-464587' lat='-33.86553078661' lon='151.06991090239'>
    <tag k='addr:housenumber' v='9' />
    <tag k='addr:street' v='Henley Road' />
  </node>
  <node id='-464589' action='modify' lat='-33.86736016242' lon='151.06745460729'>
    <tag k='addr:housenumber' v='19A' />
    <tag k='addr:street' v='Tavistock Road' />
  </node>
  <node id='-464591' action='modify' lat='-33.86736016242' lon='151.06749788239'>
    <tag k='addr:housenumber' v='19' />
    <tag k='addr:street' v='Tavistock Road' />
  </node>
  <node id='-464593' lat='-33.865585923' lon='151.07404942341'>
    <tag k='addr:housenumber' v='79' />
    <tag k='addr:street' v='The Crescent' />
  </node>
  <node id='-464621' lat='-33.86696768178' lon='151.07229625227'>
    <tag k='addr:housenumber' v='23' />
    <tag k='addr:street' v='Kessell Avenue' />
  </node>
  <node id='-464623' lat='-33.85978154041' lon='151.0742764976'>
    <tag k='addr:housenumber' v='187' />
    <tag k='addr:street' v='Parramatta Road' />
  </node>
  <node id='-464625' lat='-33.86653117456' lon='151.06374035906'>
    <tag k='addr:housenumber' v='29' />
    <tag k='addr:street' v='Richmond Road' />
  </node>
  <node id='-464695' lat='-33.86492269649' lon='151.06556664681'>
    <tag k='addr:housenumber' v='2' />
    <tag k='addr:street' v='Richmond Road' />
  </node>
  <node id='-464697' lat='-33.86852816722' lon='151.06913731726'>
    <tag k='addr:housenumber' v='4' />
    <tag k='addr:street' v='Tavistock Road' />
  </node>
  <node id='-464735' lat='-33.8581542964' lon='151.06812605418'>
    <tag k='addr:housenumber' v='334-336' />
    <tag k='addr:street' v='Parramatta Road' />
  </node>
  <node id='-464737' lat='-33.86546864485' lon='151.06911973973'>
    <tag k='addr:housenumber' v='109-113' />
    <tag k='addr:street' v='The Crescent' />
  </node>
  <node id='-464739' lat='-33.8664670931' lon='151.0666898314'>
    <tag k='addr:housenumber' v='20' />
    <tag k='addr:street' v='Exeter Road' />
  </node>
  <node id='-464741' lat='-33.86549555876' lon='151.07031670839'>
    <tag k='addr:housenumber' v='99-101' />
    <tag k='addr:street' v='The Crescent' />
  </node>
  <node id='-464743' lat='-33.86547195248' lon='151.06437645704'>
    <tag k='addr:housenumber' v='11-13' />
    <tag k='addr:street' v='Richmond Road' />
  </node>
  <node id='-464745' lat='-33.86053731012' lon='151.07552406401'>
    <tag k='addr:housenumber' v='177' />
    <tag k='addr:street' v='Parramatta Road' />
  </node>
  <node id='-464747' lat='-33.86200488684' lon='151.0662222129'>
    <tag k='addr:housenumber' v='1' />
    <tag k='addr:street' v='Mandemar Avenue' />
  </node>
  <node id='-464749' lat='-33.86842577285' lon='151.06889813148'>
    <tag k='addr:housenumber' v='8' />
    <tag k='addr:street' v='Tavistock Road' />
  </node>
  <node id='-464751' lat='-33.85875444453' lon='151.06645809018'>
    <tag k='addr:housenumber' v='14-26' />
    <tag k='addr:street' v='Telopea Avenue' />
  </node>
  <node id='-465449' lat='-33.85859302493' lon='151.07153801664'>
    <tag k='addr:housenumber' v='201' />
    <tag k='addr:street' v='Parramatta Road' />
  </node>
  <node id='-465451' lat='-33.86516032028' lon='151.06543731223'>
    <tag k='addr:housenumber' v='4-8' />
    <tag k='addr:street' v='Richmond Road' />
  </node>
  <node id='-465683' lat='-33.86714012789' lon='151.06337250989'>
    <tag k='addr:housenumber' v='39' />
    <tag k='addr:street' v='Richmond Road' />
  </node>
  <node id='-465791' lat='-33.8578724637' lon='151.06757443786'>
    <tag k='addr:housenumber' v='338-342' />
    <tag k='addr:street' v='Parramatta Road' />
  </node>
  <node id='-465793' action='modify' lat='-33.86688903338' lon='151.06441175746'>
    <tag k='addr:housenumber' v='34' />
    <tag k='addr:street' v='Richmond Road' />
  </node>
  <node id='-465795' action='modify' lat='-33.86688903338' lon='151.06445503233'>
    <tag k='addr:housenumber' v='36' />
    <tag k='addr:street' v='Richmond Road' />
  </node>
  <node id='-465797' action='modify' lat='-33.86435257997' lon='151.06382945243'>
    <tag k='addr:housenumber' v='1' />
    <tag k='addr:street' v='Richmond Road' />
  </node>
  <node id='-465963' lat='-33.86250585886' lon='151.06471588621'>
    <tag k='addr:housenumber' v='73-77' />
    <tag k='addr:street' v='Courallie Avenue' />
  </node>
  <node id='-466059' lat='-33.86570142068' lon='151.07254439008'>
    <tag k='addr:housenumber' v='87' />
    <tag k='addr:street' v='The Crescent' />
  </node>
  <node id='-466279' lat='-33.85921411686' lon='151.07254369729'>
    <tag k='addr:housenumber' v='14' />
    <tag k='addr:street' v='Welfare Street' />
  </node>
  <node id='-466281' lat='-33.85872172256' lon='151.07283491413'>
    <tag k='addr:housenumber' v='4' />
    <tag k='addr:street' v='Welfare Street' />
  </node>
  <node id='-466283' lat='-33.85915676778' lon='151.07300023823'>
    <tag k='addr:housenumber' v='6' />
    <tag k='addr:street' v='Flemington Road' />
  </node>
  <node id='-466285' lat='-33.85886138187' lon='151.07317447635'>
    <tag k='addr:housenumber' v='12' />
    <tag k='addr:street' v='Flemington Road' />
  </node>
  <node id='-466287' lat='-33.85901670787' lon='151.07266072591'>
    <tag k='addr:housenumber' v='10' />
    <tag k='addr:street' v='Welfare Street' />
  </node>
  <node id='-466289' lat='-33.85911573494' lon='151.07260219293'>
    <tag k='addr:housenumber' v='12' />
    <tag k='addr:street' v='Welfare Street' />
  </node>
  <node id='-466291' lat='-33.85881924806' lon='151.07277651152'>
    <tag k='addr:housenumber' v='6' />
    <tag k='addr:street' v='Welfare Street' />
  </node>
  <node id='-466293' lat='-33.85905796308' lon='151.07305836783'>
    <tag k='addr:housenumber' v='8' />
    <tag k='addr:street' v='Flemington Road' />
  </node>
  <node id='-466295' lat='-33.85895943874' lon='151.07311582134'>
    <tag k='addr:housenumber' v='10' />
    <tag k='addr:street' v='Flemington Road' />
  </node>
  <node id='-466297' lat='-33.85925535399' lon='151.07294213233'>
    <tag k='addr:housenumber' v='4' />
    <tag k='addr:street' v='Flemington Road' />
  </node>
  <node id='-466299' lat='-33.85891803255' lon='151.07271882589'>
    <tag k='addr:housenumber' v='8' />
    <tag k='addr:street' v='Welfare Street' />
  </node>
  <node id='-466301' lat='-33.85935379583' lon='151.07288363537'>
    <tag k='addr:housenumber' v='2' />
    <tag k='addr:street' v='Flemington Road' />
  </node>
  <node id='-466419' lat='-33.85778149538' lon='151.06709405211'>
    <tag k='addr:housenumber' v='4' />
    <tag k='addr:street' v='Telopea Avenue' />
  </node>
  <node id='-466421' lat='-33.85768529464' lon='151.06716304865'>
    <tag k='addr:housenumber' v='344' />
    <tag k='addr:street' v='Parramatta Road' />
  </node>
  <node id='-466423' lat='-33.85773170535' lon='151.06712976223'>
    <tag k='addr:housenumber' v='344' />
    <tag k='addr:street' v='Parramatta Road' />
  </node>
  <node id='-466529' lat='-33.85781893834' lon='151.06631487608'>
    <tag k='addr:housenumber' v='9' />
    <tag k='addr:street' v='Telopea Avenue' />
  </node>
  <node id='-466551' lat='-33.86702054401' lon='151.06345160097'>
    <tag k='addr:housenumber' v='37' />
    <tag k='addr:street' v='Richmond Road' />
  </node>
  <node id='-466553' lat='-33.86665199385' lon='151.06366944203'>
    <tag k='addr:housenumber' v='31' />
    <tag k='addr:street' v='Richmond Road' />
  </node>
  <node id='-466569' lat='-33.86538341156' lon='151.06996418348'>
    <tag k='addr:housenumber' v='103' />
    <tag k='addr:street' v='The Crescent' />
  </node>
  <node id='-466571' lat='-33.86477658045' lon='151.05803535125'>
    <tag k='addr:housenumber' v='191' />
    <tag k='addr:street' v='Arthur Street' />
  </node>
  <node id='-466665' lat='-33.86847609862' lon='151.06901644424'>
    <tag k='addr:housenumber' v='6' />
    <tag k='addr:street' v='Tavistock Road' />
  </node>
  <node id='-466689' lat='-33.86614343197' lon='151.06935979099'>
    <tag k='addr:housenumber' v='21' />
    <tag k='addr:street' v='Henley Road' />
  </node>
  <node id='-466691' lat='-33.86832209705' lon='151.06865601078'>
    <tag k='addr:housenumber' v='12' />
    <tag k='addr:street' v='Tavistock Road' />
  </node>
  <node id='-466693' lat='-33.85988508854' lon='151.06705044758'>
    <tag k='addr:housenumber' v='40' />
    <tag k='addr:street' v='Courallie Avenue' />
  </node>
  <node id='-466695' lat='-33.86025610502' lon='151.06683108524'>
    <tag k='addr:housenumber' v='46' />
    <tag k='addr:street' v='Courallie Avenue' />
  </node>
  <node id='-466697' lat='-33.86784491091' lon='151.06749387977'>
    <tag k='addr:housenumber' v='28' />
    <tag k='addr:street' v='Tavistock Road' />
  </node>
  <node id='-466721' lat='-33.86810593016' lon='151.06793470277'>
    <tag k='addr:housenumber' v='20' />
    <tag k='addr:street' v='Tavistock Road' />
  </node>
  <node id='-466723' lat='-33.85948509348' lon='151.07259423406'>
    <tag k='addr:housenumber' v='199' />
    <tag k='addr:street' v='Parramatta Road' />
  </node>
  <node id='-466725' lat='-33.85856072606' lon='151.06845251761'>
    <tag k='addr:housenumber' v='330-332' />
    <tag k='addr:street' v='Parramatta Road' />
  </node>
  <node id='-466779' lat='-33.86756532599' lon='151.06589415134'>
    <tag k='addr:housenumber' v='10' />
    <tag k='addr:street' v='Eastbourne Road' />
  </node>
  <node id='-466873' lat='-33.86471579926' lon='151.06224712058'>
    <tag k='addr:housenumber' v='21C' />
    <tag k='addr:street' v='Richmond Road' />
  </node>
  <node id='-466989' lat='-33.86668088464' lon='151.06868763648'>
    <tag k='addr:housenumber' v='12' />
    <tag k='addr:street' v='Exeter Road' />
  </node>
  <node id='-467009' lat='-33.86815648915' lon='151.0680551961'>
    <tag k='addr:housenumber' v='18' />
    <tag k='addr:street' v='Tavistock Road' />
  </node>
  <node id='-467011' lat='-33.86013185131' lon='151.06690652246'>
    <tag k='addr:housenumber' v='44' />
    <tag k='addr:street' v='Courallie Avenue' />
  </node>
  <node id='-467013' lat='-33.86758459992' lon='151.06686941779'>
    <tag k='addr:housenumber' v='34' />
    <tag k='addr:street' v='Tavistock Road' />
  </node>
  <node id='-467015' lat='-33.8680560989' lon='151.06781606451'>
    <tag k='addr:housenumber' v='22' />
    <tag k='addr:street' v='Tavistock Road' />
  </node>
  <node id='-467017' lat='-33.8673695528' lon='151.06616396957'>
    <tag k='addr:housenumber' v='46' />
    <tag k='addr:street' v='Tavistock Road' />
  </node>
  <node id='-467039' lat='-33.86884096872' lon='151.06864911898'>
    <tag k='addr:housenumber' v='44' />
    <tag k='addr:street' v='Henley Road' />
  </node>
  <node id='-467041' lat='-33.86802894201' lon='151.06898229605'>
    <tag k='addr:housenumber' v='38' />
    <tag k='addr:street' v='Henley Road' />
  </node>
  <node id='-467043' lat='-33.8595710066' lon='151.06723317385'>
    <tag k='addr:housenumber' v='32' />
    <tag k='addr:street' v='Courallie Avenue' />
  </node>
  <node id='-467045' lat='-33.86231056048' lon='151.0657799169'>
    <tag k='addr:housenumber' v='4' />
    <tag k='addr:street' v='Mandemar Avenue' />
  </node>
  <node id='-467099' action='modify' lat='-33.86539279422' lon='151.06978027989'>
    <tag k='addr:housenumber' v='105' />
    <tag k='addr:street' v='The Crescent' />
  </node>
  <node id='-467101' action='modify' lat='-33.86539279422' lon='151.06982355399'>
    <tag k='addr:housenumber' v='106/105' />
    <tag k='addr:street' v='The Crescent' />
  </node>
  <node id='-467105' lat='-33.86204862852' lon='151.06514637163'>
    <tag k='addr:housenumber' v='12-14' />
    <tag k='addr:street' v='Mandemar Avenue' />
  </node>
  <node id='-467183' lat='-33.86537634459' lon='151.07005513804'>
    <tag k='addr:housenumber' v='102' />
    <tag k='addr:street' v='The Crescent' />
  </node>
  <node id='-467379' lat='-33.86467516103' lon='151.06565857357'>
    <tag k='addr:housenumber' v='130-131' />
    <tag k='addr:street' v='The Crescent' />
  </node>
  <node id='-467479' lat='-33.86441231601' lon='151.0627794986'>
    <tag k='addr:housenumber' v='1C' />
    <tag k='addr:street' v='Richmond Road' />
  </node>
  <node id='-467481' lat='-33.86453153496' lon='151.06458958378'>
    <tag k='addr:housenumber' v='1A' />
    <tag k='addr:street' v='Richmond Road' />
  </node>
  <node id='-467483' action='modify' lat='-33.86435257997' lon='151.06378617885'>
    <tag k='addr:housenumber' v='1B' />
    <tag k='addr:street' v='Richmond Road' />
  </node>
  <node id='-469839' lat='-33.86103142401' lon='151.0656596922'>
    <tag k='addr:housenumber' v='61' />
    <tag k='addr:street' v='Courallie Avenue' />
  </node>
  <node id='-469863' lat='-33.86713611691' lon='151.07302386703'>
    <tag k='addr:housenumber' v='24' />
    <tag k='addr:street' v='Kessell Avenue' />
  </node>
  <node id='-469879' lat='-33.86035177657' lon='151.06605732027'>
    <tag k='addr:housenumber' v='47' />
    <tag k='addr:street' v='Courallie Avenue' />
  </node>
  <node id='-469881' lat='-33.86707176997' lon='151.06432285107'>
    <tag k='addr:housenumber' v='38' />
    <tag k='addr:street' v='Richmond Road' />
  </node>
  <node id='-469883' lat='-33.85977080675' lon='151.06642777868'>
    <tag k='addr:housenumber' v='37' />
    <tag k='addr:street' v='Courallie Avenue' />
  </node>
  <node id='-469907' lat='-33.86733535202' lon='151.07206520422'>
    <tag k='addr:housenumber' v='29' />
    <tag k='addr:street' v='Kessell Avenue' />
  </node>
  <node id='-469909' lat='-33.85842006872' lon='151.06596849006'>
    <tag k='addr:housenumber' v='21' />
    <tag k='addr:street' v='Telopea Avenue' />
  </node>
  <node id='-469921' lat='-33.85965427635' lon='151.06648588369'>
    <tag k='addr:housenumber' v='33' />
    <tag k='addr:street' v='Courallie Avenue' />
  </node>
  <node id='-469923' lat='-33.86760385146' lon='151.06567705683'>
    <tag k='addr:housenumber' v='12' />
    <tag k='addr:street' v='Eastbourne Road' />
  </node>
  <node id='-469947' lat='-33.86709200354' lon='151.07221374313'>
    <tag k='addr:housenumber' v='25' />
    <tag k='addr:street' v='Kessell Avenue' />
  </node>
  <node id='-469949' lat='-33.86743285751' lon='151.06409086421'>
    <tag k='addr:housenumber' v='42-46' />
    <tag k='addr:street' v='Richmond Road' />
  </node>
  <node id='-469951' lat='-33.86831977655' lon='151.06811387108'>
    <tag k='addr:housenumber' v='16A' />
    <tag k='addr:street' v='Tavistock Road' />
  </node>
  <node id='-470009' lat='-33.86910216056' lon='151.06761574554'>
    <tag k='addr:housenumber' v='57' />
    <tag k='addr:street' v='Henley Road' />
  </node>
  <node id='-470011' lat='-33.8655776435' lon='151.06988187203'>
    <tag k='addr:housenumber' v='11' />
    <tag k='addr:street' v='Henley Road' />
  </node>
  <node id='-470013' lat='-33.86064187277' lon='151.06588617939'>
    <tag k='addr:housenumber' v='53' />
    <tag k='addr:street' v='Courallie Avenue' />
  </node>
  <node id='-470033' lat='-33.86594629532' lon='151.07293138117'>
    <tag k='addr:housenumber' v='3' />
    <tag k='addr:street' v='Kessell Avenue' />
  </node>
  <node id='-470053' lat='-33.85927653928' lon='151.06667557964'>
    <tag k='addr:housenumber' v='29' />
    <tag k='addr:street' v='Courallie Avenue' />
  </node>
  <node id='-470105' lat='-33.8686389727' lon='151.06699831048'>
    <tag k='addr:housenumber' v='38' />
    <tag k='addr:street' v='Hornsey Road' />
  </node>
  <node id='-470107' lat='-33.86737272253' lon='151.06776687117'>
    <tag k='addr:housenumber' v='15' />
    <tag k='addr:street' v='Tavistock Road' />
  </node>
  <node id='-470131' lat='-33.8648739205' lon='151.06721317754'>
    <tag k='addr:housenumber' v='123' />
    <tag k='addr:street' v='The Crescent' />
  </node>
  <node id='-470133' lat='-33.86132601055' lon='151.06548443182'>
    <tag k='addr:housenumber' v='67' />
    <tag k='addr:street' v='Courallie Avenue' />
  </node>
  <node id='-470135' lat='-33.86760976415' lon='151.07118143771'>
    <tag k='addr:housenumber' v='34' />
    <tag k='addr:street' v='Hampstead Road' />
  </node>
  <node id='-470137' lat='-33.86599680747' lon='151.07372879954'>
    <tag k='addr:housenumber' v='4' />
    <tag k='addr:street' v='Kessell Avenue' />
  </node>
  <node id='-470255' lat='-33.85917472104' lon='151.06746552214'>
    <tag k='addr:housenumber' v='24' />
    <tag k='addr:street' v='Courallie Avenue' />
  </node>
  <node id='-470257' lat='-33.86197210901' lon='151.06496962322'>
    <tag k='addr:housenumber' v='16' />
    <tag k='addr:street' v='Mandemar Avenue' />
  </node>
  <node id='-470259' lat='-33.86892335686' lon='151.06772461695'>
    <tag k='addr:housenumber' v='53' />
    <tag k='addr:street' v='Henley Road' />
  </node>
  <node id='-470261' lat='-33.86677057089' lon='151.07324945614'>
    <tag k='addr:housenumber' v='18' />
    <tag k='addr:street' v='Kessell Avenue' />
  </node>
  <node id='-470263' lat='-33.8675865481' lon='151.06809843031'>
    <tag k='addr:housenumber' v='9' />
    <tag k='addr:street' v='Tavistock Road' />
  </node>
  <node id='-470377' lat='-33.85741820688' lon='151.06654288017'>
    <tag k='addr:housenumber' v='346-348' />
    <tag k='addr:street' v='Parramatta Road' />
  </node>
  <node id='-470401' lat='-33.86701189646' lon='151.07309752855'>
    <tag k='addr:housenumber' v='22' />
    <tag k='addr:street' v='Kessell Avenue' />
  </node>
  <node id='-470403' lat='-33.85798216213' lon='151.06749642758'>
    <tag k='addr:housenumber' v='3' />
    <tag k='addr:street' v='Courallie Avenue' />
  </node>
  <node id='-470427' lat='-33.85961831846' lon='151.07393616154'>
    <tag k='addr:housenumber' v='189' />
    <tag k='addr:street' v='Parramatta Road' />
  </node>
  <node id='-470429' lat='-33.86689718047' lon='151.06352200808'>
    <tag k='addr:housenumber' v='35' />
    <tag k='addr:street' v='Richmond Road' />
  </node>
  <node id='-470431' lat='-33.86785125764' lon='151.07256570566'>
    <tag k='addr:housenumber' v='36' />
    <tag k='addr:street' v='Kessell Avenue' />
  </node>
  <node id='-470433' lat='-33.85907509647' lon='151.06678292815'>
    <tag k='addr:housenumber' v='25' />
    <tag k='addr:street' v='Courallie Avenue' />
  </node>
  <node id='-470471' lat='-33.86799160975' lon='151.07144788411'>
    <tag k='addr:housenumber' v='41' />
    <tag k='addr:street' v='Kessell Avenue' />
  </node>
  <node id='-470473' lat='-33.86568579193' lon='151.06515348907'>
    <tag k='addr:housenumber' v='16' />
    <tag k='addr:street' v='Richmond Road' />
  </node>
  <node id='-470475' lat='-33.86726518082' lon='151.06329264017'>
    <tag k='addr:housenumber' v='129' />
    <tag k='addr:street' v='Arthur Street' />
  </node>
  <node id='-470495' lat='-33.86113077149' lon='151.06559904162'>
    <tag k='addr:housenumber' v='63' />
    <tag k='addr:street' v='Courallie Avenue' />
  </node>
  <node id='-470497' lat='-33.86584374409' lon='151.07303637521'>
    <tag k='addr:housenumber' v='1' />
    <tag k='addr:street' v='Kessell Avenue' />
  </node>
</osm>
