<?xml version='1.0' encoding='UTF-8'?>
<osm version='0.6' generator='JOSM'>
  <node id='-172893' action='modify' visible='true' lat='-33.74007983382' lon='151.23831214886'>
    <tag k='addr:housenumber' v='1073' />
    <tag k='addr:postcode' v='2100' />
    <tag k='addr:state' v='NSW' />
    <tag k='addr:street' v='Spicer Road' />
    <tag k='addr:suburb' v='Oxford Falls' />
  </node>
  <node id='-172895' action='modify' visible='true' lat='-33.74022053566' lon='151.25161099718'>
    <tag k='addr:housenumber' v='2628' />
    <tag k='addr:postcode' v='2100' />
    <tag k='addr:state' v='NSW' />
    <tag k='addr:street' v='Brooker Avenue' />
    <tag k='addr:suburb' v='Oxford Falls' />
  </node>
  <node id='-172897' action='modify' visible='true' lat='-33.74507620471' lon='151.26448902294'>
    <tag k='addr:housenumber' v='72A' />
    <tag k='addr:postcode' v='2100' />
    <tag k='addr:state' v='NSW' />
    <tag k='addr:street' v='Willandra Road' />
    <tag k='addr:suburb' v='Oxford Falls' />
  </node>
  <node id='-172899' action='modify' visible='true' lat='-33.73922626392' lon='151.24781574635'>
    <tag k='addr:housenumber' v='1083' />
    <tag k='addr:postcode' v='2100' />
    <tag k='addr:state' v='NSW' />
    <tag k='addr:street' v='Oxford Falls Road' />
    <tag k='addr:suburb' v='Oxford Falls' />
  </node>
  <node id='-172901' action='modify' visible='true' lat='-33.73479085048' lon='151.24271341361'>
    <tag k='addr:housenumber' v='1004' />
    <tag k='addr:postcode' v='2100' />
    <tag k='addr:state' v='NSW' />
    <tag k='addr:street' v='Oxford Falls Road' />
    <tag k='addr:suburb' v='Oxford Falls' />
  </node>
  <node id='-172903' action='modify' visible='true' lat='-33.73378169945' lon='151.24115431504'>
    <tag k='addr:housenumber' v='1' />
    <tag k='addr:postcode' v='2100' />
    <tag k='addr:state' v='NSW' />
    <tag k='addr:street' v='Spicer Road' />
    <tag k='addr:suburb' v='Oxford Falls' />
  </node>
  <node id='-172905' action='modify' visible='true' lat='-33.735424079' lon='151.24670551262'>
    <tag k='addr:housenumber' v='2591' />
    <tag k='addr:postcode' v='2100' />
    <tag k='addr:state' v='NSW' />
    <tag k='addr:street' v='Oxford Falls Road' />
    <tag k='addr:suburb' v='Oxford Falls' />
  </node>
  <node id='-172907' action='modify' visible='true' lat='-33.72303249814' lon='151.23455140096'>
    <tag k='addr:housenumber' v='19' />
    <tag k='addr:postcode' v='2100' />
    <tag k='addr:state' v='NSW' />
    <tag k='addr:street' v='Oxford Falls Road' />
    <tag k='addr:suburb' v='Oxford Falls' />
  </node>
  <node id='-172909' action='modify' visible='true' lat='-33.72310277072' lon='151.23460906845'>
    <tag k='addr:housenumber' v='21' />
    <tag k='addr:postcode' v='2100' />
    <tag k='addr:state' v='NSW' />
    <tag k='addr:street' v='Kellys Way' />
    <tag k='addr:suburb' v='Oxford Falls' />
  </node>
  <node id='-172911' action='modify' visible='true' lat='-33.74150768899' lon='151.24887603662'>
    <tag k='addr:housenumber' v='1087' />
    <tag k='addr:postcode' v='2100' />
    <tag k='addr:state' v='NSW' />
    <tag k='addr:street' v='Oxford Falls Road' />
    <tag k='addr:suburb' v='Oxford Falls' />
  </node>
  <node id='-172913' action='modify' visible='true' lat='-33.73289088936' lon='151.23841922515'>
    <tag k='addr:housenumber' v='1062' />
    <tag k='addr:postcode' v='2100' />
    <tag k='addr:state' v='NSW' />
    <tag k='addr:street' v='Oxford Falls Road' />
    <tag k='addr:suburb' v='Oxford Falls' />
  </node>
  <node id='-172915' action='modify' visible='true' lat='-33.7410032633' lon='151.24489729577'>
    <tag k='addr:housenumber' v='33' />
    <tag k='addr:postcode' v='2100' />
    <tag k='addr:state' v='NSW' />
    <tag k='addr:street' v='Dreadnought Road' />
    <tag k='addr:suburb' v='Oxford Falls' />
  </node>
  <node id='-172917' action='modify' visible='true' lat='-33.73431601631' lon='151.24309618409'>
    <tag k='addr:housenumber' v='101' />
    <tag k='addr:postcode' v='2100' />
    <tag k='addr:state' v='NSW' />
    <tag k='addr:street' v='Oxford Falls Road' />
    <tag k='addr:suburb' v='Oxford Falls' />
  </node>
  <node id='-172919' action='modify' visible='true' lat='-33.7328887463' lon='151.24333361925'>
    <tag k='addr:housenumber' v='1042' />
    <tag k='addr:postcode' v='2100' />
    <tag k='addr:state' v='NSW' />
    <tag k='addr:street' v='Oxford Falls Road' />
    <tag k='addr:suburb' v='Oxford Falls' />
  </node>
  <node id='-172921' action='modify' visible='true' lat='-33.74010786054' lon='151.24768640463'>
    <tag k='addr:housenumber' v='70' />
    <tag k='addr:postcode' v='2100' />
    <tag k='addr:state' v='NSW' />
    <tag k='addr:street' v='Oxford Falls Road' />
    <tag k='addr:suburb' v='Oxford Falls' />
  </node>
  <node id='-172923' action='modify' visible='true' lat='-33.73855459481' lon='151.23870360468'>
    <tag k='addr:housenumber' v='1071' />
    <tag k='addr:postcode' v='2100' />
    <tag k='addr:state' v='NSW' />
    <tag k='addr:street' v='Spicer Road' />
    <tag k='addr:suburb' v='Oxford Falls' />
  </node>
  <node id='-172925' action='modify' visible='true' lat='-33.72821583294' lon='151.23646847973'>
    <tag k='addr:housenumber' v='1013' />
    <tag k='addr:postcode' v='2100' />
    <tag k='addr:state' v='NSW' />
    <tag k='addr:street' v='Oxford Falls Road' />
    <tag k='addr:suburb' v='Oxford Falls' />
  </node>
  <node id='-172927' action='modify' visible='true' lat='-33.7345914391' lon='151.23153645818'>
    <tag k='addr:housenumber' v='999' />
    <tag k='addr:postcode' v='2100' />
    <tag k='addr:state' v='NSW' />
    <tag k='addr:street' v='Oxford Falls Road' />
    <tag k='addr:suburb' v='Oxford Falls' />
  </node>
  <node id='-172929' action='modify' visible='true' lat='-33.72730321796' lon='151.23691777216'>
    <tag k='addr:housenumber' v='2087' />
    <tag k='addr:postcode' v='2100' />
    <tag k='addr:state' v='NSW' />
    <tag k='addr:street' v='Oxford Falls Road' />
    <tag k='addr:suburb' v='Oxford Falls' />
  </node>
  <node id='-172931' action='modify' visible='true' lat='-33.74287440123' lon='151.25043547371'>
    <tag k='addr:housenumber' v='1334' />
    <tag k='addr:postcode' v='2100' />
    <tag k='addr:state' v='NSW' />
    <tag k='addr:street' v='Oxford Falls Road' />
    <tag k='addr:suburb' v='Oxford Falls' />
  </node>
  <node id='-172933' action='modify' visible='true' lat='-33.73287567139' lon='151.24014391848'>
    <tag k='addr:housenumber' v='1039' />
    <tag k='addr:postcode' v='2100' />
    <tag k='addr:state' v='NSW' />
    <tag k='addr:street' v='Oxford Falls Road' />
    <tag k='addr:suburb' v='Oxford Falls' />
  </node>
  <node id='-173109' action='modify' visible='true' lat='-33.74046217191' lon='151.26667357393'>
    <tag k='addr:housenumber' v='51' />
    <tag k='addr:postcode' v='2100' />
    <tag k='addr:state' v='NSW' />
    <tag k='addr:street' v='Little Willandra Road' />
    <tag k='addr:suburb' v='Oxford Falls' />
  </node>
  <node id='-173117' action='modify' visible='true' lat='-33.73209702152' lon='151.24075472189'>
    <tag k='addr:housenumber' v='1040' />
    <tag k='addr:postcode' v='2100' />
    <tag k='addr:state' v='NSW' />
    <tag k='addr:street' v='Oxford Falls Road' />
    <tag k='addr:suburb' v='Oxford Falls' />
  </node>
  <node id='-173119' action='modify' visible='true' lat='-33.73042970612' lon='151.2444871426'>
    <tag k='addr:housenumber' v='55A' />
    <tag k='addr:postcode' v='2100' />
    <tag k='addr:state' v='NSW' />
    <tag k='addr:street' v='Oxford Falls Road' />
    <tag k='addr:suburb' v='Oxford Falls' />
  </node>
  <node id='-173121' action='modify' visible='true' lat='-33.73282269452' lon='151.24201416163'>
    <tag k='addr:housenumber' v='1041' />
    <tag k='addr:postcode' v='2100' />
    <tag k='addr:state' v='NSW' />
    <tag k='addr:street' v='Oxford Falls Road' />
    <tag k='addr:suburb' v='Oxford Falls' />
  </node>
  <node id='-173123' action='modify' visible='true' lat='-33.73567065288' lon='151.24257080164'>
    <tag k='addr:housenumber' v='1058' />
    <tag k='addr:postcode' v='2100' />
    <tag k='addr:state' v='NSW' />
    <tag k='addr:street' v='Spicer Road' />
    <tag k='addr:suburb' v='Oxford Falls' />
  </node>
  <node id='-173125' action='modify' visible='true' lat='-33.73269973852' lon='151.2329477094'>
    <tag k='addr:housenumber' v='2639' />
    <tag k='addr:postcode' v='2100' />
    <tag k='addr:state' v='NSW' />
    <tag k='addr:street' v='Oxford Falls Road' />
    <tag k='addr:suburb' v='Oxford Falls' />
  </node>
  <node id='-173127' action='modify' visible='true' lat='-33.73714958889' lon='151.24087664049'>
    <tag k='addr:housenumber' v='1066' />
    <tag k='addr:postcode' v='2100' />
    <tag k='addr:state' v='NSW' />
    <tag k='addr:street' v='Spicer Road' />
    <tag k='addr:suburb' v='Oxford Falls' />
  </node>
  <node id='-173129' action='modify' visible='true' lat='-33.74194113651' lon='151.26709509283'>
    <tag k='addr:housenumber' v='53' />
    <tag k='addr:postcode' v='2100' />
    <tag k='addr:state' v='NSW' />
    <tag k='addr:street' v='Little Willandra Road' />
    <tag k='addr:suburb' v='Oxford Falls' />
  </node>
  <node id='-173131' action='modify' visible='true' lat='-33.73775410012' lon='151.24732205282'>
    <tag k='addr:housenumber' v='1081' />
    <tag k='addr:postcode' v='2100' />
    <tag k='addr:state' v='NSW' />
    <tag k='addr:street' v='Oxford Falls Road' />
    <tag k='addr:suburb' v='Oxford Falls' />
  </node>
  <node id='-173133' action='modify' visible='true' lat='-33.73650157972' lon='151.24273714366'>
    <tag k='addr:housenumber' v='1059' />
    <tag k='addr:postcode' v='2100' />
    <tag k='addr:state' v='NSW' />
    <tag k='addr:street' v='Spicer Road' />
    <tag k='addr:suburb' v='Oxford Falls' />
  </node>
  <node id='-173135' action='modify' visible='true' lat='-33.72240112571' lon='151.23270204061'>
    <tag k='addr:housenumber' v='2671' />
    <tag k='addr:postcode' v='2100' />
    <tag k='addr:state' v='NSW' />
    <tag k='addr:street' v='Morgan Road' />
    <tag k='addr:suburb' v='Oxford Falls' />
  </node>
  <node id='-173137' action='modify' visible='true' lat='-33.72100633144' lon='151.23309279996'>
    <tag k='addr:housenumber' v='L182' />
    <tag k='addr:postcode' v='2100' />
    <tag k='addr:state' v='NSW' />
    <tag k='addr:street' v='Morgan Road' />
    <tag k='addr:suburb' v='Oxford Falls' />
  </node>
  <node id='-173139' action='modify' visible='true' lat='-33.72084929489' lon='151.23536683108'>
    <tag k='addr:housenumber' v='L1403' />
    <tag k='addr:postcode' v='2100' />
    <tag k='addr:state' v='NSW' />
    <tag k='addr:street' v='Oxford Falls Road' />
    <tag k='addr:suburb' v='Oxford Falls' />
  </node>
  <node id='-173141' action='modify' visible='true' lat='-33.72070947945' lon='151.23593108355'>
    <tag k='addr:housenumber' v='2659' />
    <tag k='addr:postcode' v='2100' />
    <tag k='addr:state' v='NSW' />
    <tag k='addr:street' v='Oxford Falls Road' />
    <tag k='addr:suburb' v='Oxford Falls' />
  </node>
  <node id='-173143' action='modify' visible='true' lat='-33.73372069692' lon='151.24817713386'>
    <tag k='addr:housenumber' v='100' />
    <tag k='addr:postcode' v='2100' />
    <tag k='addr:state' v='NSW' />
    <tag k='addr:street' v='Meatworks Avenue' />
    <tag k='addr:suburb' v='Oxford Falls' />
  </node>
  <node id='-173145' action='modify' visible='true' lat='-33.73980676494' lon='151.24494720072'>
    <tag k='addr:housenumber' v='4' />
    <tag k='addr:postcode' v='2100' />
    <tag k='addr:state' v='NSW' />
    <tag k='addr:street' v='Wakehurst Parkway' />
    <tag k='addr:suburb' v='Oxford Falls' />
  </node>
  <node id='-173147' action='modify' visible='true' lat='-33.7375602772' lon='151.246201089'>
    <tag k='addr:housenumber' v='2' />
    <tag k='addr:postcode' v='2100' />
    <tag k='addr:state' v='NSW' />
    <tag k='addr:street' v='Wakehurst Parkway' />
    <tag k='addr:suburb' v='Oxford Falls' />
  </node>
  <node id='-173149' action='modify' visible='true' lat='-33.72196056389' lon='151.23555773769'>
    <tag k='addr:housenumber' v='2657' />
    <tag k='addr:postcode' v='2100' />
    <tag k='addr:state' v='NSW' />
    <tag k='addr:street' v='Oxford Falls Road' />
    <tag k='addr:suburb' v='Oxford Falls' />
  </node>
  <node id='-173151' action='modify' visible='true' lat='-33.74046169095' lon='151.24866050938'>
    <tag k='addr:housenumber' v='1085' />
    <tag k='addr:postcode' v='2100' />
    <tag k='addr:state' v='NSW' />
    <tag k='addr:street' v='Oxford Falls Road' />
    <tag k='addr:suburb' v='Oxford Falls' />
  </node>
  <node id='-173153' action='modify' visible='true' lat='-33.74051628738' lon='151.24563773275'>
    <tag k='addr:housenumber' v='1100' />
    <tag k='addr:postcode' v='2100' />
    <tag k='addr:state' v='NSW' />
    <tag k='addr:street' v='Oxford Falls Road' />
    <tag k='addr:suburb' v='Oxford Falls' />
  </node>
  <node id='-173155' action='modify' visible='true' lat='-33.73831801526' lon='151.24296915944'>
    <tag k='addr:housenumber' v='2' />
    <tag k='addr:postcode' v='2100' />
    <tag k='addr:state' v='NSW' />
    <tag k='addr:street' v='Dreadnought Road' />
    <tag k='addr:suburb' v='Oxford Falls' />
  </node>
  <node id='-173157' action='modify' visible='true' lat='-33.7383559334' lon='151.24298122938'>
    <tag k='addr:housenumber' v='34' />
    <tag k='addr:postcode' v='2100' />
    <tag k='addr:state' v='NSW' />
    <tag k='addr:street' v='Wakehurst Parkway' />
    <tag k='addr:suburb' v='Oxford Falls' />
  </node>
  <node id='-173159' action='modify' visible='true' lat='-33.73388589551' lon='151.23370795442'>
    <tag k='addr:housenumber' v='2640' />
    <tag k='addr:postcode' v='2100' />
    <tag k='addr:state' v='NSW' />
    <tag k='addr:street' v='Oxford Falls Road' />
    <tag k='addr:suburb' v='Oxford Falls' />
  </node>
  <node id='-173161' action='modify' visible='true' lat='-33.73389286245' lon='151.23942560459'>
    <tag k='addr:housenumber' v='2' />
    <tag k='addr:postcode' v='2100' />
    <tag k='addr:state' v='NSW' />
    <tag k='addr:street' v='Spicer Road' />
    <tag k='addr:suburb' v='Oxford Falls' />
  </node>
  <node id='-173163' action='modify' visible='true' lat='-33.73948498111' lon='151.23805563339'>
    <tag k='addr:housenumber' v='1072' />
    <tag k='addr:postcode' v='2100' />
    <tag k='addr:state' v='NSW' />
    <tag k='addr:street' v='Spicer Road' />
    <tag k='addr:suburb' v='Oxford Falls' />
  </node>
  <node id='-173165' action='modify' visible='true' lat='-33.74138698974' lon='151.24922671285'>
    <tag k='addr:housenumber' v='1085' />
    <tag k='addr:postcode' v='2100' />
    <tag k='addr:state' v='NSW' />
    <tag k='addr:street' v='Oxford Falls Road' />
    <tag k='addr:suburb' v='Oxford Falls' />
  </node>
  <node id='-173167' action='modify' visible='true' lat='-33.73647485739' lon='151.24700324452'>
    <tag k='addr:housenumber' v='2511' />
    <tag k='addr:postcode' v='2100' />
    <tag k='addr:state' v='NSW' />
    <tag k='addr:street' v='Oxford Falls Road' />
    <tag k='addr:suburb' v='Oxford Falls' />
  </node>
  <node id='-173169' action='modify' visible='true' lat='-33.73800723985' lon='151.23952895872'>
    <tag k='addr:housenumber' v='1068' />
    <tag k='addr:postcode' v='2100' />
    <tag k='addr:state' v='NSW' />
    <tag k='addr:street' v='Spicer Road' />
    <tag k='addr:suburb' v='Oxford Falls' />
  </node>
  <node id='-173171' action='modify' visible='true' lat='-33.73188849612' lon='151.23845815122'>
    <tag k='addr:postcode' v='2100' />
    <tag k='addr:state' v='NSW' />
    <tag k='addr:street' v='Oxford Falls Road' />
    <tag k='addr:suburb' v='Oxford Falls' />
  </node>
  <node id='-173173' action='modify' visible='true' lat='-33.73948351258' lon='151.25159829587'>
    <tag k='addr:postcode' v='2100' />
    <tag k='addr:state' v='NSW' />
    <tag k='addr:street' v='Brooker Avenue' />
    <tag k='addr:suburb' v='Oxford Falls' />
    <tag k='note' v='Confirm street and house no' />
  </node>
  <node id='-173175' action='modify' visible='true' lat='-33.73118807034' lon='151.23512684762'>
    <tag k='addr:postcode' v='2100' />
    <tag k='addr:state' v='NSW' />
    <tag k='addr:street' v='Oxford Falls Road' />
    <tag k='addr:suburb' v='Oxford Falls' />
  </node>
  <node id='-173608' action='modify' visible='true' lat='-33.7415355009' lon='151.26747160882'>
    <tag k='addr:postcode' v='2100' />
    <tag k='addr:state' v='NSW' />
    <tag k='addr:street' v='Little Willandra Road' />
    <tag k='addr:suburb' v='Oxford Falls' />
  </node>
</osm>
