<?xml version='1.0' encoding='UTF-8'?>
<osm version='0.6' generator='JOSM'>
  <node id='-102243' visible='true' lat='-34.1485227506' lon='150.66898962913'>
    <tag k='addr:housenumber' v='45' />
    <tag k='addr:street' v='Mount Hercules Road' />
  </node>
  <node id='-102245' visible='true' lat='-34.12795027498' lon='150.61893976048'>
    <tag k='addr:housenumber' v='665' />
    <tag k='addr:street' v='Mount Hercules Road' />
  </node>
  <node id='-102247' visible='true' lat='-34.14624007285' lon='150.64831120266'>
    <tag k='addr:housenumber' v='15' />
    <tag k='addr:street' v='Thurns Road' />
  </node>
  <node id='-102249' visible='true' lat='-34.1664402703' lon='150.68762460271'>
    <tag k='addr:housenumber' v='12' />
    <tag k='addr:street' v='Gibraltar Drive' />
  </node>
  <node id='-102251' visible='true' lat='-34.14103356403' lon='150.63251781582'>
    <tag k='addr:housenumber' v='435' />
    <tag k='addr:street' v='Mount Hercules Road' />
  </node>
  <node id='-102253' visible='true' lat='-34.13148772844' lon='150.63677386911'>
    <tag k='addr:housenumber' v='80' />
    <tag k='addr:street' v='Rotherwood Road' />
  </node>
  <node id='-102255' visible='true' lat='-34.14393339762' lon='150.64122605615'>
    <tag k='addr:housenumber' v='4' />
    <tag k='addr:street' v='Mount View Close' />
  </node>
  <node id='-102257' visible='true' lat='-34.12978674148' lon='150.60933203665'>
    <tag k='addr:housenumber' v='805' />
    <tag k='addr:street' v='Mount Hercules Road' />
  </node>
  <node id='-102259' visible='true' lat='-34.16235250738' lon='150.67573964994'>
    <tag k='addr:housenumber' v='25' />
    <tag k='addr:street' v='Fairlea Road' />
  </node>
  <node id='-102261' visible='true' lat='-34.14648357705' lon='150.6691083365'>
    <tag k='addr:housenumber' v='55' />
    <tag k='addr:street' v='Mount Hercules Road' />
  </node>
  <node id='-102263' visible='true' lat='-34.14252960683' lon='150.66144079641'>
    <tag k='addr:housenumber' v='170' />
    <tag k='addr:street' v='Mount Hercules Road' />
  </node>
  <node id='-102265' visible='true' lat='-34.13660682348' lon='150.6255274058'>
    <tag k='addr:housenumber' v='525' />
    <tag k='addr:street' v='Mount Hercules Road' />
  </node>
  <node id='-102267' visible='true' lat='-34.16788086955' lon='150.65085547284'>
    <tag k='addr:housenumber' v='1425' />
    <tag k='addr:street' v='Remembrance Driveway' />
  </node>
  <node id='-102269' visible='true' lat='-34.13248766848' lon='150.63171925334'>
    <tag k='addr:housenumber' v='55' />
    <tag k='addr:street' v='Rotherwood Road' />
  </node>
  <node id='-102271' visible='true' lat='-34.12969800048' lon='150.6413622813'>
    <tag k='addr:housenumber' v='120' />
    <tag k='addr:street' v='Rotherwood Road' />
  </node>
  <node id='-102273' visible='true' lat='-34.14111736393' lon='150.62716058566'>
    <tag k='addr:housenumber' v='25' />
    <tag k='addr:street' v='Toby Place' />
  </node>
  <node id='-102275' visible='true' lat='-34.14527808921' lon='150.6637217561'>
    <tag k='addr:housenumber' v='157' />
    <tag k='addr:street' v='Mount Hercules Road' />
  </node>
  <node id='-102277' visible='true' lat='-34.13540105806' lon='150.63557234564'>
    <tag k='addr:housenumber' v='40' />
    <tag k='addr:street' v='Rotherwood Road' />
  </node>
  <node id='-102279' visible='true' lat='-34.14459460318' lon='150.66583313337'>
    <tag k='addr:housenumber' v='105' />
    <tag k='addr:street' v='Mount Hercules Road' />
  </node>
  <node id='-102281' visible='true' lat='-34.12924625724' lon='150.61232954114'>
    <tag k='addr:housenumber' v='8' />
    <tag k='addr:street' v='Thomas Place' />
  </node>
  <node id='-102283' visible='true' lat='-34.13054503776' lon='150.60392881628'>
    <tag k='addr:housenumber' v='865' />
    <tag k='addr:street' v='Mount Hercules Road' />
  </node>
  <node id='-102285' visible='true' lat='-34.13005193594' lon='150.60763210956'>
    <tag k='addr:housenumber' v='825' />
    <tag k='addr:street' v='Mount Hercules Road' />
  </node>
  <node id='-102287' visible='true' lat='-34.16670450032' lon='150.67138400891'>
    <tag k='addr:housenumber' v='6' />
    <tag k='addr:street' v='Stonebrook Meadows Road' />
  </node>
  <node id='-102289' visible='true' lat='-34.15794302893' lon='150.6798341301'>
    <tag k='addr:housenumber' v='95' />
    <tag k='addr:street' v='Donalds Range Road' />
  </node>
  <node id='-102291' visible='true' lat='-34.15986128488' lon='150.67589433787'>
    <tag k='addr:housenumber' v='20' />
    <tag k='addr:street' v='Fairlea Road' />
  </node>
  <node id='-102293' visible='true' lat='-34.16015104819' lon='150.65114838256'>
    <tag k='addr:housenumber' v='1423' />
    <tag k='addr:street' v='Remembrance Driveway' />
  </node>
  <node id='-102295' visible='true' lat='-34.13071967562' lon='150.67197891599'>
    <tag k='addr:housenumber' v='75' />
    <tag k='addr:street' v='Eagles Road' />
  </node>
  <node id='-102297' visible='true' lat='-34.13710724061' lon='150.6327862987'>
    <tag k='addr:housenumber' v='15' />
    <tag k='addr:street' v='Rotherwood Road' />
  </node>
  <node id='-102299' visible='true' lat='-34.15816870622' lon='150.68400723434'>
    <tag k='addr:housenumber' v='85' />
    <tag k='addr:street' v='Donalds Range Road' />
  </node>
  <node id='-102301' visible='true' lat='-34.11820891705' lon='150.66910204877'>
    <tag k='addr:housenumber' v='485' />
    <tag k='addr:street' v='Old Razorback Road' />
  </node>
  <node id='-102303' visible='true' lat='-34.15986868717' lon='150.65179273626'>
    <tag k='addr:housenumber' v='1421' />
    <tag k='addr:street' v='Remembrance Driveway' />
  </node>
  <node id='-102305' visible='true' lat='-34.17127076783' lon='150.67019904273'>
    <tag k='addr:housenumber' v='246' />
    <tag k='addr:street' v='Donalds Range Road' />
  </node>
  <node id='-102307' visible='true' lat='-34.17199423867' lon='150.66940278528'>
    <tag k='addr:housenumber' v='262' />
    <tag k='addr:street' v='Donalds Range Road' />
  </node>
  <node id='-102309' visible='true' lat='-34.1321044203' lon='150.60280875428'>
    <tag k='addr:housenumber' v='5' />
    <tag k='addr:street' v='Robert Place' />
  </node>
  <node id='-102311' visible='true' lat='-34.13280796702' lon='150.60053457303'>
    <tag k='addr:housenumber' v='6' />
    <tag k='addr:street' v='Robert Place' />
  </node>
  <node id='-102313' visible='true' lat='-34.16712727689' lon='150.67398812193'>
    <tag k='addr:housenumber' v='2' />
    <tag k='addr:street' v='Stonebrook Meadows Road' />
  </node>
  <node id='-102315' visible='true' lat='-34.18404618073' lon='150.66426146774'>
    <tag k='addr:housenumber' v='1170' />
    <tag k='addr:street' v='Menangle Road' />
  </node>
  <node id='-102317' visible='true' lat='-34.12898314004' lon='150.62027344861'>
    <tag k='addr:housenumber' v='655' />
    <tag k='addr:street' v='Mount Hercules Road' />
  </node>
  <node id='-102319' visible='true' lat='-34.13338165405' lon='150.67239035415'>
    <tag k='addr:housenumber' v='70' />
    <tag k='addr:street' v='Eagles Road' />
  </node>
  <node id='-102321' visible='true' lat='-34.1529852199' lon='150.64322434154'>
    <tag k='addr:housenumber' v='50' />
    <tag k='addr:street' v='Thurns Road' />
  </node>
  <node id='-102323' visible='true' lat='-34.1625279573' lon='150.67703538403'>
    <tag k='addr:housenumber' v='150' />
    <tag k='addr:street' v='Donalds Range Road' />
  </node>
  <node id='-102325' visible='true' lat='-34.16532507869' lon='150.68784503054'>
    <tag k='addr:housenumber' v='14' />
    <tag k='addr:street' v='Gibraltar Drive' />
  </node>
  <node id='-102327' visible='true' lat='-34.18062089549' lon='150.66344998293'>
    <tag k='addr:housenumber' v='1140' />
    <tag k='addr:street' v='Menangle Road' />
  </node>
  <node id='-102329' visible='true' lat='-34.19152889914' lon='150.6431261063'>
    <tag k='addr:housenumber' v='305' />
    <tag k='addr:street' v='Picton Road' />
  </node>
  <node id='-102331' visible='true' lat='-34.13472061523' lon='150.67629326079'>
    <tag k='addr:housenumber' v='100' />
    <tag k='addr:street' v='Eagles Road' />
  </node>
  <node id='-102333' visible='true' lat='-34.1898184528' lon='150.64114451017'>
    <tag k='addr:housenumber' v='285' />
    <tag k='addr:street' v='Picton Road' />
  </node>
  <node id='-102335' visible='true' lat='-34.17003675591' lon='150.66812056217'>
    <tag k='addr:housenumber' v='244' />
    <tag k='addr:street' v='Donalds Range Road' />
  </node>
  <node id='-102337' visible='true' lat='-34.13064211005' lon='150.60219381915'>
    <tag k='addr:housenumber' v='887' />
    <tag k='addr:street' v='Mount Hercules Road' />
  </node>
  <node id='-102339' visible='true' lat='-34.15438685614' lon='150.62954775492'>
    <tag k='addr:housenumber' v='120' />
    <tag k='addr:street' v='Mount View Close' />
  </node>
  <node id='-102341' visible='true' lat='-34.17428251863' lon='150.6675167938'>
    <tag k='addr:housenumber' v='292' />
    <tag k='addr:street' v='Donalds Range Road' />
  </node>
  <node id='-102343' visible='true' lat='-34.16321356849' lon='150.63885559246'>
    <tag k='addr:housenumber' v='1545' />
    <tag k='addr:street' v='Remembrance Driveway' />
  </node>
  <node id='-102345' visible='true' lat='-34.14117333068' lon='150.66431313613'>
    <tag k='addr:housenumber' v='8/200' />
    <tag k='addr:street' v='Mount Hercules Road' />
  </node>
  <node id='-102347' visible='true' lat='-34.15704720954' lon='150.6800134272'>
    <tag k='addr:housenumber' v='89' />
    <tag k='addr:street' v='Donalds Range Road' />
  </node>
  <node id='-102349' visible='true' lat='-34.13358153556' lon='150.67135821477'>
    <tag k='addr:housenumber' v='60' />
    <tag k='addr:street' v='Eagles Road' />
  </node>
  <node id='-102351' visible='true' lat='-34.15940351598' lon='150.67246472274'>
    <tag k='addr:housenumber' v='50' />
    <tag k='addr:street' v='Fairlea Road' />
  </node>
  <node id='-102353' visible='true' lat='-34.14068830059' lon='150.65589379704'>
    <tag k='addr:housenumber' v='2/200' />
    <tag k='addr:street' v='Mount Hercules Road' />
  </node>
  <node id='-102355' visible='true' lat='-34.15673494434' lon='150.64799514165'>
    <tag k='addr:housenumber' v='1400' />
    <tag k='addr:street' v='Remembrance Driveway' />
  </node>
  <node id='-102357' visible='true' lat='-34.15820491382' lon='150.65465631166'>
    <tag k='addr:housenumber' v='1385' />
    <tag k='addr:street' v='Remembrance Driveway' />
  </node>
  <node id='-102359' visible='true' lat='-34.14510026345' lon='150.64839662814'>
    <tag k='addr:housenumber' v='305' />
    <tag k='addr:street' v='Mount Hercules Road' />
  </node>
  <node id='-102361' visible='true' lat='-34.12509155766' lon='150.61123123314'>
    <tag k='addr:housenumber' v='755' />
    <tag k='addr:street' v='Mount Hercules Road' />
  </node>
  <node id='-102363' visible='true' lat='-34.12429926285' lon='150.62292425709'>
    <tag k='addr:housenumber' v='8' />
    <tag k='addr:street' v='Sawadee Drive' />
  </node>
  <node id='-102365' visible='true' lat='-34.12618786248' lon='150.61198932761'>
    <tag k='addr:housenumber' v='763' />
    <tag k='addr:street' v='Mount Hercules Road' />
  </node>
  <node id='-102367' visible='true' lat='-34.13355451867' lon='150.66752387143'>
    <tag k='addr:housenumber' v='45' />
    <tag k='addr:street' v='Eagles Road' />
  </node>
  <node id='-102369' visible='true' lat='-34.13927073925' lon='150.64243390345'>
    <tag k='addr:housenumber' v='370' />
    <tag k='addr:street' v='Mount Hercules Road' />
  </node>
  <node id='-102371' visible='true' lat='-34.13023384693' lon='150.66883377139'>
    <tag k='addr:housenumber' v='350' />
    <tag k='addr:street' v='Old Razorback Road' />
  </node>
  <node id='-102373' visible='true' lat='-34.16538036695' lon='150.6730242491'>
    <tag k='addr:housenumber' v='180' />
    <tag k='addr:street' v='Donalds Range Road' />
  </node>
  <node id='-102375' visible='true' lat='-34.18981641319' lon='150.65002964738'>
    <tag k='addr:housenumber' v='1360' />
    <tag k='addr:street' v='Menangle Road' />
  </node>
  <node id='-102377' visible='true' lat='-34.14105405621' lon='150.63571707366'>
    <tag k='addr:housenumber' v='415' />
    <tag k='addr:street' v='Mount Hercules Road' />
  </node>
  <node id='-102379' visible='true' lat='-34.17521037348' lon='150.67116537051'>
    <tag k='addr:housenumber' v='327' />
    <tag k='addr:street' v='Donalds Range Road' />
  </node>
  <node id='-102381' visible='true' lat='-34.15320342731' lon='150.68024865376'>
    <tag k='addr:housenumber' v='49' />
    <tag k='addr:street' v='Donalds Range Road' />
  </node>
  <node id='-102383' visible='true' lat='-34.14053079243' lon='150.66332270554'>
    <tag k='addr:housenumber' v='7/200' />
    <tag k='addr:street' v='Mount Hercules Road' />
  </node>
  <node id='-102385' visible='true' lat='-34.14227434459' lon='150.66627187651'>
    <tag k='addr:housenumber' v='110' />
    <tag k='addr:street' v='Mount Hercules Road' />
  </node>
  <node id='-102387' visible='true' lat='-34.13159547754' lon='150.66689341525'>
    <tag k='addr:housenumber' v='330' />
    <tag k='addr:street' v='Old Razorback Road' />
  </node>
  <node id='-102389' visible='true' lat='-34.15369532514' lon='150.65324721777'>
    <tag k='addr:housenumber' v='1390' />
    <tag k='addr:street' v='Remembrance Driveway' />
  </node>
  <node id='-102391' visible='true' lat='-34.12423917443' lon='150.61616375996'>
    <tag k='addr:housenumber' v='3' />
    <tag k='addr:street' v='Sawadee Drive' />
  </node>
  <node id='-102393' visible='true' lat='-34.16659400468' lon='150.64395582044'>
    <tag k='addr:housenumber' v='1485' />
    <tag k='addr:street' v='Remembrance Driveway' />
  </node>
  <node id='-102395' visible='true' lat='-34.19179888192' lon='150.64437933944'>
    <tag k='addr:housenumber' v='1404' />
    <tag k='addr:street' v='Menangle Road' />
  </node>
  <node id='-102397' visible='true' lat='-34.13674510179' lon='150.63528329478'>
    <tag k='addr:housenumber' v='20' />
    <tag k='addr:street' v='Rotherwood Road' />
  </node>
  <node id='-102399' visible='true' lat='-34.16637513664' lon='150.66775438605'>
    <tag k='addr:housenumber' v='20' />
    <tag k='addr:street' v='Stonebrook Meadows Road' />
  </node>
  <node id='-102401' visible='true' lat='-34.17897104381' lon='150.66899103096'>
    <tag k='addr:housenumber' v='1130' />
    <tag k='addr:street' v='Menangle Road' />
  </node>
  <node id='-102403' visible='true' lat='-34.16360096352' lon='150.6690643437'>
    <tag k='addr:housenumber' v='30' />
    <tag k='addr:street' v='Inverary Close' />
  </node>
  <node id='-102405' visible='true' lat='-34.15002610241' lon='150.66179921281'>
    <tag k='addr:housenumber' v='39' />
    <tag k='addr:street' v='Old Razorback Road' />
  </node>
  <node id='-102407' visible='true' lat='-34.13055993889' lon='150.63677973023'>
    <tag k='addr:housenumber' v='90' />
    <tag k='addr:street' v='Rotherwood Road' />
  </node>
  <node id='-102409' visible='true' lat='-34.14981312991' lon='150.64726312602'>
    <tag k='addr:housenumber' v='45' />
    <tag k='addr:street' v='Thurns Road' />
  </node>
  <node id='-102411' visible='true' lat='-34.12420593962' lon='150.67094134104'>
    <tag k='addr:housenumber' v='400' />
    <tag k='addr:street' v='Old Razorback Road' />
  </node>
  <node id='-102413' visible='true' lat='-34.16303945862' lon='150.63489968869'>
    <tag k='addr:housenumber' v='1580' />
    <tag k='addr:street' v='Remembrance Driveway' />
  </node>
  <node id='-102415' visible='true' lat='-34.16894679134' lon='150.66059945617'>
    <tag k='addr:housenumber' v='111' />
    <tag k='addr:street' v='Stonebrook Meadows Road' />
  </node>
  <node id='-102417' visible='true' lat='-34.15118330092' lon='150.64479757256'>
    <tag k='addr:housenumber' v='57' />
    <tag k='addr:street' v='Thurns Road' />
  </node>
  <node id='-102419' visible='true' lat='-34.169555485' lon='150.66367222177'>
    <tag k='addr:housenumber' v='91' />
    <tag k='addr:street' v='Stonebrook Meadows Road' />
  </node>
  <node id='-102421' visible='true' lat='-34.16767544578' lon='150.66019716411'>
    <tag k='addr:housenumber' v='110' />
    <tag k='addr:street' v='Stonebrook Meadows Road' />
  </node>
  <node id='-102423' visible='true' lat='-34.13226828257' lon='150.59956509321'>
    <tag k='addr:housenumber' v='4' />
    <tag k='addr:street' v='Robert Place' />
  </node>
  <node id='-102425' visible='true' lat='-34.1229341262' lon='150.67108934561'>
    <tag k='addr:housenumber' v='430' />
    <tag k='addr:street' v='Old Razorback Road' />
  </node>
  <node id='-102427' visible='true' lat='-34.12969420732' lon='150.63632590153'>
    <tag k='addr:housenumber' v='100' />
    <tag k='addr:street' v='Rotherwood Road' />
  </node>
  <node id='-102429' visible='true' lat='-34.16264256393' lon='150.6412106534'>
    <tag k='addr:housenumber' v='1515' />
    <tag k='addr:street' v='Remembrance Driveway' />
  </node>
  <node id='-102431' visible='true' lat='-34.13386260344' lon='150.63149900428'>
    <tag k='addr:housenumber' v='45' />
    <tag k='addr:street' v='Rotherwood Road' />
  </node>
  <node id='-102433' visible='true' lat='-34.12247497323' lon='150.6709635249'>
    <tag k='addr:housenumber' v='434' />
    <tag k='addr:street' v='Old Razorback Road' />
  </node>
  <node id='-102435' visible='true' lat='-34.14466467641' lon='150.69268273459'>
    <tag k='addr:housenumber' v='975' />
    <tag k='addr:street' v='Remembrance Driveway' />
  </node>
  <node id='-102437' visible='true' lat='-34.127443085' lon='150.63479868765'>
    <tag k='addr:housenumber' v='130' />
    <tag k='addr:street' v='Rotherwood Road' />
  </node>
  <node id='-102439' visible='true' lat='-34.15562684488' lon='150.66109870463'>
    <tag k='addr:housenumber' v='1315' />
    <tag k='addr:street' v='Remembrance Driveway' />
  </node>
  <node id='-102441' visible='true' lat='-34.13762637179' lon='150.62928786407'>
    <tag k='addr:housenumber' v='10' />
    <tag k='addr:street' v='Toby Place' />
  </node>
  <node id='-102443' visible='true' lat='-34.160093604' lon='150.67751673229'>
    <tag k='addr:housenumber' v='130' />
    <tag k='addr:street' v='Donalds Range Road' />
  </node>
  <node id='-102445' visible='true' lat='-34.13769874126' lon='150.63247184894'>
    <tag k='addr:housenumber' v='470' />
    <tag k='addr:street' v='Mount Hercules Road' />
  </node>
  <node id='-102447' visible='true' lat='-34.14062183436' lon='150.63458769836'>
    <tag k='addr:housenumber' v='425' />
    <tag k='addr:street' v='Mount Hercules Road' />
  </node>
  <node id='-102449' visible='true' lat='-34.15328865253' lon='150.68378823808'>
    <tag k='addr:housenumber' v='25' />
    <tag k='addr:street' v='Plateau Drive' />
  </node>
  <node id='-102451' visible='true' lat='-34.12998511025' lon='150.63130499299'>
    <tag k='addr:housenumber' v='85' />
    <tag k='addr:street' v='Rotherwood Road' />
  </node>
  <node id='-102453' visible='true' lat='-34.14311587242' lon='150.66315523501'>
    <tag k='addr:housenumber' v='145' />
    <tag k='addr:street' v='Mount Hercules Road' />
  </node>
  <node id='-102455' visible='true' lat='-34.13208310998' lon='150.67958011565'>
    <tag k='addr:housenumber' v='89' />
    <tag k='addr:street' v='Eagles Road' />
  </node>
  <node id='-102457' visible='true' lat='-34.14137739477' lon='150.63705278344'>
    <tag k='addr:housenumber' v='405' />
    <tag k='addr:street' v='Mount Hercules Road' />
  </node>
  <node id='-102459' visible='true' lat='-34.14210725166' lon='150.6603026397'>
    <tag k='addr:housenumber' v='160' />
    <tag k='addr:street' v='Mount Hercules Road' />
  </node>
  <node id='-102463' visible='true' lat='-34.1318745865' lon='150.59852553643'>
    <tag k='addr:housenumber' v='2' />
    <tag k='addr:street' v='Robert Place' />
  </node>
  <node id='-102465' visible='true' lat='-34.14804965957' lon='150.64809155536'>
    <tag k='addr:housenumber' v='35' />
    <tag k='addr:street' v='Thurns Road' />
  </node>
  <node id='-102467' visible='true' lat='-34.14221748345' lon='150.63015443233'>
    <tag k='addr:housenumber' v='14' />
    <tag k='addr:street' v='Clintara Crescent' />
  </node>
  <node id='-102469' visible='true' lat='-34.12957525882' lon='150.61183585403'>
    <tag k='addr:housenumber' v='6' />
    <tag k='addr:street' v='Thomas Place' />
  </node>
  <node id='-102471' visible='true' lat='-34.13175140911' lon='150.67470770157'>
    <tag k='addr:housenumber' v='95' />
    <tag k='addr:street' v='Eagles Road' />
  </node>
  <node id='-102473' visible='true' lat='-34.15591718685' lon='150.68236166999'>
    <tag k='addr:housenumber' v='20' />
    <tag k='addr:street' v='Plateau Drive' />
  </node>
  <node id='-102475' visible='true' lat='-34.15089460051' lon='150.66224298633'>
    <tag k='addr:housenumber' v='45' />
    <tag k='addr:street' v='Old Razorback Road' />
  </node>
  <node id='-102477' visible='true' lat='-34.12849599373' lon='150.6328176167'>
    <tag k='addr:housenumber' v='115' />
    <tag k='addr:street' v='Rotherwood Road' />
  </node>
  <node id='-102479' visible='true' lat='-34.13195449735' lon='150.6699085202'>
    <tag k='addr:housenumber' v='55' />
    <tag k='addr:street' v='Eagles Road' />
  </node>
  <node id='-102481' visible='true' lat='-34.1387417434' lon='150.66548327658'>
    <tag k='addr:housenumber' v='126' />
    <tag k='addr:street' v='Mount Hercules Road' />
  </node>
  <node id='-102483' visible='true' lat='-34.14120245188' lon='150.66147429875'>
    <tag k='addr:housenumber' v='4/200' />
    <tag k='addr:street' v='Mount Hercules Road' />
  </node>
  <node id='-102485' visible='true' lat='-34.12142814677' lon='150.66949347696'>
    <tag k='addr:housenumber' v='445' />
    <tag k='addr:street' v='Old Razorback Road' />
  </node>
  <node id='-102487' visible='true' lat='-34.15883835176' lon='150.67965420019'>
    <tag k='addr:housenumber' v='105' />
    <tag k='addr:street' v='Donalds Range Road' />
  </node>
  <node id='-102489' visible='true' lat='-34.15961234709' lon='150.65295250778'>
    <tag k='addr:housenumber' v='1405' />
    <tag k='addr:street' v='Remembrance Driveway' />
  </node>
  <node id='-102491' visible='true' lat='-34.15761699321' lon='150.64387242335'>
    <tag k='addr:housenumber' v='1490' />
    <tag k='addr:street' v='Remembrance Driveway' />
  </node>
  <node id='-102493' visible='true' lat='-34.12854493657' lon='150.63050648003'>
    <tag k='addr:housenumber' v='105' />
    <tag k='addr:street' v='Rotherwood Road' />
  </node>
  <node id='-102495' visible='true' lat='-34.16759307973' lon='150.66257601'>
    <tag k='addr:housenumber' v='94' />
    <tag k='addr:street' v='Stonebrook Meadows Road' />
  </node>
  <node id='-102497' visible='true' lat='-34.12632254132' lon='150.61447373091'>
    <tag k='addr:housenumber' v='705' />
    <tag k='addr:street' v='Mount Hercules Road' />
  </node>
  <node id='-102499' visible='true' lat='-34.16598998897' lon='150.67608624278'>
    <tag k='addr:housenumber' v='190' />
    <tag k='addr:street' v='Donalds Range Road' />
  </node>
  <node id='-102501' visible='true' lat='-34.15962218246' lon='150.67420325147'>
    <tag k='addr:housenumber' v='30' />
    <tag k='addr:street' v='Fairlea Road' />
  </node>
  <node id='-102503' visible='true' lat='-34.12711705549' lon='150.62636704461'>
    <tag k='addr:housenumber' v='600' />
    <tag k='addr:street' v='Mount Hercules Road' />
  </node>
  <node id='-102505' visible='true' lat='-34.18511096161' lon='150.66297905862'>
    <tag k='addr:housenumber' v='1190' />
    <tag k='addr:street' v='Menangle Road' />
  </node>
  <node id='-102507' visible='true' lat='-34.13222921245' lon='150.62372769476'>
    <tag k='addr:housenumber' v='595' />
    <tag k='addr:street' v='Mount Hercules Road' />
  </node>
  <node id='-102509' visible='true' lat='-34.12499305744' lon='150.61826859118'>
    <tag k='addr:housenumber' v='2' />
    <tag k='addr:street' v='Sawadee Drive' />
  </node>
  <node id='-102511' visible='true' lat='-34.12694111621' lon='150.62108916659'>
    <tag k='addr:housenumber' v='642' />
    <tag k='addr:street' v='Mount Hercules Road' />
  </node>
  <node id='-102513' visible='true' lat='-34.16940296947' lon='150.66505938342'>
    <tag k='addr:housenumber' v='87' />
    <tag k='addr:street' v='Stonebrook Meadows Road' />
  </node>
  <node id='-102515' visible='true' lat='-34.15965792021' lon='150.68146103097'>
    <tag k='addr:housenumber' v='131' />
    <tag k='addr:street' v='Donalds Range Road' />
  </node>
  <node id='-102517' visible='true' lat='-34.1641251449' lon='150.68851719269'>
    <tag k='addr:housenumber' v='16' />
    <tag k='addr:street' v='Gibraltar Drive' />
  </node>
  <node id='-102519' visible='true' lat='-34.17994682735' lon='150.6476071317'>
    <tag k='addr:housenumber' v='1400' />
    <tag k='addr:street' v='Menangle Road' />
  </node>
  <node id='-102521' visible='true' lat='-34.14283872546' lon='150.64038033531'>
    <tag k='addr:housenumber' v='375' />
    <tag k='addr:street' v='Mount Hercules Road' />
  </node>
  <node id='-102523' visible='true' lat='-34.186069865' lon='150.64832668154'>
    <tag k='addr:housenumber' v='1370' />
    <tag k='addr:street' v='Menangle Road' />
  </node>
  <node id='-102525' visible='true' lat='-34.13078190545' lon='150.62075126063'>
    <tag k='addr:housenumber' v='645' />
    <tag k='addr:street' v='Mount Hercules Road' />
  </node>
  <node id='-102527' visible='true' lat='-34.15866255204' lon='150.65545655201'>
    <tag k='addr:housenumber' v='1381' />
    <tag k='addr:street' v='Remembrance Driveway' />
  </node>
  <node id='-102529' visible='true' lat='-34.12800706844' lon='150.62263208008'>
    <tag k='addr:housenumber' v='638' />
    <tag k='addr:street' v='Mount Hercules Road' />
  </node>
  <node id='-102531' visible='true' lat='-34.12740246534' lon='150.61174547115'>
    <tag k='addr:housenumber' v='783' />
    <tag k='addr:street' v='Mount Hercules Road' />
  </node>
  <node id='-102533' visible='true' lat='-34.14800636308' lon='150.65488880597'>
    <tag k='addr:housenumber' v='161' />
    <tag k='addr:street' v='Mount Hercules Road' />
  </node>
  <node id='-102535' visible='true' lat='-34.14335947167' lon='150.63094696509'>
    <tag k='addr:housenumber' v='9' />
    <tag k='addr:street' v='Clintara Crescent' />
  </node>
  <node id='-102537' visible='true' lat='-34.1556839042' lon='150.68025855377'>
    <tag k='addr:housenumber' v='10' />
    <tag k='addr:street' v='Plateau Drive' />
  </node>
  <node id='-102539' visible='true' lat='-34.14520102333' lon='150.64077423905'>
    <tag k='addr:housenumber' v='20' />
    <tag k='addr:street' v='Mount View Close' />
  </node>
  <node id='-102541' visible='true' lat='-34.14377091947' lon='150.63952104859'>
    <tag k='addr:housenumber' v='4' />
    <tag k='addr:street' v='Clintara Crescent' />
  </node>
  <node id='-102543' visible='true' lat='-34.1633503318' lon='150.66691427147'>
    <tag k='addr:housenumber' v='40' />
    <tag k='addr:street' v='Inverary Close' />
  </node>
  <node id='-102545' visible='true' lat='-34.13373083461' lon='150.62468269428'>
    <tag k='addr:housenumber' v='575' />
    <tag k='addr:street' v='Mount Hercules Road' />
  </node>
  <node id='-102547' visible='true' lat='-34.12408294851' lon='150.61903155434'>
    <tag k='addr:housenumber' v='12' />
    <tag k='addr:street' v='Sawadee Drive' />
  </node>
  <node id='-102549' visible='true' lat='-34.13705773526' lon='150.66615868021'>
    <tag k='addr:housenumber' v='225' />
    <tag k='addr:street' v='Old Razorback Road' />
  </node>
  <node id='-102551' visible='true' lat='-34.15820775466' lon='150.6772129336'>
    <tag k='addr:housenumber' v='118' />
    <tag k='addr:street' v='Donalds Range Road' />
  </node>
  <node id='-102553' visible='true' lat='-34.14702462925' lon='150.6470101439'>
    <tag k='addr:housenumber' v='29' />
    <tag k='addr:street' v='Thurns Road' />
  </node>
  <node id='-102555' visible='true' lat='-34.16077141819' lon='150.68124355302'>
    <tag k='addr:housenumber' v='133' />
    <tag k='addr:street' v='Donalds Range Road' />
  </node>
  <node id='-102557' visible='true' lat='-34.13913683476' lon='150.66383172396'>
    <tag k='addr:housenumber' v='11/200' />
    <tag k='addr:street' v='Mount Hercules Road' />
  </node>
  <node id='-102559' visible='true' lat='-34.14383335782' lon='150.66098661392'>
    <tag k='addr:housenumber' v='167' />
    <tag k='addr:street' v='Mount Hercules Road' />
  </node>
  <node id='-102561' visible='true' lat='-34.13978665527' lon='150.66247657609'>
    <tag k='addr:housenumber' v='6/200' />
    <tag k='addr:street' v='Mount Hercules Road' />
  </node>
  <node id='-102563' visible='true' lat='-34.14126201462' lon='150.65869913183'>
    <tag k='addr:housenumber' v='3/200' />
    <tag k='addr:street' v='Mount Hercules Road' />
  </node>
  <node id='-102565' visible='true' lat='-34.15174356288' lon='150.64688308207'>
    <tag k='addr:housenumber' v='55' />
    <tag k='addr:street' v='Thurns Road' />
  </node>
  <node id='-102567' visible='true' lat='-34.12550414263' lon='150.62222249659'>
    <tag k='addr:housenumber' v='6' />
    <tag k='addr:street' v='Sawadee Drive' />
  </node>
  <node id='-102569' visible='true' lat='-34.13294314081' lon='150.60259221407'>
    <tag k='addr:housenumber' v='7' />
    <tag k='addr:street' v='Robert Place' />
  </node>
  <node id='-102571' visible='true' lat='-34.13500603414' lon='150.62516780121'>
    <tag k='addr:housenumber' v='545' />
    <tag k='addr:street' v='Mount Hercules Road' />
  </node>
  <node id='-102573' visible='true' lat='-34.14810992433' lon='150.67306595341'>
    <tag k='addr:housenumber' v='30' />
    <tag k='addr:street' v='Mount Hercules Road' />
  </node>
  <node id='-102575' visible='true' lat='-34.1902835081' lon='150.64225434485'>
    <tag k='addr:housenumber' v='291' />
    <tag k='addr:street' v='Picton Road' />
  </node>
  <node id='-102577' visible='true' lat='-34.14987730177' lon='150.66285670462'>
    <tag k='addr:housenumber' v='47' />
    <tag k='addr:street' v='Old Razorback Road' />
  </node>
  <node id='-102579' visible='true' lat='-34.12949851562' lon='150.6111299227'>
    <tag k='addr:housenumber' v='4' />
    <tag k='addr:street' v='Thomas Place' />
  </node>
  <node id='-102581' visible='true' lat='-34.12533146485' lon='150.6160031545'>
    <tag k='addr:housenumber' v='680' />
    <tag k='addr:street' v='Mount Hercules Road' />
  </node>
  <node id='-102583' visible='true' lat='-34.12616515544' lon='150.61103754499'>
    <tag k='addr:housenumber' v='765' />
    <tag k='addr:street' v='Mount Hercules Road' />
  </node>
  <node id='-102585' visible='true' lat='-34.16725206039' lon='150.67581980277'>
    <tag k='addr:housenumber' v='210' />
    <tag k='addr:street' v='Donalds Range Road' />
  </node>
  <node id='-102587' visible='true' lat='-34.13481006416' lon='150.67391794661'>
    <tag k='addr:housenumber' v='90' />
    <tag k='addr:street' v='Eagles Road' />
  </node>
  <node id='-102589' visible='true' lat='-34.13550611353' lon='150.63141708107'>
    <tag k='addr:housenumber' v='530' />
    <tag k='addr:street' v='Mount Hercules Road' />
  </node>
  <node id='-102593' visible='true' lat='-34.1286727481' lon='150.61253266949'>
    <tag k='addr:housenumber' v='5' />
    <tag k='addr:street' v='Thomas Place' />
  </node>
  <node id='-102595' visible='true' lat='-34.12552222196' lon='150.62477802602'>
    <tag k='addr:housenumber' v='620' />
    <tag k='addr:street' v='Mount Hercules Road' />
  </node>
  <node id='-102597' visible='true' lat='-34.12768396232' lon='150.63229314247'>
    <tag k='addr:housenumber' v='125' />
    <tag k='addr:street' v='Rotherwood Road' />
  </node>
  <node id='-102599' visible='true' lat='-34.14634495988' lon='150.64663456728'>
    <tag k='addr:housenumber' v='25' />
    <tag k='addr:street' v='Thurns Road' />
  </node>
  <node id='-102601' visible='true' lat='-34.17120053396' lon='150.6673074061'>
    <tag k='addr:housenumber' v='274' />
    <tag k='addr:street' v='Donalds Range Road' />
  </node>
  <node id='-102603' visible='true' lat='-34.12693992706' lon='150.61122255905'>
    <tag k='addr:housenumber' v='775' />
    <tag k='addr:street' v='Mount Hercules Road' />
  </node>
  <node id='-102605' visible='true' lat='-34.16377181379' lon='150.67555695833'>
    <tag k='addr:housenumber' v='170' />
    <tag k='addr:street' v='Donalds Range Road' />
  </node>
  <node id='-102607' visible='true' lat='-34.14732725442' lon='150.66710513617'>
    <tag k='addr:housenumber' v='75' />
    <tag k='addr:street' v='Mount Hercules Road' />
  </node>
  <node id='-102609' visible='true' lat='-34.14018091664' lon='150.64492859125'>
    <tag k='addr:housenumber' v='340-350' />
    <tag k='addr:street' v='Mount Hercules Road' />
  </node>
  <node id='-102611' visible='true' lat='-34.18062772367' lon='150.64078853334'>
    <tag k='addr:housenumber' v='245' />
    <tag k='addr:street' v='Picton Road' />
  </node>
  <node id='-102613' visible='true' lat='-34.12769235976' lon='150.61662204856'>
    <tag k='addr:housenumber' v='685' />
    <tag k='addr:street' v='Mount Hercules Road' />
  </node>
  <node id='-102615' visible='true' lat='-34.13415942733' lon='150.63829859454'>
    <tag k='addr:housenumber' v='60' />
    <tag k='addr:street' v='Rotherwood Road' />
  </node>
  <node id='-102617' visible='true' lat='-34.1615255168' lon='150.67020357456'>
    <tag k='addr:housenumber' v='45' />
    <tag k='addr:street' v='Fairlea Road' />
  </node>
  <node id='-102619' visible='true' lat='-34.16209722092' lon='150.67385914832'>
    <tag k='addr:housenumber' v='35' />
    <tag k='addr:street' v='Fairlea Road' />
  </node>
  <node id='-102621' visible='true' lat='-34.14698219406' lon='150.6383303225'>
    <tag k='addr:housenumber' v='2' />
    <tag k='addr:street' v='Crawford Creek Place' />
  </node>
  <node id='-102623' visible='true' lat='-34.14660680457' lon='150.63647271357'>
    <tag k='addr:housenumber' v='4' />
    <tag k='addr:street' v='Crawford Creek Place' />
  </node>
  <node id='-102625' visible='true' lat='-34.14634577494' lon='150.63538732085'>
    <tag k='addr:housenumber' v='6' />
    <tag k='addr:street' v='Crawford Creek Place' />
  </node>
  <node id='-102627' visible='true' lat='-34.14605725166' lon='150.63429630238'>
    <tag k='addr:housenumber' v='8' />
    <tag k='addr:street' v='Crawford Creek Place' />
  </node>
  <node id='-102629' visible='true' lat='-34.14876002313' lon='150.63711098146'>
    <tag k='addr:housenumber' v='1' />
    <tag k='addr:street' v='Crawford Creek Place' />
  </node>
  <node id='-102631' visible='true' lat='-34.14852302639' lon='150.63564493378'>
    <tag k='addr:housenumber' v='3' />
    <tag k='addr:street' v='Crawford Creek Place' />
  </node>
  <node id='-102633' visible='true' lat='-34.14811030733' lon='150.6342117457'>
    <tag k='addr:housenumber' v='5' />
    <tag k='addr:street' v='Crawford Creek Place' />
  </node>
  <node id='-102635' visible='true' lat='-34.14760700853' lon='150.63245890886'>
    <tag k='addr:housenumber' v='7' />
    <tag k='addr:street' v='Crawford Creek Place' />
  </node>
  <node id='-102637' visible='true' lat='-34.14665182091' lon='150.63072074321'>
    <tag k='addr:housenumber' v='9' />
    <tag k='addr:street' v='Crawford Creek Place' />
  </node>
  <node id='-102639' visible='true' lat='-34.14544183839' lon='150.62975747624'>
    <tag k='addr:housenumber' v='10' />
    <tag k='addr:street' v='Crawford Creek Place' />
  </node>
  <node id='-102641' visible='true' lat='-34.17553735932' lon='150.66350185336'>
    <tag k='addr:housenumber' v='10' />
    <tag k='addr:street' v='Stockade Road' />
  </node>
  <node id='-102643' visible='true' lat='-34.17540824335' lon='150.66178622342'>
    <tag k='addr:housenumber' v='20' />
    <tag k='addr:street' v='Stockade Road' />
  </node>
  <node id='-102645' visible='true' lat='-34.17516253485' lon='150.66025238968'>
    <tag k='addr:housenumber' v='30' />
    <tag k='addr:street' v='Stockade Road' />
  </node>
  <node id='-102647' visible='true' lat='-34.17491881865' lon='150.6588013522'>
    <tag k='addr:housenumber' v='40' />
    <tag k='addr:street' v='Stockade Road' />
  </node>
  <node id='-102649' visible='true' lat='-34.17466727407' lon='150.65730379339'>
    <tag k='addr:housenumber' v='60' />
    <tag k='addr:street' v='Stockade Road' />
  </node>
  <node id='-102651' visible='true' lat='-34.1762627182' lon='150.66495642873'>
    <tag k='addr:housenumber' v='5' />
    <tag k='addr:street' v='Stockade Road' />
  </node>
  <node id='-102653' action='modify' visible='true' lat='-34.17687153659' lon='150.66316630513'>
    <tag k='addr:housenumber' v='15' />
    <tag k='addr:street' v='Stockade Road' />
  </node>
  <node id='-102655' action='modify' visible='true' lat='-34.17687153659' lon='150.66312287193'>
    <tag k='addr:housenumber' v='17' />
    <tag k='addr:street' v='Stockade Road' />
  </node>
  <node id='-102657' visible='true' lat='-34.17700487019' lon='150.66129481873'>
    <tag k='addr:housenumber' v='25' />
    <tag k='addr:street' v='Stockade Road' />
  </node>
  <node id='-102659' visible='true' lat='-34.14399153872' lon='150.66128988908'>
    <tag k='addr:housenumber' v='165' />
    <tag k='addr:street' v='Mount Hercules Road' />
  </node>
  <node id='-102661' visible='true' lat='-34.14374282907' lon='150.65472680657'>
    <tag k='addr:housenumber' v='163' />
    <tag k='addr:street' v='Mount Hercules Road' />
  </node>
  <node id='-102669' visible='true' lat='-34.15289910016' lon='150.64026012563'>
    <tag k='addr:housenumber' v='7' />
    <tag k='addr:street' v='Westminster Place' />
  </node>
  <node id='-102673' visible='true' lat='-34.15846854948' lon='150.63895512977'>
    <tag k='addr:housenumber' v='11' />
    <tag k='addr:street' v='Westminster Place' />
  </node>
  <node id='-102685' visible='true' lat='-34.15940021394' lon='150.67001732479'>
    <tag k='addr:housenumber' v='54' />
    <tag k='addr:street' v='Fairlea Road' />
  </node>
  <node id='-102687' visible='true' lat='-34.15831674788' lon='150.67043124198'>
    <tag k='addr:housenumber' v='52' />
    <tag k='addr:street' v='Fairlea Road' />
  </node>
  <node id='-102689' visible='true' lat='-34.13813796509' lon='150.63500919996'>
    <tag k='addr:housenumber' v='450' />
    <tag k='addr:street' v='Mount Hercules Road' />
  </node>
  <node id='-102691' visible='true' lat='-34.13721754248' lon='150.63701580437'>
    <tag k='addr:housenumber' v='430' />
    <tag k='addr:street' v='Mount Hercules Road' />
  </node>
  <node id='-102693' visible='true' lat='-34.14698153263' lon='150.68485277817'>
    <tag k='addr:housenumber' v='1075' />
    <tag k='addr:street' v='Remembrance Driveway' />
  </node>
  <node id='-102695' visible='true' lat='-34.15716417326' lon='150.65878143728'>
    <tag k='addr:housenumber' v='1345' />
    <tag k='addr:street' v='Remembrance Driveway' />
  </node>
  <node id='-102697' visible='true' lat='-34.16192158054' lon='150.66265377071'>
    <tag k='addr:housenumber' v='88' />
    <tag k='addr:street' v='Stonebrook Meadows Road' />
  </node>
  <node id='-102699' visible='true' lat='-34.13486556108' lon='150.61014702024'>
    <tag k='addr:housenumber' v='205' />
    <tag k='addr:street' v='Fairleys Road' />
  </node>
  <node id='-102701' visible='true' lat='-34.11988330693' lon='150.66837263807'>
    <tag k='addr:housenumber' v='455' />
    <tag k='addr:street' v='Old Razorback Road' />
  </node>
  <node id='-102703' visible='true' lat='-34.14483351579' lon='150.6837887236'>
    <tag k='addr:housenumber' v='1060' />
    <tag k='addr:street' v='Remembrance Driveway' />
  </node>
  <node id='-102705' visible='true' lat='-34.14504523864' lon='150.64313124376'>
    <tag k='addr:housenumber' v='15' />
    <tag k='addr:street' v='Mount View Close' />
  </node>
  <node id='-102707' visible='true' lat='-34.14607472797' lon='150.64259765573'>
    <tag k='addr:housenumber' v='25' />
    <tag k='addr:street' v='Mount View Close' />
  </node>
  <node id='-102709' visible='true' lat='-34.14414220443' lon='150.64350566515'>
    <tag k='addr:housenumber' v='5' />
    <tag k='addr:street' v='Mount View Close' />
  </node>
  <node id='-102711' visible='true' lat='-34.13686304962' lon='150.63919411167'>
    <tag k='addr:housenumber' v='420' />
    <tag k='addr:street' v='Mount Hercules Road' />
  </node>
  <node id='-102713' visible='true' lat='-34.13939197555' lon='150.63877312634'>
    <tag k='addr:housenumber' v='410' />
    <tag k='addr:street' v='Mount Hercules Road' />
  </node>
  <node id='-102715' visible='true' lat='-34.14844747001' lon='150.64308694431'>
    <tag k='addr:housenumber' v='40' />
    <tag k='addr:street' v='Thurns Road' />
  </node>
  <node id='-102717' visible='true' lat='-34.14979191971' lon='150.64134392699'>
    <tag k='addr:housenumber' v='48' />
    <tag k='addr:street' v='Mount View Close' />
  </node>
  <node id='-102719' visible='true' lat='-34.17756440895' lon='150.65958481462'>
    <tag k='addr:housenumber' v='35' />
    <tag k='addr:street' v='Stockade Road' />
  </node>
  <node id='-102721' visible='true' lat='-34.17642936094' lon='150.65800543912'>
    <tag k='addr:housenumber' v='45' />
    <tag k='addr:street' v='Stockade Road' />
  </node>
  <node id='-102723' visible='true' lat='-34.1742309061' lon='150.65483399731'>
    <tag k='addr:housenumber' v='65' />
    <tag k='addr:street' v='Stockade Road' />
  </node>
  <node id='-102725' action='modify' visible='true' lat='-34.17598872994' lon='150.65524638045'>
    <tag k='addr:housenumber' v='55A' />
    <tag k='addr:street' v='Stockade Road' />
  </node>
  <node id='-102727' action='modify' visible='true' lat='-34.17598872994' lon='150.6552029477'>
    <tag k='addr:housenumber' v='55B' />
    <tag k='addr:street' v='Stockade Road' />
  </node>
  <node id='-102729' visible='true' lat='-34.1728381243' lon='150.66367465603'>
    <tag k='addr:housenumber' v='388' />
    <tag k='addr:street' v='Donalds Range Road' />
  </node>
  <node id='-102731' visible='true' lat='-34.17380686744' lon='150.66372207528'>
    <tag k='addr:housenumber' v='386' />
    <tag k='addr:street' v='Donalds Range Road' />
  </node>
  <node id='-102733' visible='true' lat='-34.17103172124' lon='150.65741901042'>
    <tag k='addr:housenumber' v='380' />
    <tag k='addr:street' v='Donalds Range Road' />
  </node>
  <node id='-102735' visible='true' lat='-34.14251252732' lon='150.63654259091'>
    <tag k='addr:housenumber' v='395' />
    <tag k='addr:street' v='Mount Hercules Road' />
  </node>
  <node id='-102737' visible='true' lat='-34.14394016578' lon='150.63692976779'>
    <tag k='addr:housenumber' v='12' />
    <tag k='addr:street' v='Clintara Crescent' />
  </node>
  <node id='-102739' visible='true' lat='-34.12763554835' lon='150.64510966701'>
    <tag k='addr:housenumber' v='140' />
    <tag k='addr:street' v='Rotherwood Road' />
  </node>
  <node id='-102741' visible='true' lat='-34.12023127013' lon='150.65459256316'>
    <tag k='addr:housenumber' v='519' />
    <tag k='addr:street' v='Old Razorback Road' />
  </node>
  <node id='-102743' visible='true' lat='-34.12258211555' lon='150.65448432014'>
    <tag k='addr:housenumber' v='515' />
    <tag k='addr:street' v='Old Razorback Road' />
  </node>
  <node id='-102745' action='modify' visible='true' lat='-34.12644390004' lon='150.60370747012'>
    <tag k='addr:housenumber' v='800' />
    <tag k='addr:street' v='Mount Hercules Road' />
  </node>
  <node id='-102747' action='modify' visible='true' lat='-34.12644390004' lon='150.60366406284'>
    <tag k='addr:housenumber' v='800-900' />
    <tag k='addr:street' v='Mount Hercules Road' />
  </node>
  <node id='-102749' visible='true' lat='-34.14977418535' lon='150.63015881239'>
    <tag k='addr:housenumber' v='90' />
    <tag k='addr:street' v='Mount View Close' />
  </node>
  <node id='-102751' visible='true' lat='-34.12319627378' lon='150.62997439901'>
    <tag k='addr:housenumber' v='165' />
    <tag k='addr:street' v='Rotherwood Road' />
  </node>
  <node id='-102753' visible='true' lat='-34.15294495401' lon='150.66525133474'>
    <tag k='addr:housenumber' v='1220' />
    <tag k='addr:street' v='Remembrance Driveway' />
  </node>
  <node id='-102755' visible='true' lat='-34.15385059984' lon='150.66825357827'>
    <tag k='addr:housenumber' v='1225' />
    <tag k='addr:street' v='Remembrance Driveway' />
  </node>
  <node id='-102757' visible='true' lat='-34.17895879281' lon='150.67310598716'>
    <tag k='addr:housenumber' v='1100' />
    <tag k='addr:street' v='Menangle Road' />
  </node>
  <node id='-102759' visible='true' lat='-34.17487137043' lon='150.67241109031'>
    <tag k='addr:housenumber' v='313' />
    <tag k='addr:street' v='Donalds Range Road' />
  </node>
  <node id='-102761' visible='true' lat='-34.17094347786' lon='150.67444425819'>
    <tag k='addr:housenumber' v='253' />
    <tag k='addr:street' v='Donalds Range Road' />
  </node>
  <node id='-102763' visible='true' lat='-34.17295512378' lon='150.67343980995'>
    <tag k='addr:housenumber' v='279' />
    <tag k='addr:street' v='Donalds Range Road' />
  </node>
  <node id='-102765' visible='true' lat='-34.18248838381' lon='150.67117734927'>
    <tag k='addr:housenumber' v='1095' />
    <tag k='addr:street' v='Menangle Road' />
  </node>
  <node id='-102767' visible='true' lat='-34.16985910738' lon='150.67575355821'>
    <tag k='addr:housenumber' v='223' />
    <tag k='addr:street' v='Donalds Range Road' />
  </node>
  <node id='-102769' visible='true' lat='-34.17185359948' lon='150.67400211635'>
    <tag k='addr:housenumber' v='269' />
    <tag k='addr:street' v='Donalds Range Road' />
  </node>
  <node id='-102771' action='modify' visible='true' lat='-34.19326362595' lon='150.6413749282'>
    <tag k='addr:housenumber' v='300' />
    <tag k='addr:street' v='Picton Road' />
  </node>
  <node id='-102773' visible='true' lat='-34.18617872586' lon='150.66791632682'>
    <tag k='addr:housenumber' v='1235' />
    <tag k='addr:street' v='Menangle Road' />
  </node>
  <node id='-102775' visible='true' lat='-34.19189976678' lon='150.63940086509'>
    <tag k='addr:housenumber' v='290' />
    <tag k='addr:street' v='Picton Road' />
  </node>
  <node id='-102777' visible='true' lat='-34.19524633243' lon='150.65823722872'>
    <tag k='addr:housenumber' v='1285' />
    <tag k='addr:street' v='Menangle Road' />
  </node>
  <node id='-102779' visible='true' lat='-34.2000050216' lon='150.64809272883'>
    <tag k='addr:housenumber' v='390' />
    <tag k='addr:street' v='Picton Road' />
  </node>
  <node id='-102781' visible='true' lat='-34.19109785863' lon='150.63712783897'>
    <tag k='addr:housenumber' v='250' />
    <tag k='addr:street' v='Picton Road' />
  </node>
  <node id='-102783' visible='true' lat='-34.19368467068' lon='150.6514376174'>
    <tag k='addr:housenumber' v='1345' />
    <tag k='addr:street' v='Menangle Road' />
  </node>
  <node id='-102785' visible='true' lat='-34.20002306195' lon='150.64927866472'>
    <tag k='addr:housenumber' v='400' />
    <tag k='addr:street' v='Picton Road' />
  </node>
  <node id='-102787' visible='true' lat='-34.19123722417' lon='150.63907511487'>
    <tag k='addr:housenumber' v='270' />
    <tag k='addr:street' v='Picton Road' />
  </node>
  <node id='-102789' visible='true' lat='-34.19783262472' lon='150.65238355106'>
    <tag k='addr:housenumber' v='1359' />
    <tag k='addr:street' v='Menangle Road' />
  </node>
  <node id='-102793' visible='true' lat='-34.19350061606' lon='150.66054599643'>
    <tag k='addr:housenumber' v='1265' />
    <tag k='addr:street' v='Menangle Road' />
  </node>
  <node id='-102795' visible='true' lat='-34.19590778194' lon='150.6552486798'>
    <tag k='addr:housenumber' v='1315' />
    <tag k='addr:street' v='Menangle Road' />
  </node>
  <node id='-102797' visible='true' lat='-34.19736380294' lon='150.66189639046'>
    <tag k='addr:housenumber' v='1245' />
    <tag k='addr:street' v='Menangle Road' />
  </node>
  <node id='-102799' visible='true' lat='-34.15571339981' lon='150.68428577765'>
    <tag k='addr:housenumber' v='40' />
    <tag k='addr:street' v='Plateau Drive' />
  </node>
  <node id='-102801' visible='true' lat='-34.15367209656' lon='150.6734642824'>
    <tag k='addr:housenumber' v='43' />
    <tag k='addr:street' v='Mount Hercules Road' />
  </node>
  <node id='-102803' visible='true' lat='-34.14234589829' lon='150.67469554661'>
    <tag k='addr:housenumber' v='40' />
    <tag k='addr:street' v='Mount Hercules Road' />
  </node>
  <node id='-102805' action='modify' visible='true' lat='-34.17404245065' lon='150.67293875804'>
    <tag k='addr:housenumber' v='299' />
    <tag k='addr:street' v='Donalds Range Road' />
  </node>
  <node id='-102807' action='modify' visible='true' lat='-34.17404245065' lon='150.6728953263'>
    <tag k='addr:housenumber' v='297' />
    <tag k='addr:street' v='Donalds Range Road' />
  </node>
  <node id='-102809' visible='true' lat='-34.16257618452' lon='150.68190177547'>
    <tag k='addr:housenumber' v='155' />
    <tag k='addr:street' v='Donalds Range Road' />
  </node>
  <node id='-102811' visible='true' lat='-34.160771168' lon='150.68419033863'>
    <tag k='addr:housenumber' v='135' />
    <tag k='addr:street' v='Donalds Range Road' />
  </node>
  <node id='-102813' visible='true' lat='-34.1622324044' lon='150.68754293141'>
    <tag k='addr:housenumber' v='17' />
    <tag k='addr:street' v='Gibraltar Drive' />
  </node>
  <node id='-102815' visible='true' lat='-34.16371991182' lon='150.68652040311'>
    <tag k='addr:housenumber' v='15' />
    <tag k='addr:street' v='Gibraltar Drive' />
  </node>
  <node id='-102817' visible='true' lat='-34.16713733465' lon='150.67800378095'>
    <tag k='addr:housenumber' v='1' />
    <tag k='addr:street' v='Top Ridge Road' />
  </node>
  <node id='-102819' visible='true' lat='-34.16645258494' lon='150.68044908955'>
    <tag k='addr:housenumber' v='3' />
    <tag k='addr:street' v='Top Ridge Road' />
  </node>
  <node id='-102821' visible='true' lat='-34.16630774591' lon='150.6833348569'>
    <tag k='addr:housenumber' v='7' />
    <tag k='addr:street' v='Top Ridge Road' />
  </node>
  <node id='-102823' visible='true' lat='-34.16062691568' lon='150.67929249843'>
    <tag k='addr:housenumber' v='125' />
    <tag k='addr:street' v='Donalds Range Road' />
  </node>
  <node id='-102825' visible='true' lat='-34.16225679421' lon='150.67841846444'>
    <tag k='addr:housenumber' v='145' />
    <tag k='addr:street' v='Donalds Range Road' />
  </node>
  <node id='-102827' visible='true' lat='-34.16601493339' lon='150.67823095232'>
    <tag k='addr:housenumber' v='185' />
    <tag k='addr:street' v='Donalds Range Road' />
  </node>
  <node id='-102829' visible='true' lat='-34.16503276789' lon='150.67873205069'>
    <tag k='addr:housenumber' v='175' />
    <tag k='addr:street' v='Donalds Range Road' />
  </node>
  <node id='-102831' visible='true' lat='-34.15973729589' lon='150.67947567693'>
    <tag k='addr:housenumber' v='115' />
    <tag k='addr:street' v='Donalds Range Road' />
  </node>
  <node id='-102833' visible='true' lat='-34.16906632162' lon='150.67707125098'>
    <tag k='addr:housenumber' v='219' />
    <tag k='addr:street' v='Donalds Range Road' />
  </node>
  <node id='-102835' visible='true' lat='-34.16835523086' lon='150.68019100355'>
    <tag k='addr:housenumber' v='4' />
    <tag k='addr:street' v='Top Ridge Road' />
  </node>
  <node id='-102837' visible='true' lat='-34.16446376553' lon='150.68369843065'>
    <tag k='addr:housenumber' v='159' />
    <tag k='addr:street' v='Donalds Range Road' />
  </node>
  <node id='-102839' visible='true' lat='-34.16445184789' lon='150.68121877647'>
    <tag k='addr:housenumber' v='163' />
    <tag k='addr:street' v='Donalds Range Road' />
  </node>
  <node id='-102841' action='modify' visible='true' lat='-34.13495392007' lon='150.66952859356'>
    <tag k='addr:housenumber' v='40' />
    <tag k='addr:street' v='Eagles Road' />
  </node>
  <node id='-102843' action='modify' visible='true' lat='-34.13495392007' lon='150.66948518191'>
    <tag k='addr:housenumber' v='56' />
    <tag k='addr:street' v='Eagles Road' />
  </node>
  <node id='-102845' visible='true' lat='-34.16433687773' lon='150.67906400528'>
    <tag k='addr:housenumber' v='165' />
    <tag k='addr:street' v='Donalds Range Road' />
  </node>
  <node id='-102847' visible='true' lat='-34.14673451578' lon='150.68162862074'>
    <tag k='addr:housenumber' v='1070' />
    <tag k='addr:street' v='Remembrance Driveway' />
  </node>
  <node id='-102849' visible='true' lat='-34.16760496598' lon='150.66720863572'>
    <tag k='addr:housenumber' v='67' />
    <tag k='addr:street' v='Stonebrook Meadows Road' />
  </node>
  <node id='-102851' visible='true' lat='-34.16809411698' lon='150.67009623988'>
    <tag k='addr:housenumber' v='57' />
    <tag k='addr:street' v='Stonebrook Meadows Road' />
  </node>
  <node id='-102853' visible='true' lat='-34.16903279089' lon='150.66893774693'>
    <tag k='addr:housenumber' v='226' />
    <tag k='addr:street' v='Donalds Range Road' />
  </node>
  <node id='-102857' visible='true' lat='-34.13384694131' lon='150.66540182008'>
    <tag k='addr:housenumber' v='310' />
    <tag k='addr:street' v='Old Razorback Road' />
  </node>
  <node id='-102859' visible='true' lat='-34.14138696787' lon='150.66499589571'>
    <tag k='addr:housenumber' v='13/200' />
    <tag k='addr:street' v='Mount Hercules Road' />
  </node>
  <node id='-102861' visible='true' lat='-34.17308448642' lon='150.66857410583'>
    <tag k='addr:housenumber' v='282' />
    <tag k='addr:street' v='Donalds Range Road' />
  </node>
  <node id='-102863' visible='true' lat='-34.16793053665' lon='150.66547149873'>
    <tag k='addr:housenumber' v='77' />
    <tag k='addr:street' v='Stonebrook Meadows Road' />
  </node>
  <node id='-102865' visible='true' lat='-34.16764564887' lon='150.6615073238'>
    <tag k='addr:housenumber' v='98' />
    <tag k='addr:street' v='Stonebrook Meadows Road' />
  </node>
  <node id='-102867' visible='true' lat='-34.18826414796' lon='150.65562598078'>
    <tag k='addr:housenumber' v='1290' />
    <tag k='addr:street' v='Menangle Road' />
  </node>
  <node id='-102869' visible='true' lat='-34.14185174544' lon='150.66286054968'>
    <tag k='addr:housenumber' v='14/200' />
    <tag k='addr:street' v='Mount Hercules Road' />
  </node>
  <node id='-102871' visible='true' lat='-34.13340292794' lon='150.60157589829'>
    <tag k='addr:housenumber' v='8' />
    <tag k='addr:street' v='Robert Place' />
  </node>
  <node id='-102873' visible='true' lat='-34.12369960708' lon='150.61793591613'>
    <tag k='addr:housenumber' v='14' />
    <tag k='addr:street' v='Sawadee Drive' />
  </node>
  <node id='-102875' visible='true' lat='-34.18983441703' lon='150.65091050891'>
    <tag k='addr:housenumber' v='1350' />
    <tag k='addr:street' v='Menangle Road' />
  </node>
  <node id='-102877' visible='true' lat='-34.15319885717' lon='150.68144686176'>
    <tag k='addr:housenumber' v='15' />
    <tag k='addr:street' v='Plateau Drive' />
  </node>
  <node id='-102879' visible='true' lat='-34.12184309576' lon='150.67117842765'>
    <tag k='addr:housenumber' v='436' />
    <tag k='addr:street' v='Old Razorback Road' />
  </node>
  <node id='-102881' visible='true' lat='-34.17317282508' lon='150.66629388016'>
    <tag k='addr:housenumber' v='276' />
    <tag k='addr:street' v='Donalds Range Road' />
  </node>
  <node id='-102883' visible='true' lat='-34.12944211791' lon='150.61047420235'>
    <tag k='addr:housenumber' v='2' />
    <tag k='addr:street' v='Thomas Place' />
  </node>
  <node id='-102885' visible='true' lat='-34.14871074531' lon='150.66071389823'>
    <tag k='addr:housenumber' v='159' />
    <tag k='addr:street' v='Mount Hercules Road' />
  </node>
  <node id='-102887' visible='true' lat='-34.13138066352' lon='150.60058282363'>
    <tag k='addr:housenumber' v='1' />
    <tag k='addr:street' v='Robert Place' />
  </node>
  <node id='-102889' visible='true' lat='-34.12429320802' lon='150.62165808337'>
    <tag k='addr:housenumber' v='10' />
    <tag k='addr:street' v='Sawadee Drive' />
  </node>
  <node id='-102891' visible='true' lat='-34.17001068773' lon='150.67164787406'>
    <tag k='addr:housenumber' v='230' />
    <tag k='addr:street' v='Donalds Range Road' />
  </node>
  <node id='-102893' visible='true' lat='-34.14627519998' lon='150.64483314305'>
    <tag k='addr:housenumber' v='325' />
    <tag k='addr:street' v='Mount Hercules Road' />
  </node>
  <node id='-102895' visible='true' lat='-34.11923524353' lon='150.6714531397'>
    <tag k='addr:housenumber' v='450' />
    <tag k='addr:street' v='Old Razorback Road' />
  </node>
  <node id='-102897' visible='true' lat='-34.13907119115' lon='150.6313041395'>
    <tag k='addr:housenumber' v='5' />
    <tag k='addr:street' v='Toby Place' />
  </node>
  <node id='-102899' visible='true' lat='-34.16271252996' lon='150.6892123371'>
    <tag k='addr:housenumber' v='19' />
    <tag k='addr:street' v='Gibraltar Drive' />
  </node>
  <node id='-102901' visible='true' lat='-34.14024240656' lon='150.66427877744'>
    <tag k='addr:housenumber' v='9/200' />
    <tag k='addr:street' v='Mount Hercules Road' />
  </node>
  <node id='-102903' visible='true' lat='-34.1451875291' lon='150.6359254513'>
    <tag k='addr:housenumber' v='5' />
    <tag k='addr:street' v='Clintara Crescent' />
  </node>
  <node id='-102905' visible='true' lat='-34.16949614679' lon='150.66203253971'>
    <tag k='addr:housenumber' v='105' />
    <tag k='addr:street' v='Stonebrook Meadows Road' />
  </node>
  <node id='-102907' visible='true' lat='-34.13949606911' lon='150.63311939101'>
    <tag k='addr:housenumber' v='445' />
    <tag k='addr:street' v='Mount Hercules Road' />
  </node>
  <node id='-102909' visible='true' lat='-34.15931322224' lon='150.67324836522'>
    <tag k='addr:housenumber' v='40' />
    <tag k='addr:street' v='Fairlea Road' />
  </node>
  <node id='-102911' visible='true' lat='-34.18596901347' lon='150.66009646914'>
    <tag k='addr:housenumber' v='1210' />
    <tag k='addr:street' v='Menangle Road' />
  </node>
  <node id='-102913' visible='true' lat='-34.13151842796' lon='150.62220588398'>
    <tag k='addr:housenumber' v='615' />
    <tag k='addr:street' v='Mount Hercules Road' />
  </node>
  <node id='-102915' visible='true' lat='-34.12551359186' lon='150.62135826004'>
    <tag k='addr:housenumber' v='4' />
    <tag k='addr:street' v='Sawadee Drive' />
  </node>
  <node id='-102917' visible='true' lat='-34.14533688707' lon='150.63884056698'>
    <tag k='addr:housenumber' v='3' />
    <tag k='addr:street' v='Clintara Crescent' />
  </node>
  <node id='-102919' visible='true' lat='-34.13152957804' lon='150.6729587216'>
    <tag k='addr:housenumber' v='85' />
    <tag k='addr:street' v='Eagles Road' />
  </node>
  <node id='-102921' visible='true' lat='-34.16514071997' lon='150.66859505137'>
    <tag k='addr:housenumber' v='20' />
    <tag k='addr:street' v='Inverary Close' />
  </node>
  <node id='-102923' visible='true' lat='-34.13629565636' lon='150.6297775473'>
    <tag k='addr:housenumber' v='500' />
    <tag k='addr:street' v='Mount Hercules Road' />
  </node>
  <node id='-102925' visible='true' lat='-34.1396669928' lon='150.66413976531'>
    <tag k='addr:housenumber' v='10/200' />
    <tag k='addr:street' v='Mount Hercules Road' />
  </node>
  <node id='-102927' visible='true' lat='-34.12571386529' lon='150.62328257683'>
    <tag k='addr:housenumber' v='640' />
    <tag k='addr:street' v='Mount Hercules Road' />
  </node>
  <node id='-102929' visible='true' lat='-34.14612188307' lon='150.6399813839'>
    <tag k='addr:housenumber' v='30' />
    <tag k='addr:street' v='Mount View Close' />
  </node>
  <node id='-102931' visible='true' lat='-34.12117962602' lon='150.67127181375'>
    <tag k='addr:housenumber' v='440' />
    <tag k='addr:street' v='Old Razorback Road' />
  </node>
  <node id='-102933' visible='true' lat='-34.15925844462' lon='150.6567832325'>
    <tag k='addr:housenumber' v='1375' />
    <tag k='addr:street' v='Remembrance Driveway' />
  </node>
  <node id='-102935' visible='true' lat='-34.14008998308' lon='150.63013590765'>
    <tag k='addr:housenumber' v='15' />
    <tag k='addr:street' v='Toby Place' />
  </node>
  <node id='-102937' visible='true' lat='-34.16123399916' lon='150.64996061548'>
    <tag k='addr:housenumber' v='1429' />
    <tag k='addr:street' v='Remembrance Driveway' />
  </node>
  <node id='-102939' visible='true' lat='-34.13899528852' lon='150.66530086135'>
    <tag k='addr:housenumber' v='124' />
    <tag k='addr:street' v='Mount Hercules Road' />
  </node>
  <node id='-102941' visible='true' lat='-34.16033031521' lon='150.65403892072'>
    <tag k='addr:housenumber' v='1415' />
    <tag k='addr:street' v='Remembrance Driveway' />
  </node>
  <node id='-102943' visible='true' lat='-34.12649056152' lon='150.62981302307'>
    <tag k='addr:housenumber' v='135' />
    <tag k='addr:street' v='Rotherwood Road' />
  </node>
  <node id='-102945' visible='true' lat='-34.12314514908' lon='150.6165167181'>
    <tag k='addr:housenumber' v='5' />
    <tag k='addr:street' v='Sawadee Drive' />
  </node>
  <node id='-102947' visible='true' lat='-34.1369887794' lon='150.62708682245'>
    <tag k='addr:housenumber' v='515' />
    <tag k='addr:street' v='Mount Hercules Road' />
  </node>
  <node id='-102949' visible='true' lat='-34.1309194044' lon='150.60137774698'>
    <tag k='addr:housenumber' v='895' />
    <tag k='addr:street' v='Mount Hercules Road' />
  </node>
  <node id='-102951' visible='true' lat='-34.1570909112' lon='150.67743090883'>
    <tag k='addr:housenumber' v='116' />
    <tag k='addr:street' v='Donalds Range Road' />
  </node>
  <node id='-102955' visible='true' lat='-34.16933830916' lon='150.67449869142'>
    <tag k='addr:housenumber' v='239' />
    <tag k='addr:street' v='Donalds Range Road' />
  </node>
  <node id='-102957' visible='true' lat='-34.13473460526' lon='150.67832337966'>
    <tag k='addr:housenumber' v='110' />
    <tag k='addr:street' v='Eagles Road' />
  </node>
  <node id='-102959' visible='true' lat='-34.13097956562' lon='150.62776514961'>
    <tag k='addr:housenumber' v='570' />
    <tag k='addr:street' v='Mount Hercules Road' />
  </node>
  <node id='-102961' visible='true' lat='-34.13745362332' lon='150.68762660429'>
    <tag k='addr:housenumber' v='790' />
    <tag k='addr:street' v='Remembrance Driveway' />
  </node>
  <node id='-102963' visible='true' lat='-34.1754612747' lon='150.6695229551'>
    <tag k='addr:housenumber' v='343' />
    <tag k='addr:street' v='Donalds Range Road' />
  </node>
  <node id='-102965' visible='true' lat='-34.13858846949' lon='150.64081083366'>
    <tag k='addr:housenumber' v='390' />
    <tag k='addr:street' v='Mount Hercules Road' />
  </node>
  <node id='-102967' visible='true' lat='-34.18942637629' lon='150.64016844119'>
    <tag k='addr:housenumber' v='275' />
    <tag k='addr:street' v='Picton Road' />
  </node>
  <node id='-102969' visible='true' lat='-34.13170428604' lon='150.69125741124'>
    <tag k='addr:housenumber' v='739' />
    <tag k='addr:street' v='Remembrance Driveway' />
  </node>
  <node id='-102971' visible='true' lat='-34.16852575795' lon='150.67294363746'>
    <tag k='addr:housenumber' v='222' />
    <tag k='addr:street' v='Donalds Range Road' />
  </node>
  <node id='-102973' visible='true' lat='-34.13031774873' lon='150.6057964302'>
    <tag k='addr:housenumber' v='845' />
    <tag k='addr:street' v='Mount Hercules Road' />
  </node>
  <node id='-102975' visible='true' lat='-34.13124705985' lon='150.60313235715'>
    <tag k='addr:housenumber' v='885' />
    <tag k='addr:street' v='Mount Hercules Road' />
  </node>
  <node id='-102977' visible='true' lat='-34.17630674278' lon='150.6663215698'>
    <tag k='addr:housenumber' v='359' />
    <tag k='addr:street' v='Donalds Range Road' />
  </node>
  <node id='-102979' visible='true' lat='-34.15206556821' lon='150.66130548191'>
    <tag k='addr:housenumber' v='50' />
    <tag k='addr:street' v='Old Razorback Road' />
  </node>
  <node id='-102981' visible='true' lat='-34.13713339976' lon='150.66378171094'>
    <tag k='addr:housenumber' v='12/200' />
    <tag k='addr:street' v='Mount Hercules Road' />
  </node>
  <node id='-102983' visible='true' lat='-34.13181880389' lon='150.62590869747'>
    <tag k='addr:housenumber' v='585' />
    <tag k='addr:street' v='Mount Hercules Road' />
  </node>
  <node id='-102985' action='modify' visible='true' lat='-34.14454524724' lon='150.66343406366'>
    <tag k='addr:housenumber' v='155' />
    <tag k='addr:street' v='Old Razorback Road' />
  </node>
  <node id='-102987' action='modify' visible='true' lat='-34.14454524724' lon='150.66339064708'>
    <tag k='addr:housenumber' v='153' />
    <tag k='addr:street' v='Old Razorback Road' />
  </node>
  <node id='-102989' visible='true' lat='-34.12606343306' lon='150.63173537724'>
    <tag k='addr:housenumber' v='145' />
    <tag k='addr:street' v='Rotherwood Road' />
  </node>
  <node id='-102991' visible='true' lat='-34.14022171737' lon='150.66153408546'>
    <tag k='addr:housenumber' v='5/200' />
    <tag k='addr:street' v='Mount Hercules Road' />
  </node>
  <node id='-102993' visible='true' lat='-34.14592532232' lon='150.64402404934'>
    <tag k='addr:housenumber' v='335' />
    <tag k='addr:street' v='Mount Hercules Road' />
  </node>
  <node id='-102995' visible='true' lat='-34.12455339652' lon='150.62950317904'>
    <tag k='addr:housenumber' v='155' />
    <tag k='addr:street' v='Rotherwood Road' />
  </node>
  <node id='-102997' visible='true' lat='-34.16406293696' lon='150.67347370091'>
    <tag k='addr:housenumber' v='176' />
    <tag k='addr:street' v='Donalds Range Road' />
  </node>
  <node id='-102999' visible='true' lat='-34.1562016584' lon='150.6776017994'>
    <tag k='addr:housenumber' v='114' />
    <tag k='addr:street' v='Donalds Range Road' />
  </node>
  <node id='-103001' visible='true' lat='-34.14456369368' lon='150.63376382676'>
    <tag k='addr:housenumber' v='7' />
    <tag k='addr:street' v='Clintara Crescent' />
  </node>
  <node id='-103003' visible='true' lat='-34.12800468831' lon='150.61220210929'>
    <tag k='addr:housenumber' v='3' />
    <tag k='addr:street' v='Thomas Place' />
  </node>
  <node id='-103005' visible='true' lat='-34.16718903519' lon='150.6581223635'>
    <tag k='addr:housenumber' v='400' />
    <tag k='addr:street' v='Donalds Range Road' />
  </node>
  <node id='-103007' visible='true' lat='-34.13883331498' lon='150.62638588687'>
    <tag k='addr:housenumber' v='20' />
    <tag k='addr:street' v='Toby Place' />
  </node>
  <node id='-103009' visible='true' lat='-34.14227275772' lon='150.63895205446'>
    <tag k='addr:housenumber' v='385' />
    <tag k='addr:street' v='Mount Hercules Road' />
  </node>
  <node id='-103011' visible='true' lat='-34.13114292287' lon='150.63146463037'>
    <tag k='addr:housenumber' v='65' />
    <tag k='addr:street' v='Rotherwood Road' />
  </node>
  <node id='-103013' visible='true' lat='-34.1664737461' lon='150.6693632091'>
    <tag k='addr:housenumber' v='10' />
    <tag k='addr:street' v='Stonebrook Meadows Road' />
  </node>
  <node id='-103015' visible='true' lat='-34.12789243064' lon='150.61074667861'>
    <tag k='addr:housenumber' v='785' />
    <tag k='addr:street' v='Mount Hercules Road' />
  </node>
  <node id='-103017' visible='true' lat='-34.14404182371' lon='150.6625191383'>
    <tag k='addr:housenumber' v='151' />
    <tag k='addr:street' v='Mount Hercules Road' />
  </node>
  <node id='-103019' visible='true' lat='-34.18205218366' lon='150.65422461034'>
    <tag k='addr:housenumber' v='1330' />
    <tag k='addr:street' v='Menangle Road' />
  </node>
  <node id='-103021' visible='true' lat='-34.13722975427' lon='150.64923961537'>
    <tag k='addr:housenumber' v='250' />
    <tag k='addr:street' v='Mount Hercules Road' />
  </node>
  <node id='-103023' visible='true' lat='-34.16759982138' lon='150.68801618001'>
    <tag k='addr:housenumber' v='10' />
    <tag k='addr:street' v='Gibraltar Drive' />
  </node>
  <node id='-103025' visible='true' lat='-34.12888578822' lon='150.67026858826'>
    <tag k='addr:housenumber' v='370' />
    <tag k='addr:street' v='Old Razorback Road' />
  </node>
  <node id='-103027' visible='true' lat='-34.13244496277' lon='150.63838657483'>
    <tag k='addr:housenumber' v='70' />
    <tag k='addr:street' v='Rotherwood Road' />
  </node>
  <node id='619733844' action='modify' timestamp='2010-01-25T09:34:57Z' uid='69319' user='Rhubarb' visible='true' version='1' changeset='3709153' lat='-34.1910182' lon='150.6348188' />
  <node id='619733845' action='modify' timestamp='2010-01-25T09:34:57Z' uid='69319' user='Rhubarb' visible='true' version='1' changeset='3709153' lat='-34.1910001' lon='150.6346437' />
  <node id='619733846' action='modify' timestamp='2010-01-25T09:34:57Z' uid='69319' user='Rhubarb' visible='true' version='1' changeset='3709153' lat='-34.1909557' lon='150.634828' />
  <node id='619733860' action='modify' timestamp='2010-01-25T09:34:58Z' uid='69319' user='Rhubarb' visible='true' version='1' changeset='3709153' lat='-34.1906272' lon='150.6346962' />
  <node id='619733861' action='modify' timestamp='2010-01-25T09:34:58Z' uid='69319' user='Rhubarb' visible='true' version='1' changeset='3709153' lat='-34.1906446' lon='150.6348739' />
  <node id='619733862' action='modify' timestamp='2010-01-25T09:34:58Z' uid='69319' user='Rhubarb' visible='true' version='1' changeset='3709153' lat='-34.1907112' lon='150.6348641' />
  <node id='4122038053' action='modify' timestamp='2016-04-14T22:19:52Z' uid='2963768' user='Mar Mar' visible='true' version='1' changeset='38572088' lat='-34.1568688' lon='150.6343815' />
  <node id='4122038054' action='modify' timestamp='2016-04-14T22:19:52Z' uid='2963768' user='Mar Mar' visible='true' version='1' changeset='38572088' lat='-34.1567638' lon='150.6346249' />
  <node id='4122038055' action='modify' timestamp='2016-04-14T22:19:52Z' uid='2963768' user='Mar Mar' visible='true' version='1' changeset='38572088' lat='-34.1570024' lon='150.6347751' />
  <node id='4122038056' action='modify' timestamp='2016-04-14T22:19:52Z' uid='2963768' user='Mar Mar' visible='true' version='1' changeset='38572088' lat='-34.1571099' lon='150.6345259' />
  <node id='4122038057' action='modify' timestamp='2016-04-14T22:19:52Z' uid='2963768' user='Mar Mar' visible='true' version='1' changeset='38572088' lat='-34.157035' lon='150.6344788' />
  <node id='4122038058' action='modify' timestamp='2016-04-14T22:19:52Z' uid='2963768' user='Mar Mar' visible='true' version='1' changeset='38572088' lat='-34.1570046' lon='150.6345492' />
  <node id='4122038059' action='modify' timestamp='2016-04-14T22:19:52Z' uid='2963768' user='Mar Mar' visible='true' version='1' changeset='38572088' lat='-34.1569423' lon='150.63451' />
  <node id='4122038060' action='modify' timestamp='2016-04-14T22:19:52Z' uid='2963768' user='Mar Mar' visible='true' version='1' changeset='38572088' lat='-34.1569702' lon='150.6344453' />
  <node id='4122049388' action='modify' timestamp='2016-04-14T22:28:53Z' uid='2963768' user='Mar Mar' visible='true' version='1' changeset='38572379' lat='-34.1527325' lon='150.6342008' />
  <node id='4122049389' action='modify' timestamp='2016-04-14T22:28:53Z' uid='2963768' user='Mar Mar' visible='true' version='1' changeset='38572379' lat='-34.1527955' lon='150.6344322' />
  <node id='4122049390' action='modify' timestamp='2016-04-14T22:28:53Z' uid='2963768' user='Mar Mar' visible='true' version='1' changeset='38572379' lat='-34.1529882' lon='150.6343556' />
  <node id='4122049391' action='modify' timestamp='2016-04-14T22:28:53Z' uid='2963768' user='Mar Mar' visible='true' version='1' changeset='38572379' lat='-34.1529655' lon='150.6342724' />
  <node id='4122049392' action='modify' timestamp='2016-04-14T22:28:53Z' uid='2963768' user='Mar Mar' visible='true' version='1' changeset='38572379' lat='-34.1529429' lon='150.6342813' />
  <node id='4122049393' action='modify' timestamp='2016-04-14T22:28:53Z' uid='2963768' user='Mar Mar' visible='true' version='1' changeset='38572379' lat='-34.1529026' lon='150.6341332' />
  <node id='4122049402' action='modify' timestamp='2016-04-14T22:28:53Z' uid='2963768' user='Mar Mar' visible='true' version='1' changeset='38572379' lat='-34.151669' lon='150.6343089' />
  <node id='4122049403' action='modify' timestamp='2016-04-14T22:28:53Z' uid='2963768' user='Mar Mar' visible='true' version='1' changeset='38572379' lat='-34.1516916' lon='150.6344427' />
  <node id='4122049404' action='modify' timestamp='2016-04-14T22:28:53Z' uid='2963768' user='Mar Mar' visible='true' version='1' changeset='38572379' lat='-34.1518421' lon='150.6344054' />
  <node id='4122049405' action='modify' timestamp='2016-04-14T22:28:53Z' uid='2963768' user='Mar Mar' visible='true' version='1' changeset='38572379' lat='-34.1518195' lon='150.6342717' />
  <node id='4122084129' action='modify' timestamp='2016-04-14T22:51:02Z' uid='2963768' user='Mar Mar' visible='true' version='1' changeset='38573043' lat='-34.1523556' lon='150.6389535' />
  <node id='4122084130' action='modify' timestamp='2016-04-14T22:51:02Z' uid='2963768' user='Mar Mar' visible='true' version='1' changeset='38573043' lat='-34.1522828' lon='150.6390567' />
  <node id='4122084131' action='modify' timestamp='2016-04-14T22:51:02Z' uid='2963768' user='Mar Mar' visible='true' version='1' changeset='38573043' lat='-34.1523805' lon='150.6391573' />
  <node id='4122084132' action='modify' timestamp='2016-04-14T22:51:02Z' uid='2963768' user='Mar Mar' visible='true' version='1' changeset='38573043' lat='-34.1523722' lon='150.6392015' />
  <node id='4122084133' action='modify' timestamp='2016-04-14T22:51:02Z' uid='2963768' user='Mar Mar' visible='true' version='1' changeset='38573043' lat='-34.1524042' lon='150.6392347' />
  <node id='4122084134' action='modify' timestamp='2016-04-14T22:51:02Z' uid='2963768' user='Mar Mar' visible='true' version='1' changeset='38573043' lat='-34.1524335' lon='150.6392336' />
  <node id='4122084135' action='modify' timestamp='2016-04-14T22:51:02Z' uid='2963768' user='Mar Mar' visible='true' version='1' changeset='38573043' lat='-34.1524946' lon='150.6392965' />
  <node id='4122084136' action='modify' timestamp='2016-04-14T22:51:02Z' uid='2963768' user='Mar Mar' visible='true' version='1' changeset='38573043' lat='-34.1525762' lon='150.6391808' />
  <node id='4122084194' action='modify' timestamp='2018-11-23T11:22:01Z' uid='7404838' user='DareDJ' visible='true' version='2' changeset='64816982' lat='-34.1519854' lon='150.636311' />
  <node id='4122084195' action='modify' timestamp='2018-11-23T11:22:01Z' uid='7404838' user='DareDJ' visible='true' version='2' changeset='64816982' lat='-34.1520863' lon='150.636369' />
  <node id='4122084196' action='modify' timestamp='2018-11-23T11:22:02Z' uid='7404838' user='DareDJ' visible='true' version='2' changeset='64816982' lat='-34.1521373' lon='150.6362397' />
  <node id='4122084197' action='modify' timestamp='2018-11-23T11:22:02Z' uid='7404838' user='DareDJ' visible='true' version='2' changeset='64816982' lat='-34.1520364' lon='150.6361817' />
  <node id='4122084200' action='modify' timestamp='2018-11-23T11:22:02Z' uid='7404838' user='DareDJ' visible='true' version='2' changeset='64816982' lat='-34.1521011' lon='150.6363316' />
  <node id='4122084209' action='modify' timestamp='2016-04-14T22:49:47Z' uid='2963768' user='Mar Mar' visible='true' version='1' changeset='38573009' lat='-34.1507699' lon='150.6371192' />
  <node id='4122084210' action='modify' timestamp='2016-04-14T22:49:47Z' uid='2963768' user='Mar Mar' visible='true' version='1' changeset='38573009' lat='-34.150832' lon='150.637249' />
  <node id='4122084211' action='modify' timestamp='2016-04-14T22:49:47Z' uid='2963768' user='Mar Mar' visible='true' version='1' changeset='38573009' lat='-34.1507687' lon='150.6372931' />
  <node id='4122084212' action='modify' timestamp='2016-04-14T22:49:47Z' uid='2963768' user='Mar Mar' visible='true' version='1' changeset='38573009' lat='-34.1508005' lon='150.6373595' />
  <node id='4122084213' action='modify' timestamp='2016-04-14T22:49:47Z' uid='2963768' user='Mar Mar' visible='true' version='1' changeset='38573009' lat='-34.1508625' lon='150.6373162' />
  <node id='4122084214' action='modify' timestamp='2016-04-14T22:49:47Z' uid='2963768' user='Mar Mar' visible='true' version='1' changeset='38573009' lat='-34.1509081' lon='150.6374117' />
  <node id='4122084215' action='modify' timestamp='2016-04-14T22:49:47Z' uid='2963768' user='Mar Mar' visible='true' version='1' changeset='38573009' lat='-34.1509545' lon='150.6373794' />
  <node id='4122084216' action='modify' timestamp='2016-04-14T22:49:47Z' uid='2963768' user='Mar Mar' visible='true' version='1' changeset='38573009' lat='-34.1509681' lon='150.6374079' />
  <node id='4122084217' action='modify' timestamp='2016-04-14T22:49:47Z' uid='2963768' user='Mar Mar' visible='true' version='1' changeset='38573009' lat='-34.1510269' lon='150.637367' />
  <node id='4122084218' action='modify' timestamp='2016-04-14T22:49:47Z' uid='2963768' user='Mar Mar' visible='true' version='1' changeset='38573009' lat='-34.1508738' lon='150.6370467' />
  <node id='4122084229' action='modify' timestamp='2016-04-14T22:49:47Z' uid='2963768' user='Mar Mar' visible='true' version='1' changeset='38573009' lat='-34.152377' lon='150.637856' />
  <node id='4122084230' action='modify' timestamp='2016-04-14T22:49:47Z' uid='2963768' user='Mar Mar' visible='true' version='1' changeset='38573009' lat='-34.152457' lon='150.6379834' />
  <node id='4122084231' action='modify' timestamp='2016-04-14T22:49:47Z' uid='2963768' user='Mar Mar' visible='true' version='1' changeset='38573009' lat='-34.1526716' lon='150.6377863' />
  <node id='4122084232' action='modify' timestamp='2016-04-14T22:49:47Z' uid='2963768' user='Mar Mar' visible='true' version='1' changeset='38573009' lat='-34.1525915' lon='150.637659' />
  <node id='4122084233' action='modify' timestamp='2016-04-14T22:49:47Z' uid='2963768' user='Mar Mar' visible='true' version='1' changeset='38573009' lat='-34.1516572' lon='150.638292' />
  <node id='4122084234' action='modify' timestamp='2016-04-14T22:49:47Z' uid='2963768' user='Mar Mar' visible='true' version='1' changeset='38573009' lat='-34.1515946' lon='150.6384101' />
  <node id='4122084235' action='modify' timestamp='2016-04-14T22:49:47Z' uid='2963768' user='Mar Mar' visible='true' version='1' changeset='38573009' lat='-34.1516831' lon='150.6384785' />
  <node id='4122084236' action='modify' timestamp='2016-04-14T22:49:47Z' uid='2963768' user='Mar Mar' visible='true' version='1' changeset='38573009' lat='-34.1516967' lon='150.6385204' />
  <node id='4122084237' action='modify' timestamp='2016-04-14T22:49:47Z' uid='2963768' user='Mar Mar' visible='true' version='1' changeset='38573009' lat='-34.1516895' lon='150.6386611' />
  <node id='4122084238' action='modify' timestamp='2016-04-14T22:49:47Z' uid='2963768' user='Mar Mar' visible='true' version='1' changeset='38573009' lat='-34.151798' lon='150.6386693' />
  <node id='4122084239' action='modify' timestamp='2016-04-14T22:49:47Z' uid='2963768' user='Mar Mar' visible='true' version='1' changeset='38573009' lat='-34.1518081' lon='150.6384731' />
  <node id='4122084240' action='modify' timestamp='2016-04-14T22:49:47Z' uid='2963768' user='Mar Mar' visible='true' version='1' changeset='38573009' lat='-34.1518681' lon='150.6384351' />
  <node id='4122084241' action='modify' timestamp='2016-04-14T22:49:47Z' uid='2963768' user='Mar Mar' visible='true' version='1' changeset='38573009' lat='-34.1518354' lon='150.6383596' />
  <node id='4122084242' action='modify' timestamp='2016-04-14T22:49:47Z' uid='2963768' user='Mar Mar' visible='true' version='1' changeset='38573009' lat='-34.1517855' lon='150.6383912' />
  <node id='4122084243' action='modify' timestamp='2016-04-14T22:49:47Z' uid='2963768' user='Mar Mar' visible='true' version='1' changeset='38573009' lat='-34.1530378' lon='150.638167' />
  <node id='4122084244' action='modify' timestamp='2016-04-14T22:49:47Z' uid='2963768' user='Mar Mar' visible='true' version='1' changeset='38573009' lat='-34.1529328' lon='150.6383681' />
  <node id='4122084245' action='modify' timestamp='2016-04-14T22:49:47Z' uid='2963768' user='Mar Mar' visible='true' version='1' changeset='38573009' lat='-34.153194' lon='150.6385671' />
  <node id='4122084246' action='modify' timestamp='2016-04-14T22:49:47Z' uid='2963768' user='Mar Mar' visible='true' version='1' changeset='38573009' lat='-34.1532516' lon='150.6384566' />
  <node id='4122084247' action='modify' timestamp='2016-04-14T22:49:47Z' uid='2963768' user='Mar Mar' visible='true' version='1' changeset='38573009' lat='-34.153065' lon='150.6383144' />
  <node id='4122084248' action='modify' timestamp='2016-04-14T22:49:47Z' uid='2963768' user='Mar Mar' visible='true' version='1' changeset='38573009' lat='-34.1531123' lon='150.6382238' />
  <node id='4122088607' action='modify' timestamp='2016-04-14T22:53:53Z' uid='2963768' user='Mar Mar' visible='true' version='1' changeset='38573093' lat='-34.1551817' lon='150.6404317' />
  <node id='4122088608' action='modify' timestamp='2016-04-14T22:53:53Z' uid='2963768' user='Mar Mar' visible='true' version='1' changeset='38573093' lat='-34.1550206' lon='150.6407246' />
  <node id='4122088609' action='modify' timestamp='2016-04-14T22:53:53Z' uid='2963768' user='Mar Mar' visible='true' version='1' changeset='38573093' lat='-34.1550959' lon='150.640781' />
  <node id='4122088610' action='modify' timestamp='2016-04-14T22:53:53Z' uid='2963768' user='Mar Mar' visible='true' version='1' changeset='38573093' lat='-34.155126' lon='150.6407337' />
  <node id='4122088611' action='modify' timestamp='2016-04-14T22:53:53Z' uid='2963768' user='Mar Mar' visible='true' version='1' changeset='38573093' lat='-34.1551847' lon='150.6407864' />
  <node id='4122088612' action='modify' timestamp='2016-04-14T22:53:53Z' uid='2963768' user='Mar Mar' visible='true' version='1' changeset='38573093' lat='-34.1551711' lon='150.6408064' />
  <node id='4122088613' action='modify' timestamp='2016-04-14T22:53:53Z' uid='2963768' user='Mar Mar' visible='true' version='1' changeset='38573093' lat='-34.1552585' lon='150.640881' />
  <node id='4122088614' action='modify' timestamp='2016-04-14T22:53:53Z' uid='2963768' user='Mar Mar' visible='true' version='1' changeset='38573093' lat='-34.1553066' lon='150.6408046' />
  <node id='4122088615' action='modify' timestamp='2016-04-14T22:53:53Z' uid='2963768' user='Mar Mar' visible='true' version='1' changeset='38573093' lat='-34.1553292' lon='150.6408246' />
  <node id='4122088616' action='modify' timestamp='2016-04-14T22:53:53Z' uid='2963768' user='Mar Mar' visible='true' version='1' changeset='38573093' lat='-34.1553774' lon='150.6407318' />
  <node id='4122088617' action='modify' timestamp='2016-04-14T22:53:53Z' uid='2963768' user='Mar Mar' visible='true' version='1' changeset='38573093' lat='-34.155266' lon='150.6406482' />
  <node id='4122088618' action='modify' timestamp='2016-04-14T22:53:53Z' uid='2963768' user='Mar Mar' visible='true' version='1' changeset='38573093' lat='-34.1552961' lon='150.6405918' />
  <node id='4122088619' action='modify' timestamp='2016-04-14T22:53:54Z' uid='2963768' user='Mar Mar' visible='true' version='1' changeset='38573093' lat='-34.1553172' lon='150.6406118' />
  <node id='4122088620' action='modify' timestamp='2016-04-14T22:53:54Z' uid='2963768' user='Mar Mar' visible='true' version='1' changeset='38573093' lat='-34.1553503' lon='150.6405445' />
  <node id='4122088621' action='modify' timestamp='2016-04-14T22:53:54Z' uid='2963768' user='Mar Mar' visible='true' version='1' changeset='38573093' lat='-34.1553202' lon='150.6405244' />
  <node id='4122088622' action='modify' timestamp='2016-04-14T22:53:54Z' uid='2963768' user='Mar Mar' visible='true' version='1' changeset='38573093' lat='-34.1553096' lon='150.640468' />
  <node id='4122088623' action='modify' timestamp='2016-04-14T22:53:54Z' uid='2963768' user='Mar Mar' visible='true' version='1' changeset='38573093' lat='-34.1552554' lon='150.6404626' />
  <node id='4122088624' action='modify' timestamp='2016-04-14T22:53:54Z' uid='2963768' user='Mar Mar' visible='true' version='1' changeset='38573093' lat='-34.1549342' lon='150.6393659' />
  <node id='4122088625' action='modify' timestamp='2016-04-14T22:53:54Z' uid='2963768' user='Mar Mar' visible='true' version='1' changeset='38573093' lat='-34.1549481' lon='150.6394688' />
  <node id='4122088626' action='modify' timestamp='2016-04-14T22:53:54Z' uid='2963768' user='Mar Mar' visible='true' version='1' changeset='38573093' lat='-34.1551222' lon='150.6394345' />
  <node id='4122088627' action='modify' timestamp='2016-04-14T22:53:54Z' uid='2963768' user='Mar Mar' visible='true' version='1' changeset='38573093' lat='-34.1551293' lon='150.6394872' />
  <node id='4122088628' action='modify' timestamp='2016-04-14T22:53:54Z' uid='2963768' user='Mar Mar' visible='true' version='1' changeset='38573093' lat='-34.1551759' lon='150.639478' />
  <node id='4122088629' action='modify' timestamp='2016-04-14T22:53:54Z' uid='2963768' user='Mar Mar' visible='true' version='1' changeset='38573093' lat='-34.1551533' lon='150.6393102' />
  <node id='4122088630' action='modify' timestamp='2016-04-14T22:53:54Z' uid='2963768' user='Mar Mar' visible='true' version='1' changeset='38573093' lat='-34.1551089' lon='150.639319' />
  <node id='4122088631' action='modify' timestamp='2016-04-14T22:53:54Z' uid='2963768' user='Mar Mar' visible='true' version='1' changeset='38573093' lat='-34.1551049' lon='150.6392891' />
  <node id='4122088632' action='modify' timestamp='2016-04-14T22:53:54Z' uid='2963768' user='Mar Mar' visible='true' version='1' changeset='38573093' lat='-34.1550311' lon='150.6393037' />
  <node id='4122088633' action='modify' timestamp='2016-04-14T22:53:54Z' uid='2963768' user='Mar Mar' visible='true' version='1' changeset='38573093' lat='-34.1550281' lon='150.6393473' />
  <node id='4122088634' action='modify' timestamp='2016-04-14T22:53:54Z' uid='2963768' user='Mar Mar' visible='true' version='1' changeset='38573093' lat='-34.1543801' lon='150.6388244' />
  <node id='4122088635' action='modify' timestamp='2016-04-14T22:53:54Z' uid='2963768' user='Mar Mar' visible='true' version='1' changeset='38573093' lat='-34.1544727' lon='150.6388268' />
  <node id='4122088636' action='modify' timestamp='2016-04-14T22:53:54Z' uid='2963768' user='Mar Mar' visible='true' version='1' changeset='38573093' lat='-34.1544702' lon='150.6389715' />
  <node id='4122088637' action='modify' timestamp='2016-04-14T22:53:54Z' uid='2963768' user='Mar Mar' visible='true' version='1' changeset='38573093' lat='-34.1543776' lon='150.6389691' />
  <way id='48847593' action='modify' timestamp='2015-11-23T19:10:52Z' uid='533465' user='GerdP' visible='true' version='2' changeset='35536738'>
    <nd ref='619733844' />
    <nd ref='619733845' />
    <nd ref='619733860' />
    <nd ref='619733861' />
    <nd ref='619733862' />
    <nd ref='619733846' />
    <nd ref='619733844' />
    <tag k='addr:housenumber' v='240' />
    <tag k='addr:street' v='Picton Road' />
    <tag k='building' v='yes' />
    <tag k='source' v='nearmap' />
  </way>
  <way id='410368556' action='modify' timestamp='2016-04-14T22:19:52Z' uid='2963768' user='Mar Mar' visible='true' version='1' changeset='38572088'>
    <nd ref='4122038053' />
    <nd ref='4122038054' />
    <nd ref='4122038055' />
    <nd ref='4122038056' />
    <nd ref='4122038057' />
    <nd ref='4122038058' />
    <nd ref='4122038059' />
    <nd ref='4122038060' />
    <nd ref='4122038053' />
    <tag k='addr:housenumber' v='115' />
    <tag k='addr:street' v='Mount View Close' />
    <tag k='building' v='house' />
  </way>
  <way id='410369896' action='modify' timestamp='2016-04-14T22:28:53Z' uid='2963768' user='Mar Mar' visible='true' version='1' changeset='38572379'>
    <nd ref='4122049388' />
    <nd ref='4122049389' />
    <nd ref='4122049390' />
    <nd ref='4122049391' />
    <nd ref='4122049392' />
    <nd ref='4122049393' />
    <nd ref='4122049388' />
    <tag k='addr:housenumber' v='130' />
    <tag k='addr:street' v='Mount View Close' />
    <tag k='building' v='yes' />
  </way>
  <way id='410369901' action='modify' timestamp='2016-04-14T22:28:54Z' uid='2963768' user='Mar Mar' visible='true' version='1' changeset='38572379'>
    <nd ref='4122049402' />
    <nd ref='4122049403' />
    <nd ref='4122049404' />
    <nd ref='4122049405' />
    <nd ref='4122049402' />
    <tag k='addr:housenumber' v='110' />
    <tag k='addr:street' v='Mount View Close' />
    <tag k='building' v='yes' />
  </way>
  <way id='410372611' action='modify' timestamp='2018-11-23T11:22:02Z' uid='7404838' user='DareDJ' visible='true' version='2' changeset='64816982'>
    <nd ref='4122084194' />
    <nd ref='4122084195' />
    <nd ref='4122084200' />
    <nd ref='4122084196' />
    <nd ref='4122084197' />
    <nd ref='4122084194' />
    <tag k='addr:housenumber' v='95' />
    <tag k='addr:street' v='Mount View Close' />
    <tag k='building' v='house' />
    <tag k='source:geometry' v='LPI NSW Imagery' />
  </way>
  <way id='410372614' action='modify' timestamp='2016-04-14T22:49:47Z' uid='2963768' user='Mar Mar' visible='true' version='1' changeset='38573009'>
    <nd ref='4122084209' />
    <nd ref='4122084210' />
    <nd ref='4122084211' />
    <nd ref='4122084212' />
    <nd ref='4122084213' />
    <nd ref='4122084214' />
    <nd ref='4122084215' />
    <nd ref='4122084216' />
    <nd ref='4122084217' />
    <nd ref='4122084218' />
    <nd ref='4122084209' />
    <tag k='addr:housenumber' v='1' />
    <tag k='addr:street' v='Westminster Place' />
    <tag k='building' v='house' />
  </way>
  <way id='410372617' action='modify' timestamp='2016-04-14T22:49:48Z' uid='2963768' user='Mar Mar' visible='true' version='1' changeset='38573009'>
    <nd ref='4122084229' />
    <nd ref='4122084230' />
    <nd ref='4122084231' />
    <nd ref='4122084232' />
    <nd ref='4122084229' />
    <tag k='addr:housenumber' v='2' />
    <tag k='addr:street' v='Westminster Place' />
    <tag k='building' v='house' />
  </way>
  <way id='410372618' action='modify' timestamp='2016-04-14T22:49:48Z' uid='2963768' user='Mar Mar' visible='true' version='1' changeset='38573009'>
    <nd ref='4122084233' />
    <nd ref='4122084234' />
    <nd ref='4122084235' />
    <nd ref='4122084236' />
    <nd ref='4122084237' />
    <nd ref='4122084238' />
    <nd ref='4122084239' />
    <nd ref='4122084240' />
    <nd ref='4122084241' />
    <nd ref='4122084242' />
    <nd ref='4122084233' />
    <tag k='addr:housenumber' v='3' />
    <tag k='addr:street' v='Westminster Place' />
    <tag k='building' v='house' />
  </way>
  <way id='410372619' action='modify' timestamp='2016-04-14T22:51:02Z' uid='2963768' user='Mar Mar' visible='true' version='2' changeset='38573043'>
    <nd ref='4122084243' />
    <nd ref='4122084244' />
    <nd ref='4122084245' />
    <nd ref='4122084246' />
    <nd ref='4122084247' />
    <nd ref='4122084248' />
    <nd ref='4122084243' />
    <tag k='addr:housenumber' v='4' />
    <tag k='addr:street' v='Westminster Place' />
    <tag k='building' v='house' />
  </way>
  <way id='410372635' action='modify' timestamp='2016-04-14T22:51:02Z' uid='2963768' user='Mar Mar' visible='true' version='1' changeset='38573043'>
    <nd ref='4122084129' />
    <nd ref='4122084130' />
    <nd ref='4122084131' />
    <nd ref='4122084132' />
    <nd ref='4122084133' />
    <nd ref='4122084134' />
    <nd ref='4122084135' />
    <nd ref='4122084136' />
    <nd ref='4122084129' />
    <tag k='addr:housenumber' v='5' />
    <tag k='addr:street' v='Westminster Place' />
    <tag k='building' v='house' />
  </way>
  <way id='410373102' action='modify' timestamp='2016-04-14T22:53:54Z' uid='2963768' user='Mar Mar' visible='true' version='1' changeset='38573093'>
    <nd ref='4122088607' />
    <nd ref='4122088608' />
    <nd ref='4122088609' />
    <nd ref='4122088610' />
    <nd ref='4122088611' />
    <nd ref='4122088612' />
    <nd ref='4122088613' />
    <nd ref='4122088614' />
    <nd ref='4122088615' />
    <nd ref='4122088616' />
    <nd ref='4122088617' />
    <nd ref='4122088618' />
    <nd ref='4122088619' />
    <nd ref='4122088620' />
    <nd ref='4122088621' />
    <nd ref='4122088622' />
    <nd ref='4122088623' />
    <nd ref='4122088607' />
    <tag k='addr:housenumber' v='9' />
    <tag k='addr:street' v='Westminster Place' />
    <tag k='building' v='house' />
  </way>
  <way id='410373103' action='modify' timestamp='2016-04-14T22:53:54Z' uid='2963768' user='Mar Mar' visible='true' version='1' changeset='38573093'>
    <nd ref='4122088624' />
    <nd ref='4122088625' />
    <nd ref='4122088626' />
    <nd ref='4122088627' />
    <nd ref='4122088628' />
    <nd ref='4122088629' />
    <nd ref='4122088630' />
    <nd ref='4122088631' />
    <nd ref='4122088632' />
    <nd ref='4122088633' />
    <nd ref='4122088624' />
    <tag k='addr:housenumber' v='8' />
    <tag k='addr:street' v='Westminster Place' />
    <tag k='building' v='yes' />
  </way>
  <way id='410373105' action='modify' timestamp='2016-04-14T22:53:54Z' uid='2963768' user='Mar Mar' visible='true' version='1' changeset='38573093'>
    <nd ref='4122088634' />
    <nd ref='4122088635' />
    <nd ref='4122088636' />
    <nd ref='4122088637' />
    <nd ref='4122088634' />
    <tag k='addr:housenumber' v='6' />
    <tag k='addr:street' v='Westminster Place' />
    <tag k='building' v='yes' />
  </way>
</osm>
