<?xml version='1.0' encoding='UTF-8'?>
<osm version='0.6' generator='JOSM'>
  <node id='-471596' visible='true' lat='-34.11901010877' lon='150.21923792313'>
    <tag k='addr:housenumber' v='23' />
    <tag k='addr:street' v='Mervyn Street' />
  </node>
  <node id='-471598' visible='true' lat='-34.1190275779' lon='150.21878285551'>
    <tag k='addr:housenumber' v='11-17' />
    <tag k='addr:street' v='Mervyn Street' />
  </node>
  <node id='-471600' visible='true' lat='-34.11273104319' lon='150.22442844667'>
    <tag k='addr:housenumber' v='14' />
    <tag k='addr:street' v='Thompson Street' />
  </node>
  <node id='-471602' visible='true' lat='-34.11863415583' lon='150.21904319109'>
    <tag k='addr:housenumber' v='19' />
    <tag k='addr:street' v='Kerry Street' />
  </node>
  <node id='-471604' visible='true' lat='-34.11901618668' lon='150.21907957222'>
    <tag k='addr:housenumber' v='19-21' />
    <tag k='addr:street' v='Mervyn Street' />
  </node>
  <node id='-471606' visible='true' lat='-34.11877776278' lon='150.21998789071'>
    <tag k='addr:housenumber' v='20' />
    <tag k='addr:street' v='Alan Street' />
  </node>
  <node id='-471608' visible='true' lat='-34.11988681646' lon='150.22007541971'>
    <tag k='addr:housenumber' v='6' />
    <tag k='addr:street' v='Edye Street' />
  </node>
  <node id='-471610' visible='true' lat='-34.11904916907' lon='150.21848075673'>
    <tag k='addr:housenumber' v='7-9' />
    <tag k='addr:street' v='Mervyn Street' />
  </node>
  <node id='-471612' visible='true' lat='-34.11953620827' lon='150.21848301494'>
    <tag k='addr:housenumber' v='8-12' />
    <tag k='addr:street' v='Mervyn Street' />
  </node>
  <node id='-471614' visible='true' lat='-34.11899471296' lon='150.21969287188'>
    <tag k='addr:housenumber' v='25' />
    <tag k='addr:street' v='Mervyn Street' />
  </node>
  <node id='-471616' visible='true' lat='-34.11907557129' lon='150.21786274903'>
    <tag k='addr:housenumber' v='1-5' />
    <tag k='addr:street' v='Mervyn Street' />
  </node>
</osm>
