<?xml version='1.0' encoding='UTF-8'?>
<osm version='0.6' generator='JOSM'>
  <node id='-434728' lat='-33.89171911236' lon='151.05340942518'>
    <tag k='addr:housenumber' v='12' />
    <tag k='addr:street' v='Hume Highway' />
  </node>
  <node id='-434730' lat='-33.89227046942' lon='151.0469676453'>
    <tag k='addr:housenumber' v='12' />
    <tag k='addr:street' v='Muir Road' />
  </node>
  <node id='-434732' lat='-33.89887699006' lon='151.03811204665'>
    <tag k='addr:housenumber' v='16' />
    <tag k='addr:street' v='Brunker Road' />
  </node>
  <node id='-434734' lat='-33.89004087777' lon='151.0411761614'>
    <tag k='addr:housenumber' v='201A' />
    <tag k='addr:street' v='Rookwood Road' />
  </node>
  <node id='-434736' lat='-33.89061128523' lon='151.04930019716'>
    <tag k='addr:housenumber' v='20' />
    <tag k='addr:street' v='Worth Street' />
  </node>
  <node id='-434738' lat='-33.89149893494' lon='151.04020738846'>
    <tag k='addr:housenumber' v='30' />
    <tag k='addr:street' v='Muir Road' />
  </node>
  <node id='-434740' lat='-33.89721816743' lon='151.04720336975'>
    <tag k='addr:housenumber' v='62' />
    <tag k='addr:street' v='Hume Highway' />
  </node>
  <node id='-434742' lat='-33.8963002612' lon='151.04310648602'>
    <tag k='addr:housenumber' v='75' />
    <tag k='addr:street' v='Anzac Street' />
  </node>
  <node id='-434744' lat='-33.89584276345' lon='151.04673244557'>
    <tag k='addr:housenumber' v='66A' />
    <tag k='addr:street' v='Anzac Street' />
  </node>
  <node id='-434746' lat='-33.89639866489' lon='151.0454127159'>
    <tag k='addr:housenumber' v='66' />
    <tag k='addr:street' v='Anzac Street' />
  </node>
  <node id='-434748' lat='-33.89239938557' lon='151.0509640958'>
    <tag k='addr:housenumber' v='21' />
    <tag k='addr:street' v='Worth Street' />
  </node>
  <node id='-434750' lat='-33.9002199892' lon='151.0448569336'>
    <tag k='addr:housenumber' v='2B' />
    <tag k='addr:street' v='Brunker Road' />
  </node>
  <node id='-434752' lat='-33.88823464307' lon='151.04107679151'>
    <tag k='addr:housenumber' v='223' />
    <tag k='addr:street' v='Rookwood Road' />
  </node>
  <node id='-434754' lat='-33.89925255191' lon='151.0466636297'>
    <tag k='addr:housenumber' v='110' />
    <tag k='addr:street' v='Hume Highway' />
  </node>
  <node id='-434756' lat='-33.89037584366' lon='151.0468618349'>
    <tag k='addr:housenumber' v='16' />
    <tag k='addr:street' v='Muir Road' />
  </node>
  <node id='-434758' lat='-33.89717901261' lon='151.04104926823'>
    <tag k='addr:housenumber' v='71' />
    <tag k='addr:street' v='Anzac Street' />
  </node>
  <node id='-434760' lat='-33.88860562899' lon='151.04653109616'>
    <tag k='addr:housenumber' v='20' />
    <tag k='addr:street' v='Dasea Street' />
  </node>
  <node id='-434762' lat='-33.89591131711' lon='151.04525590388'>
    <tag k='addr:housenumber' v='68' />
    <tag k='addr:street' v='Anzac Street' />
  </node>
  <node id='-434764' lat='-33.89681403788' lon='151.04141982719'>
    <tag k='addr:housenumber' v='73' />
    <tag k='addr:street' v='Anzac Street' />
  </node>
  <node id='-434766' lat='-33.90000511084' lon='151.04453676371'>
    <tag k='addr:housenumber' v='2A' />
    <tag k='addr:street' v='Brunker Road' />
  </node>
  <node id='-434768' lat='-33.90035711542' lon='151.04507203047'>
    <tag k='addr:housenumber' v='2C' />
    <tag k='addr:street' v='Brunker Road' />
  </node>
  <node id='-434770' lat='-33.89451133115' lon='151.04947603958'>
    <tag k='addr:housenumber' v='26' />
    <tag k='addr:street' v='Hume Highway' />
  </node>
  <node id='-434772' lat='-33.89404024094' lon='151.03995191125'>
    <tag k='addr:housenumber' v='23' />
    <tag k='addr:street' v='Muir Road' />
  </node>
  <node id='-434774' lat='-33.89798573418' lon='151.03972228502'>
    <tag k='addr:housenumber' v='10' />
    <tag k='addr:street' v='Brunker Road' />
  </node>
  <node id='-434776' lat='-33.89892698968' lon='151.03850291423'>
    <tag k='addr:housenumber' v='12' />
    <tag k='addr:street' v='Brunker Road' />
  </node>
  <node id='-434778' lat='-33.89886032287' lon='151.03798175868'>
    <tag k='addr:housenumber' v='18' />
    <tag k='addr:street' v='Brunker Road' />
  </node>
  <node id='-434780' lat='-33.89440426987' lon='151.03947829439'>
    <tag k='addr:housenumber' v='25' />
    <tag k='addr:street' v='Muir Road' />
  </node>
  <node id='-434782' lat='-33.89860179077' lon='151.04197062874'>
    <tag k='addr:housenumber' v='6' />
    <tag k='addr:street' v='Brunker Road' />
  </node>
  <node id='-434784' lat='-33.89023370724' lon='151.03947471199'>
    <tag k='addr:housenumber' v='189' />
    <tag k='addr:street' v='Rookwood Road' />
  </node>
  <node id='-434786' lat='-33.8902164544' lon='151.05549477839'>
    <tag k='addr:housenumber' v='1' />
    <tag k='addr:street' v='Worth Street' />
  </node>
  <node id='-434788' lat='-33.88820573505' lon='151.04259622409'>
    <tag k='addr:housenumber' v='225' />
    <tag k='addr:street' v='Rookwood Road' />
  </node>
  <node id='-434790' lat='-33.89445966213' lon='151.04539272021'>
    <tag k='addr:housenumber' v='9' />
    <tag k='addr:street' v='Muir Road' />
  </node>
  <node id='-434792' lat='-33.89070222505' lon='151.03998527285'>
    <tag k='addr:housenumber' v='201' />
    <tag k='addr:street' v='Rookwood Road' />
  </node>
  <node id='-434806' lat='-33.89955694896' lon='151.04232520329'>
    <tag k='addr:housenumber' v='61A' />
    <tag k='addr:street' v='Anzac Street' />
  </node>
  <node id='-434808' lat='-33.89409953272' lon='151.05207831766'>
    <tag k='addr:housenumber' v='18' />
    <tag k='addr:street' v='Hume Highway' />
  </node>
  <node id='-434810' lat='-33.89890198739' lon='151.03830747734'>
    <tag k='addr:housenumber' v='14' />
    <tag k='addr:street' v='Brunker Road' />
  </node>
  <node id='-434812' lat='-33.88963792646' lon='151.05124529693'>
    <tag k='addr:housenumber' v='18' />
    <tag k='addr:street' v='Worth Street' />
  </node>
  <node id='-434814' lat='-33.88867106523' lon='151.05333274322'>
    <tag k='addr:housenumber' v='14' />
    <tag k='addr:street' v='Worth Street' />
  </node>
  <node id='-434816' lat='-33.88878259476' lon='151.04992242689'>
    <tag k='addr:housenumber' v='10' />
    <tag k='addr:street' v='Worth Street' />
  </node>
  <node id='-434818' lat='-33.89094330633' lon='151.05754553472'>
    <tag k='addr:housenumber' v='204' />
    <tag k='addr:street' v='Hume Highway' />
  </node>
  <node id='-434820' lat='-33.89126468226' lon='151.04403145649'>
    <tag k='addr:housenumber' v='24' />
    <tag k='addr:street' v='Muir Road' />
  </node>
  <node id='-434822' lat='-33.89148341132' lon='151.04200462285'>
    <tag k='addr:housenumber' v='26' />
    <tag k='addr:street' v='Muir Road' />
  </node>
  <node id='-434824' lat='-33.89478922048' lon='151.04152610856'>
    <tag k='addr:housenumber' v='21' />
    <tag k='addr:street' v='Muir Road' />
  </node>
  <node id='-434844' lat='-33.89825890764' lon='151.04565029431'>
    <tag k='addr:housenumber' v='118' />
    <tag k='addr:street' v='Hume Highway' />
  </node>
  <node id='-434846' lat='-33.89935885176' lon='151.04506241251'>
    <tag k='addr:housenumber' v='120' />
    <tag k='addr:street' v='Hume Highway' />
  </node>
  <node id='-434848' lat='-33.89782330403' lon='151.0444774781'>
    <tag k='addr:housenumber' v='56' />
    <tag k='addr:street' v='Anzac Street' />
  </node>
  <node id='-434850' action='modify' lat='-33.89337075481' lon='151.04266137732'>
    <tag k='addr:housenumber' v='15' />
    <tag k='addr:street' v='Muir Road' />
  </node>
  <node id='-434852' action='modify' lat='-33.89337075481' lon='151.04270466562'>
    <tag k='addr:housenumber' v='19' />
    <tag k='addr:street' v='Muir Road' />
  </node>
</osm>
