<?xml version='1.0' encoding='UTF-8'?>
<osm version='0.6' generator='JOSM'>
  <node id='-216604' action='modify' visible='true' lat='-34.43778989959' lon='150.47410397224'>
    <tag k='addr:housenumber' v='7' />
    <tag k='addr:street' v='Beresford Street' />
  </node>
  <node id='-216605' action='modify' visible='true' lat='-34.43778989959' lon='150.47410397224'>
    <tag k='addr:housenumber' v='1/7' />
    <tag k='addr:street' v='Beresford Street' />
  </node>
  <node id='-216606' action='modify' visible='true' lat='-34.43778989959' lon='150.47410397224'>
    <tag k='addr:housenumber' v='3/7' />
    <tag k='addr:street' v='Beresford Street' />
  </node>
  <node id='-216607' action='modify' visible='true' lat='-34.43778989959' lon='150.47410397224'>
    <tag k='addr:housenumber' v='2/7' />
    <tag k='addr:street' v='Beresford Street' />
  </node>
</osm>
