<?xml version='1.0' encoding='UTF-8'?>
<osm version='0.6' generator='JOSM'>
  <node id='-546425' action='modify' visible='true' lat='-34.48915997003' lon='150.3298232554'>
    <tag k='addr:housenumber' v='41' />
    <tag k='addr:street' v='Sutton Street' />
  </node>
  <node id='-546426' action='modify' visible='true' lat='-34.48915997003' lon='150.3298232554'>
    <tag k='addr:housenumber' v='37' />
    <tag k='addr:street' v='Sutton Street' />
  </node>
  <node id='-546427' action='modify' visible='true' lat='-34.48915997003' lon='150.3298232554'>
    <tag k='addr:housenumber' v='35' />
    <tag k='addr:street' v='Sutton Street' />
  </node>
  <node id='-546428' action='modify' visible='true' lat='-34.48771302671' lon='150.33784699032'>
    <tag k='addr:housenumber' v='116' />
    <tag k='addr:street' v='Wingecarribee Street' />
  </node>
  <node id='-546429' action='modify' visible='true' lat='-34.48915997003' lon='150.3298232554'>
    <tag k='addr:housenumber' v='27' />
    <tag k='addr:street' v='Sutton Street' />
  </node>
  <node id='-546430' action='modify' visible='true' lat='-34.48716691567' lon='150.33805247733'>
    <tag k='addr:housenumber' v='1/9' />
    <tag k='addr:street' v='Old Hume Highway' />
  </node>
  <node id='-546431' action='modify' visible='true' lat='-34.48915997003' lon='150.3298232554'>
    <tag k='addr:housenumber' v='23' />
    <tag k='addr:street' v='Sutton Street' />
  </node>
  <node id='-546432' action='modify' visible='true' lat='-34.48716691567' lon='150.33805247733'>
    <tag k='addr:housenumber' v='2/9' />
    <tag k='addr:street' v='Old Hume Highway' />
  </node>
  <node id='-546433' action='modify' visible='true' lat='-34.48915997003' lon='150.3298232554'>
    <tag k='addr:housenumber' v='25' />
    <tag k='addr:street' v='Sutton Street' />
  </node>
  <node id='-546434' action='modify' visible='true' lat='-34.48716691567' lon='150.33805247733'>
    <tag k='addr:housenumber' v='3/9' />
    <tag k='addr:street' v='Old Hume Highway' />
  </node>
  <node id='-546435' action='modify' visible='true' lat='-34.48915997003' lon='150.3298232554'>
    <tag k='addr:housenumber' v='29' />
    <tag k='addr:street' v='Sutton Street' />
  </node>
  <node id='-546436' action='modify' visible='true' lat='-34.48915997003' lon='150.3298232554'>
    <tag k='addr:housenumber' v='31' />
    <tag k='addr:street' v='Sutton Street' />
  </node>
  <node id='-546437' action='modify' visible='true' lat='-34.48771302671' lon='150.33784699032'>
    <tag k='addr:housenumber' v='1/116' />
    <tag k='addr:street' v='Wingecarribee Street' />
  </node>
  <node id='-546438' action='modify' visible='true' lat='-34.48915997003' lon='150.3298232554'>
    <tag k='addr:housenumber' v='33' />
    <tag k='addr:street' v='Sutton Street' />
  </node>
  <node id='-546439' action='modify' visible='true' lat='-34.48771302671' lon='150.33784699032'>
    <tag k='addr:housenumber' v='2/116' />
    <tag k='addr:street' v='Wingecarribee Street' />
  </node>
  <node id='-546440' action='modify' visible='true' lat='-34.48915997003' lon='150.3298232554'>
    <tag k='addr:housenumber' v='39' />
    <tag k='addr:street' v='Sutton Street' />
  </node>
  <node id='-546441' action='modify' visible='true' lat='-34.48771302671' lon='150.33784699032'>
    <tag k='addr:housenumber' v='3/116' />
    <tag k='addr:street' v='Wingecarribee Street' />
  </node>
  <node id='-546442' action='modify' visible='true' lat='-34.48915997003' lon='150.3298232554'>
    <tag k='addr:housenumber' v='21-41' />
    <tag k='addr:street' v='Sutton Street' />
  </node>
  <node id='-546443' action='modify' visible='true' lat='-34.48955283384' lon='150.33537810082'>
    <tag k='addr:housenumber' v='4/17-19' />
    <tag k='addr:street' v='Old Hume Highway' />
  </node>
  <node id='-546444' action='modify' visible='true' lat='-34.48955283384' lon='150.33537810082'>
    <tag k='addr:housenumber' v='3/17-19' />
    <tag k='addr:street' v='Old Hume Highway' />
  </node>
  <node id='-546445' action='modify' visible='true' lat='-34.48955283384' lon='150.33537810082'>
    <tag k='addr:housenumber' v='2/17-19' />
    <tag k='addr:street' v='Old Hume Highway' />
  </node>
  <node id='-546446' action='modify' visible='true' lat='-34.48955283384' lon='150.33537810082'>
    <tag k='addr:housenumber' v='1/17-19' />
    <tag k='addr:street' v='Old Hume Highway' />
  </node>
  <node id='-546447' action='modify' visible='true' lat='-34.48716691567' lon='150.33805247733'>
    <tag k='addr:housenumber' v='9' />
    <tag k='addr:street' v='Old Hume Highway' />
  </node>
  <node id='-546448' action='modify' visible='true' lat='-34.48915997003' lon='150.3298232554'>
    <tag k='addr:housenumber' v='21' />
    <tag k='addr:street' v='Sutton Street' />
  </node>
  <node id='-546449' action='modify' visible='true' lat='-34.48955283384' lon='150.33537810082'>
    <tag k='addr:housenumber' v='30' />
    <tag k='addr:street' v='Old Hume Highway' />
  </node>
</osm>
