<?xml version='1.0' encoding='UTF-8'?>
<osm version='0.6' generator='JOSM'>
  <node id='-517126' action='modify' lat='-33.89268322477' lon='151.10021335516'>
    <tag k='addr:housenumber' v='4/93-95' />
    <tag k='addr:street' v='Burwood Road' />
  </node>
  <node id='-517127' action='modify' lat='-33.89268322477' lon='151.10021335516'>
    <tag k='addr:housenumber' v='93-95' />
    <tag k='addr:street' v='Burwood Road' />
  </node>
  <node id='-517128' action='modify' lat='-33.89268322477' lon='151.10021335516'>
    <tag k='addr:housenumber' v='10/93-95' />
    <tag k='addr:street' v='Burwood Road' />
  </node>
  <node id='-517129' action='modify' lat='-33.89268322477' lon='151.10021335516'>
    <tag k='addr:housenumber' v='3/93-95' />
    <tag k='addr:street' v='Burwood Road' />
  </node>
  <node id='-517130' action='modify' lat='-33.89268322477' lon='151.10021335516'>
    <tag k='addr:housenumber' v='6/93-95' />
    <tag k='addr:street' v='Burwood Road' />
  </node>
  <node id='-517131' action='modify' lat='-33.89268322477' lon='151.10021335516'>
    <tag k='addr:housenumber' v='5/93-95' />
    <tag k='addr:street' v='Burwood Road' />
  </node>
  <node id='-517132' action='modify' lat='-33.89268322477' lon='151.10021335516'>
    <tag k='addr:housenumber' v='11/93-95' />
    <tag k='addr:street' v='Burwood Road' />
  </node>
  <node id='-517133' action='modify' lat='-33.89268322477' lon='151.10021335516'>
    <tag k='addr:housenumber' v='9/93-95' />
    <tag k='addr:street' v='Burwood Road' />
  </node>
  <node id='-517134' action='modify' lat='-33.89268322477' lon='151.10021335516'>
    <tag k='addr:housenumber' v='7/93-95' />
    <tag k='addr:street' v='Burwood Road' />
  </node>
  <node id='-517135' action='modify' lat='-33.89268322477' lon='151.10021335516'>
    <tag k='addr:housenumber' v='2/93-95' />
    <tag k='addr:street' v='Burwood Road' />
  </node>
  <node id='-517136' action='modify' lat='-33.89268322477' lon='151.10021335516'>
    <tag k='addr:housenumber' v='1/93-95' />
    <tag k='addr:street' v='Burwood Road' />
  </node>
  <node id='-517137' action='modify' lat='-33.89268322477' lon='151.10021335516'>
    <tag k='addr:housenumber' v='8/93-95' />
    <tag k='addr:street' v='Burwood Road' />
  </node>
  <node id='-517138' action='modify' lat='-33.88606692269' lon='151.09507138743'>
    <tag k='addr:housenumber' v='2/258' />
    <tag k='addr:street' v='Liverpool Road' />
  </node>
  <node id='-517139' action='modify' lat='-33.88606692269' lon='151.09507138743'>
    <tag k='addr:housenumber' v='3/258' />
    <tag k='addr:street' v='Liverpool Road' />
  </node>
  <node id='-517140' action='modify' lat='-33.88606692269' lon='151.09507138743'>
    <tag k='addr:housenumber' v='258' />
    <tag k='addr:street' v='Liverpool Road' />
  </node>
  <node id='-517141' action='modify' lat='-33.8892148999' lon='151.10018412054'>
    <tag k='addr:housenumber' v='20' />
    <tag k='addr:street' v='Baker Street' />
  </node>
  <node id='-517142' action='modify' lat='-33.88606692269' lon='151.09507138743'>
    <tag k='addr:housenumber' v='1/258' />
    <tag k='addr:street' v='Liverpool Road' />
  </node>
  <node id='-517143' action='modify' lat='-33.8892148999' lon='151.10018412054'>
    <tag k='addr:housenumber' v='3/20' />
    <tag k='addr:street' v='Baker Street' />
  </node>
  <node id='-517144' action='modify' lat='-33.8892148999' lon='151.10018412054'>
    <tag k='addr:housenumber' v='2/20' />
    <tag k='addr:street' v='Baker Street' />
  </node>
  <node id='-517145' action='modify' lat='-33.8892148999' lon='151.10018412054'>
    <tag k='addr:housenumber' v='1/20' />
    <tag k='addr:street' v='Baker Street' />
  </node>
  <node id='-517146' action='modify' lat='-33.88601037361' lon='151.09378645768'>
    <tag k='addr:housenumber' v='14/276-280' />
    <tag k='addr:street' v='Liverpool Road' />
  </node>
  <node id='-517147' action='modify' lat='-33.88655311218' lon='151.09324788219'>
    <tag k='addr:housenumber' v='8E/292-294' />
    <tag k='addr:street' v='Liverpool Road' />
  </node>
  <node id='-517148' action='modify' lat='-33.88601037361' lon='151.09378645768'>
    <tag k='addr:housenumber' v='4/276-280' />
    <tag k='addr:street' v='Liverpool Road' />
  </node>
  <node id='-517149' action='modify' lat='-33.88655311218' lon='151.09324788219'>
    <tag k='addr:housenumber' v='292-294' />
    <tag k='addr:street' v='Liverpool Road' />
  </node>
  <node id='-517150' action='modify' lat='-33.88601037361' lon='151.09378645768'>
    <tag k='addr:housenumber' v='2/276-280' />
    <tag k='addr:street' v='Liverpool Road' />
  </node>
  <node id='-517151' action='modify' lat='-33.88601037361' lon='151.09378645768'>
    <tag k='addr:housenumber' v='18/276' />
    <tag k='addr:street' v='Liverpool Road' />
  </node>
  <node id='-517152' action='modify' lat='-33.88655311218' lon='151.09324788219'>
    <tag k='addr:housenumber' v='8A/292-294' />
    <tag k='addr:street' v='Liverpool Road' />
  </node>
  <node id='-517153' action='modify' lat='-33.88601037361' lon='151.09378645768'>
    <tag k='addr:housenumber' v='16/276-280' />
    <tag k='addr:street' v='Liverpool Road' />
  </node>
  <node id='-517154' action='modify' lat='-33.88655311218' lon='151.09324788219'>
    <tag k='addr:housenumber' v='8B/292-294' />
    <tag k='addr:street' v='Liverpool Road' />
  </node>
  <node id='-517155' action='modify' lat='-33.88601037361' lon='151.09378645768'>
    <tag k='addr:housenumber' v='10/276-280' />
    <tag k='addr:street' v='Liverpool Road' />
  </node>
  <node id='-517156' action='modify' lat='-33.88655311218' lon='151.09324788219'>
    <tag k='addr:housenumber' v='8C/292-294' />
    <tag k='addr:street' v='Liverpool Road' />
  </node>
  <node id='-517157' action='modify' lat='-33.88601037361' lon='151.09378645768'>
    <tag k='addr:housenumber' v='5/276-280' />
    <tag k='addr:street' v='Liverpool Road' />
  </node>
  <node id='-517158' action='modify' lat='-33.88655311218' lon='151.09324788219'>
    <tag k='addr:housenumber' v='8D/292-294' />
    <tag k='addr:street' v='Liverpool Road' />
  </node>
  <node id='-517159' action='modify' lat='-33.88601037361' lon='151.09378645768'>
    <tag k='addr:housenumber' v='1/276-280' />
    <tag k='addr:street' v='Liverpool Road' />
  </node>
  <node id='-517160' action='modify' lat='-33.88655311218' lon='151.09324788219'>
    <tag k='addr:housenumber' v='7B/292-294' />
    <tag k='addr:street' v='Liverpool Road' />
  </node>
  <node id='-517161' action='modify' lat='-33.88601037361' lon='151.09378645768'>
    <tag k='addr:housenumber' v='20/276-280' />
    <tag k='addr:street' v='Liverpool Road' />
  </node>
  <node id='-517162' action='modify' lat='-33.88655311218' lon='151.09324788219'>
    <tag k='addr:housenumber' v='7C/292-294' />
    <tag k='addr:street' v='Liverpool Road' />
  </node>
  <node id='-517163' action='modify' lat='-33.88601037361' lon='151.09378645768'>
    <tag k='addr:housenumber' v='12/276-280' />
    <tag k='addr:street' v='Liverpool Road' />
  </node>
  <node id='-517164' action='modify' lat='-33.88655311218' lon='151.09324788219'>
    <tag k='addr:housenumber' v='7D/292-294' />
    <tag k='addr:street' v='Liverpool Road' />
  </node>
  <node id='-517165' action='modify' lat='-33.88655311218' lon='151.09324788219'>
    <tag k='addr:housenumber' v='7E/292-294' />
    <tag k='addr:street' v='Liverpool Road' />
  </node>
  <node id='-517166' action='modify' lat='-33.88601037361' lon='151.09378645768'>
    <tag k='addr:housenumber' v='6/276-280' />
    <tag k='addr:street' v='Liverpool Road' />
  </node>
  <node id='-517167' action='modify' lat='-33.88655311218' lon='151.09324788219'>
    <tag k='addr:housenumber' v='6C/292-294' />
    <tag k='addr:street' v='Liverpool Road' />
  </node>
  <node id='-517168' action='modify' lat='-33.88601037361' lon='151.09378645768'>
    <tag k='addr:housenumber' v='7/276-280' />
    <tag k='addr:street' v='Liverpool Road' />
  </node>
  <node id='-517169' action='modify' lat='-33.88655311218' lon='151.09324788219'>
    <tag k='addr:housenumber' v='6D/292-294' />
    <tag k='addr:street' v='Liverpool Road' />
  </node>
  <node id='-517170' action='modify' lat='-33.88601037361' lon='151.09378645768'>
    <tag k='addr:housenumber' v='13/276-280' />
    <tag k='addr:street' v='Liverpool Road' />
  </node>
  <node id='-517171' action='modify' lat='-33.88655311218' lon='151.09324788219'>
    <tag k='addr:housenumber' v='6E/292-294' />
    <tag k='addr:street' v='Liverpool Road' />
  </node>
  <node id='-517172' action='modify' lat='-33.88601037361' lon='151.09378645768'>
    <tag k='addr:housenumber' v='3/276-280' />
    <tag k='addr:street' v='Liverpool Road' />
  </node>
  <node id='-517173' action='modify' lat='-33.88655311218' lon='151.09324788219'>
    <tag k='addr:housenumber' v='7A/292-294' />
    <tag k='addr:street' v='Liverpool Road' />
  </node>
  <node id='-517174' action='modify' lat='-33.88601037361' lon='151.09378645768'>
    <tag k='addr:housenumber' v='19/276-280' />
    <tag k='addr:street' v='Liverpool Road' />
  </node>
  <node id='-517175' action='modify' lat='-33.88655311218' lon='151.09324788219'>
    <tag k='addr:housenumber' v='5D/292-294' />
    <tag k='addr:street' v='Liverpool Road' />
  </node>
  <node id='-517176' action='modify' lat='-33.88655311218' lon='151.09324788219'>
    <tag k='addr:housenumber' v='5E/292-294' />
    <tag k='addr:street' v='Liverpool Road' />
  </node>
  <node id='-517177' action='modify' lat='-33.88601037361' lon='151.09378645768'>
    <tag k='addr:housenumber' v='9/276-280' />
    <tag k='addr:street' v='Liverpool Road' />
  </node>
  <node id='-517178' action='modify' lat='-33.88655311218' lon='151.09324788219'>
    <tag k='addr:housenumber' v='6A/292-294' />
    <tag k='addr:street' v='Liverpool Road' />
  </node>
  <node id='-517179' action='modify' lat='-33.88601037361' lon='151.09378645768'>
    <tag k='addr:housenumber' v='8/276-280' />
    <tag k='addr:street' v='Liverpool Road' />
  </node>
  <node id='-517180' action='modify' lat='-33.88655311218' lon='151.09324788219'>
    <tag k='addr:housenumber' v='6B/292-294' />
    <tag k='addr:street' v='Liverpool Road' />
  </node>
  <node id='-517181' action='modify' lat='-33.88750683311' lon='151.09261695862'>
    <tag k='addr:housenumber' v='2/3A' />
    <tag k='addr:street' v='Byer Street' />
  </node>
  <node id='-517182' action='modify' lat='-33.88655311218' lon='151.09324788219'>
    <tag k='addr:housenumber' v='4E/292-294' />
    <tag k='addr:street' v='Liverpool Road' />
  </node>
  <node id='-517183' action='modify' lat='-33.88750683311' lon='151.09261695862'>
    <tag k='addr:housenumber' v='3A' />
    <tag k='addr:street' v='Byer Street' />
  </node>
  <node id='-517184' action='modify' lat='-33.88655311218' lon='151.09324788219'>
    <tag k='addr:housenumber' v='5A/292-294' />
    <tag k='addr:street' v='Liverpool Road' />
  </node>
  <node id='-517185' action='modify' lat='-33.88601037361' lon='151.09378645768'>
    <tag k='addr:housenumber' v='17/276-280' />
    <tag k='addr:street' v='Liverpool Road' />
  </node>
  <node id='-517186' action='modify' lat='-33.88655311218' lon='151.09324788219'>
    <tag k='addr:housenumber' v='5B/292-294' />
    <tag k='addr:street' v='Liverpool Road' />
  </node>
  <node id='-517187' action='modify' lat='-33.88601037361' lon='151.09378645768'>
    <tag k='addr:housenumber' v='276-280' />
    <tag k='addr:street' v='Liverpool Road' />
  </node>
  <node id='-517188' action='modify' lat='-33.88655311218' lon='151.09324788219'>
    <tag k='addr:housenumber' v='5C/292-294' />
    <tag k='addr:street' v='Liverpool Road' />
  </node>
  <node id='-517189' action='modify' lat='-33.88750683311' lon='151.09261695862'>
    <tag k='addr:housenumber' v='10/3A' />
    <tag k='addr:street' v='Byer Street' />
  </node>
  <node id='-517190' action='modify' lat='-33.88655311218' lon='151.09324788219'>
    <tag k='addr:housenumber' v='4A/292-294' />
    <tag k='addr:street' v='Liverpool Road' />
  </node>
  <node id='-517191' action='modify' lat='-33.88750683311' lon='151.09261695862'>
    <tag k='addr:housenumber' v='8/3A' />
    <tag k='addr:street' v='Byer Street' />
  </node>
  <node id='-517192' action='modify' lat='-33.88655311218' lon='151.09324788219'>
    <tag k='addr:housenumber' v='4B/292-294' />
    <tag k='addr:street' v='Liverpool Road' />
  </node>
  <node id='-517193' action='modify' lat='-33.88750683311' lon='151.09261695862'>
    <tag k='addr:housenumber' v='17/3A' />
    <tag k='addr:street' v='Byer Street' />
  </node>
  <node id='-517194' action='modify' lat='-33.88655311218' lon='151.09324788219'>
    <tag k='addr:housenumber' v='4C/292-294' />
    <tag k='addr:street' v='Liverpool Road' />
  </node>
  <node id='-517195' action='modify' lat='-33.88750683311' lon='151.09261695862'>
    <tag k='addr:housenumber' v='4/3A' />
    <tag k='addr:street' v='Byer Street' />
  </node>
  <node id='-517196' action='modify' lat='-33.88655311218' lon='151.09324788219'>
    <tag k='addr:housenumber' v='4D/292-294' />
    <tag k='addr:street' v='Liverpool Road' />
  </node>
  <node id='-517197' action='modify' lat='-33.88750683311' lon='151.09261695862'>
    <tag k='addr:housenumber' v='18/3A' />
    <tag k='addr:street' v='Byer Street' />
  </node>
  <node id='-517198' action='modify' lat='-33.88655311218' lon='151.09324788219'>
    <tag k='addr:housenumber' v='3B/292-294' />
    <tag k='addr:street' v='Liverpool Road' />
  </node>
  <node id='-517199' action='modify' lat='-33.88750683311' lon='151.09261695862'>
    <tag k='addr:housenumber' v='16/3A' />
    <tag k='addr:street' v='Byer Street' />
  </node>
  <node id='-517200' action='modify' lat='-33.88655311218' lon='151.09324788219'>
    <tag k='addr:housenumber' v='3C/292-294' />
    <tag k='addr:street' v='Liverpool Road' />
  </node>
  <node id='-517201' action='modify' lat='-33.88750683311' lon='151.09261695862'>
    <tag k='addr:housenumber' v='14/3A' />
    <tag k='addr:street' v='Byer Street' />
  </node>
  <node id='-517202' action='modify' lat='-33.88655311218' lon='151.09324788219'>
    <tag k='addr:housenumber' v='3D/292-294' />
    <tag k='addr:street' v='Liverpool Road' />
  </node>
  <node id='-517203' action='modify' lat='-33.88750683311' lon='151.09261695862'>
    <tag k='addr:housenumber' v='12/3A' />
    <tag k='addr:street' v='Byer Street' />
  </node>
  <node id='-517204' action='modify' lat='-33.88655311218' lon='151.09324788219'>
    <tag k='addr:housenumber' v='3E/292-294' />
    <tag k='addr:street' v='Liverpool Road' />
  </node>
  <node id='-517205' action='modify' lat='-33.88750683311' lon='151.09261695862'>
    <tag k='addr:housenumber' v='1/3A' />
    <tag k='addr:street' v='Byer Street' />
  </node>
  <node id='-517206' action='modify' lat='-33.88655311218' lon='151.09324788219'>
    <tag k='addr:housenumber' v='2C/292-294' />
    <tag k='addr:street' v='Liverpool Road' />
  </node>
  <node id='-517207' action='modify' lat='-33.88750683311' lon='151.09261695862'>
    <tag k='addr:housenumber' v='24/3A' />
    <tag k='addr:street' v='Byer Street' />
  </node>
  <node id='-517208' action='modify' lat='-33.88655311218' lon='151.09324788219'>
    <tag k='addr:housenumber' v='2D/292-294' />
    <tag k='addr:street' v='Liverpool Road' />
  </node>
  <node id='-517209' action='modify' lat='-33.88750683311' lon='151.09261695862'>
    <tag k='addr:housenumber' v='22/3A' />
    <tag k='addr:street' v='Byer Street' />
  </node>
  <node id='-517210' action='modify' lat='-33.88655311218' lon='151.09324788219'>
    <tag k='addr:housenumber' v='2E/292-294' />
    <tag k='addr:street' v='Liverpool Road' />
  </node>
  <node id='-517211' action='modify' lat='-33.88750683311' lon='151.09261695862'>
    <tag k='addr:housenumber' v='9/3A' />
    <tag k='addr:street' v='Byer Street' />
  </node>
  <node id='-517212' action='modify' lat='-33.88655311218' lon='151.09324788219'>
    <tag k='addr:housenumber' v='3A/292-294' />
    <tag k='addr:street' v='Liverpool Road' />
  </node>
  <node id='-517213' action='modify' lat='-33.88655311218' lon='151.09324788219'>
    <tag k='addr:housenumber' v='1D/292-294' />
    <tag k='addr:street' v='Liverpool Road' />
  </node>
  <node id='-517214' action='modify' lat='-33.88750683311' lon='151.09261695862'>
    <tag k='addr:housenumber' v='7/3A' />
    <tag k='addr:street' v='Byer Street' />
  </node>
  <node id='-517215' action='modify' lat='-33.88655311218' lon='151.09324788219'>
    <tag k='addr:housenumber' v='1E/292-294' />
    <tag k='addr:street' v='Liverpool Road' />
  </node>
  <node id='-517216' action='modify' lat='-33.88750683311' lon='151.09261695862'>
    <tag k='addr:housenumber' v='5/3A' />
    <tag k='addr:street' v='Byer Street' />
  </node>
  <node id='-517217' action='modify' lat='-33.88655311218' lon='151.09324788219'>
    <tag k='addr:housenumber' v='2A/292-294' />
    <tag k='addr:street' v='Liverpool Road' />
  </node>
  <node id='-517218' action='modify' lat='-33.88750683311' lon='151.09261695862'>
    <tag k='addr:housenumber' v='3/3A' />
    <tag k='addr:street' v='Byer Street' />
  </node>
  <node id='-517219' action='modify' lat='-33.88655311218' lon='151.09324788219'>
    <tag k='addr:housenumber' v='2B/292-294' />
    <tag k='addr:street' v='Liverpool Road' />
  </node>
  <node id='-517220' action='modify' lat='-33.88750683311' lon='151.09261695862'>
    <tag k='addr:housenumber' v='20/3A' />
    <tag k='addr:street' v='Byer Street' />
  </node>
  <node id='-517221' action='modify' lat='-33.88750683311' lon='151.09261695862'>
    <tag k='addr:housenumber' v='6/3A' />
    <tag k='addr:street' v='Byer Street' />
  </node>
  <node id='-517222' action='modify' lat='-33.88655311218' lon='151.09324788219'>
    <tag k='addr:housenumber' v='1A/292-294' />
    <tag k='addr:street' v='Liverpool Road' />
  </node>
  <node id='-517223' action='modify' lat='-33.88750683311' lon='151.09261695862'>
    <tag k='addr:housenumber' v='13/3A' />
    <tag k='addr:street' v='Byer Street' />
  </node>
  <node id='-517224' action='modify' lat='-33.88655311218' lon='151.09324788219'>
    <tag k='addr:housenumber' v='1B/292-294' />
    <tag k='addr:street' v='Liverpool Road' />
  </node>
  <node id='-517225' action='modify' lat='-33.88750683311' lon='151.09261695862'>
    <tag k='addr:housenumber' v='11/3A' />
    <tag k='addr:street' v='Byer Street' />
  </node>
  <node id='-517226' action='modify' lat='-33.88655311218' lon='151.09324788219'>
    <tag k='addr:housenumber' v='1C/292-294' />
    <tag k='addr:street' v='Liverpool Road' />
  </node>
  <node id='-517227' action='modify' lat='-33.88750683311' lon='151.09261695862'>
    <tag k='addr:housenumber' v='23/3A' />
    <tag k='addr:street' v='Byer Street' />
  </node>
  <node id='-517228' action='modify' lat='-33.88750683311' lon='151.09261695862'>
    <tag k='addr:housenumber' v='21/3A' />
    <tag k='addr:street' v='Byer Street' />
  </node>
  <node id='-517229' action='modify' lat='-33.88750683311' lon='151.09261695862'>
    <tag k='addr:housenumber' v='19/3A' />
    <tag k='addr:street' v='Byer Street' />
  </node>
  <node id='-517230' action='modify' lat='-33.88791422255' lon='151.10133052172'>
    <tag k='addr:housenumber' v='505/102-108' />
    <tag k='addr:street' v='Liverpool Road' />
  </node>
  <node id='-517231' action='modify' lat='-33.88791422255' lon='151.10133052172'>
    <tag k='addr:housenumber' v='401/102-108' />
    <tag k='addr:street' v='Liverpool Road' />
  </node>
  <node id='-517232' action='modify' lat='-33.88791422255' lon='151.10133052172'>
    <tag k='addr:housenumber' v='301/102-108' />
    <tag k='addr:street' v='Liverpool Road' />
  </node>
  <node id='-517233' action='modify' lat='-33.88791422255' lon='151.10133052172'>
    <tag k='addr:housenumber' v='207/102-108' />
    <tag k='addr:street' v='Liverpool Road' />
  </node>
  <node id='-517234' action='modify' lat='-33.88791422255' lon='151.10133052172'>
    <tag k='addr:housenumber' v='102/102-108' />
    <tag k='addr:street' v='Liverpool Road' />
  </node>
  <node id='-517235' action='modify' lat='-33.88791422255' lon='151.10133052172'>
    <tag k='addr:housenumber' v='303/102-108' />
    <tag k='addr:street' v='Liverpool Road' />
  </node>
  <node id='-517236' action='modify' lat='-33.88791422255' lon='151.10133052172'>
    <tag k='addr:housenumber' v='103/102-108' />
    <tag k='addr:street' v='Liverpool Road' />
  </node>
  <node id='-517237' action='modify' lat='-33.88791422255' lon='151.10133052172'>
    <tag k='addr:housenumber' v='307/102-108' />
    <tag k='addr:street' v='Liverpool Road' />
  </node>
  <node id='-517238' action='modify' lat='-33.88791422255' lon='151.10133052172'>
    <tag k='addr:housenumber' v='405/102-108' />
    <tag k='addr:street' v='Liverpool Road' />
  </node>
  <node id='-517239' action='modify' lat='-33.88791422255' lon='151.10133052172'>
    <tag k='addr:housenumber' v='201/102-108' />
    <tag k='addr:street' v='Liverpool Road' />
  </node>
  <node id='-517240' action='modify' lat='-33.88791422255' lon='151.10133052172'>
    <tag k='addr:housenumber' v='402/102-108' />
    <tag k='addr:street' v='Liverpool Road' />
  </node>
  <node id='-517241' action='modify' lat='-33.88791422255' lon='151.10133052172'>
    <tag k='addr:housenumber' v='406/102-108' />
    <tag k='addr:street' v='Liverpool Road' />
  </node>
  <node id='-517242' action='modify' lat='-33.88791422255' lon='151.10133052172'>
    <tag k='addr:housenumber' v='306/102-108' />
    <tag k='addr:street' v='Liverpool Road' />
  </node>
  <node id='-517243' action='modify' lat='-33.88791422255' lon='151.10133052172'>
    <tag k='addr:housenumber' v='105/102-108' />
    <tag k='addr:street' v='Liverpool Road' />
  </node>
  <node id='-517244' action='modify' lat='-33.88791422255' lon='151.10133052172'>
    <tag k='addr:housenumber' v='206/102-108' />
    <tag k='addr:street' v='Liverpool Road' />
  </node>
  <node id='-517245' action='modify' lat='-33.88791422255' lon='151.10133052172'>
    <tag k='addr:housenumber' v='101/102-108' />
    <tag k='addr:street' v='Liverpool Road' />
  </node>
  <node id='-517246' action='modify' lat='-33.88791422255' lon='151.10133052172'>
    <tag k='addr:housenumber' v='18/102-108' />
    <tag k='addr:street' v='Liverpool Road' />
  </node>
  <node id='-517247' action='modify' lat='-33.88791422255' lon='151.10133052172'>
    <tag k='addr:housenumber' v='507/102-108' />
    <tag k='addr:street' v='Liverpool Road' />
  </node>
  <node id='-517248' action='modify' lat='-33.88791422255' lon='151.10133052172'>
    <tag k='addr:housenumber' v='302/102-108' />
    <tag k='addr:street' v='Liverpool Road' />
  </node>
  <node id='-517249' action='modify' lat='-33.88791422255' lon='151.10133052172'>
    <tag k='addr:housenumber' v='106/102-108' />
    <tag k='addr:street' v='Liverpool Road' />
  </node>
  <node id='-517250' action='modify' lat='-33.88791422255' lon='151.10133052172'>
    <tag k='addr:housenumber' v='403/102-108' />
    <tag k='addr:street' v='Liverpool Road' />
  </node>
  <node id='-517251' action='modify' lat='-33.88791422255' lon='151.10133052172'>
    <tag k='addr:housenumber' v='407/102-108' />
    <tag k='addr:street' v='Liverpool Road' />
  </node>
  <node id='-517252' action='modify' lat='-33.88791422255' lon='151.10133052172'>
    <tag k='addr:housenumber' v='203/102-108' />
    <tag k='addr:street' v='Liverpool Road' />
  </node>
  <node id='-517253' action='modify' lat='-33.88791422255' lon='151.10133052172'>
    <tag k='addr:housenumber' v='107/102-108' />
    <tag k='addr:street' v='Liverpool Road' />
  </node>
  <node id='-517254' action='modify' lat='-33.88791422255' lon='151.10133052172'>
    <tag k='addr:housenumber' v='202/102-108' />
    <tag k='addr:street' v='Liverpool Road' />
  </node>
  <node id='-517255' action='modify' lat='-33.88791422255' lon='151.10133052172'>
    <tag k='addr:housenumber' v='503/102-108' />
    <tag k='addr:street' v='Liverpool Road' />
  </node>
  <node id='-517256' action='modify' lat='-33.88791422255' lon='151.10133052172'>
    <tag k='addr:housenumber' v='502/102-108' />
    <tag k='addr:street' v='Liverpool Road' />
  </node>
  <node id='-517257' action='modify' lat='-33.88791422255' lon='151.10133052172'>
    <tag k='addr:housenumber' v='102-108' />
    <tag k='addr:street' v='Liverpool Road' />
  </node>
  <node id='-517258' action='modify' lat='-33.88791422255' lon='151.10133052172'>
    <tag k='addr:housenumber' v='205/102-108' />
    <tag k='addr:street' v='Liverpool Road' />
  </node>
  <node id='-517259' action='modify' lat='-33.88741221682' lon='151.09823319813'>
    <tag k='addr:housenumber' v='1/174' />
    <tag k='addr:street' v='Liverpool Road' />
  </node>
  <node id='-517260' action='modify' lat='-33.88741221682' lon='151.09823319813'>
    <tag k='addr:housenumber' v='174' />
    <tag k='addr:street' v='Liverpool Road' />
  </node>
  <node id='-517261' action='modify' lat='-33.88791422255' lon='151.10133052172'>
    <tag k='addr:housenumber' v='501/102-108' />
    <tag k='addr:street' v='Liverpool Road' />
  </node>
  <node id='-517262' action='modify' lat='-33.88791422255' lon='151.10133052172'>
    <tag k='addr:housenumber' v='1/102-108' />
    <tag k='addr:street' v='Liverpool Road' />
  </node>
  <node id='-517263' action='modify' lat='-33.88741221682' lon='151.09823319813'>
    <tag k='addr:housenumber' v='9/174' />
    <tag k='addr:street' v='Liverpool Road' />
  </node>
  <node id='-517264' action='modify' lat='-33.88741221682' lon='151.09823319813'>
    <tag k='addr:housenumber' v='8/174' />
    <tag k='addr:street' v='Liverpool Road' />
  </node>
  <node id='-517265' action='modify' lat='-33.88741221682' lon='151.09823319813'>
    <tag k='addr:housenumber' v='7/174' />
    <tag k='addr:street' v='Liverpool Road' />
  </node>
  <node id='-517266' action='modify' lat='-33.88741221682' lon='151.09823319813'>
    <tag k='addr:housenumber' v='3/174' />
    <tag k='addr:street' v='Liverpool Road' />
  </node>
  <node id='-517267' action='modify' lat='-33.88741221682' lon='151.09823319813'>
    <tag k='addr:housenumber' v='5/174' />
    <tag k='addr:street' v='Liverpool Road' />
  </node>
  <node id='-517268' action='modify' lat='-33.88741221682' lon='151.09823319813'>
    <tag k='addr:housenumber' v='4/174' />
    <tag k='addr:street' v='Liverpool Road' />
  </node>
  <node id='-517269' action='modify' lat='-33.88741221682' lon='151.09823319813'>
    <tag k='addr:housenumber' v='2/174' />
    <tag k='addr:street' v='Liverpool Road' />
  </node>
  <node id='-517270' action='modify' lat='-33.88741221682' lon='151.09823319813'>
    <tag k='addr:housenumber' v='10/174' />
    <tag k='addr:street' v='Liverpool Road' />
  </node>
  <node id='-517271' action='modify' lat='-33.88741221682' lon='151.09823319813'>
    <tag k='addr:housenumber' v='6/174' />
    <tag k='addr:street' v='Liverpool Road' />
  </node>
  <node id='-517272' action='modify' lat='-33.89227902196' lon='151.09357794004'>
    <tag k='addr:housenumber' v='6/7-9' />
    <tag k='addr:street' v='King Street' />
  </node>
  <node id='-517273' action='modify' lat='-33.88894104659' lon='151.09173682087'>
    <tag k='addr:housenumber' v='8/32-34' />
    <tag k='addr:street' v='Coronation Parade' />
  </node>
  <node id='-517274' action='modify' lat='-33.89227902196' lon='151.09357794004'>
    <tag k='addr:housenumber' v='1/7-9' />
    <tag k='addr:street' v='King Street' />
  </node>
  <node id='-517275' action='modify' lat='-33.88894104659' lon='151.09173682087'>
    <tag k='addr:housenumber' v='9/32-34' />
    <tag k='addr:street' v='Coronation Parade' />
  </node>
  <node id='-517276' action='modify' lat='-33.89227902196' lon='151.09357794004'>
    <tag k='addr:housenumber' v='7-9' />
    <tag k='addr:street' v='King Street' />
  </node>
  <node id='-517277' action='modify' lat='-33.88894104659' lon='151.09173682087'>
    <tag k='addr:housenumber' v='10/32-34' />
    <tag k='addr:street' v='Coronation Parade' />
  </node>
  <node id='-517278' action='modify' lat='-33.88894104659' lon='151.09173682087'>
    <tag k='addr:housenumber' v='32-34' />
    <tag k='addr:street' v='Coronation Parade' />
  </node>
  <node id='-517279' action='modify' lat='-33.89227902196' lon='151.09357794004'>
    <tag k='addr:housenumber' v='2/7-9' />
    <tag k='addr:street' v='King Street' />
  </node>
  <node id='-517280' action='modify' lat='-33.88894104659' lon='151.09173682087'>
    <tag k='addr:housenumber' v='4/32-34' />
    <tag k='addr:street' v='Coronation Parade' />
  </node>
  <node id='-517281' action='modify' lat='-33.89227902196' lon='151.09357794004'>
    <tag k='addr:housenumber' v='3/7-9' />
    <tag k='addr:street' v='King Street' />
  </node>
  <node id='-517282' action='modify' lat='-33.88894104659' lon='151.09173682087'>
    <tag k='addr:housenumber' v='5/32-34' />
    <tag k='addr:street' v='Coronation Parade' />
  </node>
  <node id='-517283' action='modify' lat='-33.89227902196' lon='151.09357794004'>
    <tag k='addr:housenumber' v='4/7-9' />
    <tag k='addr:street' v='King Street' />
  </node>
  <node id='-517284' action='modify' lat='-33.88894104659' lon='151.09173682087'>
    <tag k='addr:housenumber' v='1/32-34' />
    <tag k='addr:street' v='Coronation Parade' />
  </node>
  <node id='-517285' action='modify' lat='-33.89227902196' lon='151.09357794004'>
    <tag k='addr:housenumber' v='5/7-9' />
    <tag k='addr:street' v='King Street' />
  </node>
  <node id='-517286' action='modify' lat='-33.88894104659' lon='151.09173682087'>
    <tag k='addr:housenumber' v='7/32-34' />
    <tag k='addr:street' v='Coronation Parade' />
  </node>
  <node id='-517287' action='modify' lat='-33.89280145765' lon='151.09384189783'>
    <tag k='addr:housenumber' v='3/51-53' />
    <tag k='addr:street' v='Portland Street' />
  </node>
  <node id='-517288' action='modify' lat='-33.88894104659' lon='151.09173682087'>
    <tag k='addr:housenumber' v='2/32-34' />
    <tag k='addr:street' v='Coronation Parade' />
  </node>
  <node id='-517289' action='modify' lat='-33.89280145765' lon='151.09384189783'>
    <tag k='addr:housenumber' v='2/51-53' />
    <tag k='addr:street' v='Portland Street' />
  </node>
  <node id='-517290' action='modify' lat='-33.88894104659' lon='151.09173682087'>
    <tag k='addr:housenumber' v='3/32-34' />
    <tag k='addr:street' v='Coronation Parade' />
  </node>
  <node id='-517291' action='modify' lat='-33.89280145765' lon='151.09384189783'>
    <tag k='addr:housenumber' v='1/51-53' />
    <tag k='addr:street' v='Portland Street' />
  </node>
  <node id='-517292' action='modify' lat='-33.88672834571' lon='151.09634169797'>
    <tag k='addr:housenumber' v='1/224' />
    <tag k='addr:street' v='Liverpool Road' />
  </node>
  <node id='-517293' action='modify' lat='-33.88672834571' lon='151.09634169797'>
    <tag k='addr:housenumber' v='224' />
    <tag k='addr:street' v='Liverpool Road' />
  </node>
  <node id='-517294' action='modify' lat='-33.88672834571' lon='151.09634169797'>
    <tag k='addr:housenumber' v='5/224' />
    <tag k='addr:street' v='Liverpool Road' />
  </node>
  <node id='-517295' action='modify' lat='-33.88672834571' lon='151.09634169797'>
    <tag k='addr:housenumber' v='4/224' />
    <tag k='addr:street' v='Liverpool Road' />
  </node>
  <node id='-517296' action='modify' lat='-33.88672834571' lon='151.09634169797'>
    <tag k='addr:housenumber' v='3/224' />
    <tag k='addr:street' v='Liverpool Road' />
  </node>
  <node id='-517297' action='modify' lat='-33.88672834571' lon='151.09634169797'>
    <tag k='addr:housenumber' v='2/224' />
    <tag k='addr:street' v='Liverpool Road' />
  </node>
  <node id='-517298' action='modify' lat='-33.88672834571' lon='151.09634169797'>
    <tag k='addr:housenumber' v='9/224' />
    <tag k='addr:street' v='Liverpool Road' />
  </node>
  <node id='-517299' action='modify' lat='-33.88672834571' lon='151.09634169797'>
    <tag k='addr:housenumber' v='8/224' />
    <tag k='addr:street' v='Liverpool Road' />
  </node>
  <node id='-517300' action='modify' lat='-33.88672834571' lon='151.09634169797'>
    <tag k='addr:housenumber' v='7/224' />
    <tag k='addr:street' v='Liverpool Road' />
  </node>
  <node id='-517301' action='modify' lat='-33.88672834571' lon='151.09634169797'>
    <tag k='addr:housenumber' v='6/224' />
    <tag k='addr:street' v='Liverpool Road' />
  </node>
  <node id='-517302' action='modify' lat='-33.8868243178' lon='151.09667506362'>
    <tag k='addr:housenumber' v='2/200' />
    <tag k='addr:street' v='Liverpool Road' />
  </node>
  <node id='-517303' action='modify' lat='-33.8868243178' lon='151.09667506362'>
    <tag k='addr:housenumber' v='1/200' />
    <tag k='addr:street' v='Liverpool Road' />
  </node>
  <node id='-517304' action='modify' lat='-33.8868243178' lon='151.09667506362'>
    <tag k='addr:housenumber' v='200' />
    <tag k='addr:street' v='Liverpool Road' />
  </node>
  <node id='-517305' action='modify' lat='-33.88672834571' lon='151.09634169797'>
    <tag k='addr:housenumber' v='10/224' />
    <tag k='addr:street' v='Liverpool Road' />
  </node>
  <node id='-517306' action='modify' lat='-33.8868243178' lon='151.09667506362'>
    <tag k='addr:housenumber' v='6/200' />
    <tag k='addr:street' v='Liverpool Road' />
  </node>
  <node id='-517307' action='modify' lat='-33.8868243178' lon='151.09667506362'>
    <tag k='addr:housenumber' v='5/200' />
    <tag k='addr:street' v='Liverpool Road' />
  </node>
  <node id='-517308' action='modify' lat='-33.8868243178' lon='151.09667506362'>
    <tag k='addr:housenumber' v='4/200' />
    <tag k='addr:street' v='Liverpool Road' />
  </node>
  <node id='-517309' action='modify' lat='-33.8868243178' lon='151.09667506362'>
    <tag k='addr:housenumber' v='3/200' />
    <tag k='addr:street' v='Liverpool Road' />
  </node>
  <node id='-517310' action='modify' lat='-33.8868243178' lon='151.09667506362'>
    <tag k='addr:housenumber' v='10/200' />
    <tag k='addr:street' v='Liverpool Road' />
  </node>
  <node id='-517311' action='modify' lat='-33.8868243178' lon='151.09667506362'>
    <tag k='addr:housenumber' v='9/200' />
    <tag k='addr:street' v='Liverpool Road' />
  </node>
  <node id='-517312' action='modify' lat='-33.8868243178' lon='151.09667506362'>
    <tag k='addr:housenumber' v='8/200' />
    <tag k='addr:street' v='Liverpool Road' />
  </node>
  <node id='-517313' action='modify' lat='-33.8868243178' lon='151.09667506362'>
    <tag k='addr:housenumber' v='7/200' />
    <tag k='addr:street' v='Liverpool Road' />
  </node>
  <node id='-517314' action='modify' lat='-33.8868243178' lon='151.09667506362'>
    <tag k='addr:housenumber' v='14/200' />
    <tag k='addr:street' v='Liverpool Road' />
  </node>
  <node id='-517315' action='modify' lat='-33.8868243178' lon='151.09667506362'>
    <tag k='addr:housenumber' v='13/200' />
    <tag k='addr:street' v='Liverpool Road' />
  </node>
  <node id='-517316' action='modify' lat='-33.8868243178' lon='151.09667506362'>
    <tag k='addr:housenumber' v='12/200' />
    <tag k='addr:street' v='Liverpool Road' />
  </node>
  <node id='-517317' action='modify' lat='-33.8868243178' lon='151.09667506362'>
    <tag k='addr:housenumber' v='11/200' />
    <tag k='addr:street' v='Liverpool Road' />
  </node>
  <node id='-517318' action='modify' lat='-33.8868243178' lon='151.09667506362'>
    <tag k='addr:housenumber' v='18/200' />
    <tag k='addr:street' v='Liverpool Road' />
  </node>
  <node id='-517319' action='modify' lat='-33.8868243178' lon='151.09667506362'>
    <tag k='addr:housenumber' v='17/200' />
    <tag k='addr:street' v='Liverpool Road' />
  </node>
  <node id='-517320' action='modify' lat='-33.8868243178' lon='151.09667506362'>
    <tag k='addr:housenumber' v='16/200' />
    <tag k='addr:street' v='Liverpool Road' />
  </node>
  <node id='-517321' action='modify' lat='-33.8868243178' lon='151.09667506362'>
    <tag k='addr:housenumber' v='15/200' />
    <tag k='addr:street' v='Liverpool Road' />
  </node>
  <node id='-517322' action='modify' lat='-33.8868243178' lon='151.09667506362'>
    <tag k='addr:housenumber' v='21/200' />
    <tag k='addr:street' v='Liverpool Road' />
  </node>
  <node id='-517323' action='modify' lat='-33.8868243178' lon='151.09667506362'>
    <tag k='addr:housenumber' v='20/200' />
    <tag k='addr:street' v='Liverpool Road' />
  </node>
  <node id='-517324' action='modify' lat='-33.8868243178' lon='151.09667506362'>
    <tag k='addr:housenumber' v='19/200' />
    <tag k='addr:street' v='Liverpool Road' />
  </node>
  <node id='-517325' action='modify' lat='-33.88588464978' lon='151.09446010439'>
    <tag k='addr:housenumber' v='4/266-268' />
    <tag k='addr:street' v='Liverpool Road' />
  </node>
  <node id='-517326' action='modify' lat='-33.88588464978' lon='151.09446010439'>
    <tag k='addr:housenumber' v='13/266-268' />
    <tag k='addr:street' v='Liverpool Road' />
  </node>
  <node id='-517327' action='modify' lat='-33.88588464978' lon='151.09446010439'>
    <tag k='addr:housenumber' v='9/266-268' />
    <tag k='addr:street' v='Liverpool Road' />
  </node>
  <node id='-517328' action='modify' lat='-33.88588464978' lon='151.09446010439'>
    <tag k='addr:housenumber' v='7/266-268' />
    <tag k='addr:street' v='Liverpool Road' />
  </node>
  <node id='-517329' action='modify' lat='-33.88588464978' lon='151.09446010439'>
    <tag k='addr:housenumber' v='6/266-268' />
    <tag k='addr:street' v='Liverpool Road' />
  </node>
  <node id='-517330' action='modify' lat='-33.88588464978' lon='151.09446010439'>
    <tag k='addr:housenumber' v='10/266-268' />
    <tag k='addr:street' v='Liverpool Road' />
  </node>
  <node id='-517331' action='modify' lat='-33.88588464978' lon='151.09446010439'>
    <tag k='addr:housenumber' v='8/266-268' />
    <tag k='addr:street' v='Liverpool Road' />
  </node>
  <node id='-517332' action='modify' lat='-33.88588464978' lon='151.09446010439'>
    <tag k='addr:housenumber' v='15/266-268' />
    <tag k='addr:street' v='Liverpool Road' />
  </node>
  <node id='-517333' action='modify' lat='-33.88588464978' lon='151.09446010439'>
    <tag k='addr:housenumber' v='3/266-268' />
    <tag k='addr:street' v='Liverpool Road' />
  </node>
  <node id='-517334' action='modify' lat='-33.88747908789' lon='151.09851288487'>
    <tag k='addr:housenumber' v='3/172' />
    <tag k='addr:street' v='Liverpool Road' />
  </node>
  <node id='-517335' action='modify' lat='-33.88588464978' lon='151.09446010439'>
    <tag k='addr:housenumber' v='11/266-268' />
    <tag k='addr:street' v='Liverpool Road' />
  </node>
  <node id='-517336' action='modify' lat='-33.88747908789' lon='151.09851288487'>
    <tag k='addr:housenumber' v='2/172' />
    <tag k='addr:street' v='Liverpool Road' />
  </node>
  <node id='-517337' action='modify' lat='-33.88588464978' lon='151.09446010439'>
    <tag k='addr:housenumber' v='1/266-268' />
    <tag k='addr:street' v='Liverpool Road' />
  </node>
  <node id='-517338' action='modify' lat='-33.88747908789' lon='151.09851288487'>
    <tag k='addr:housenumber' v='1/172' />
    <tag k='addr:street' v='Liverpool Road' />
  </node>
  <node id='-517339' action='modify' lat='-33.88588464978' lon='151.09446010439'>
    <tag k='addr:housenumber' v='266-268' />
    <tag k='addr:street' v='Liverpool Road' />
  </node>
  <node id='-517340' action='modify' lat='-33.88747908789' lon='151.09851288487'>
    <tag k='addr:housenumber' v='172' />
    <tag k='addr:street' v='Liverpool Road' />
  </node>
  <node id='-517341' action='modify' lat='-33.88588464978' lon='151.09446010439'>
    <tag k='addr:housenumber' v='2/266-268' />
    <tag k='addr:street' v='Liverpool Road' />
  </node>
  <node id='-517342' action='modify' lat='-33.88588464978' lon='151.09446010439'>
    <tag k='addr:housenumber' v='5/266-268' />
    <tag k='addr:street' v='Liverpool Road' />
  </node>
  <node id='-517343' action='modify' lat='-33.88588464978' lon='151.09446010439'>
    <tag k='addr:housenumber' v='14/266-268' />
    <tag k='addr:street' v='Liverpool Road' />
  </node>
  <node id='-517344' action='modify' lat='-33.88747908789' lon='151.09851288487'>
    <tag k='addr:housenumber' v='4/172' />
    <tag k='addr:street' v='Liverpool Road' />
  </node>
  <node id='-517345' action='modify' lat='-33.88588464978' lon='151.09446010439'>
    <tag k='addr:housenumber' v='12/266-268' />
    <tag k='addr:street' v='Liverpool Road' />
  </node>
  <node id='-517346' action='modify' lat='-33.89280145765' lon='151.09384189783'>
    <tag k='addr:housenumber' v='5/51-53' />
    <tag k='addr:street' v='Portland Street' />
  </node>
  <node id='-517347' action='modify' lat='-33.89280145765' lon='151.09384189783'>
    <tag k='addr:housenumber' v='4/51-53' />
    <tag k='addr:street' v='Portland Street' />
  </node>
  <node id='-517348' action='modify' lat='-33.89280145765' lon='151.09384189783'>
    <tag k='addr:housenumber' v='9/51-53' />
    <tag k='addr:street' v='Portland Street' />
  </node>
  <node id='-517349' action='modify' lat='-33.89280145765' lon='151.09384189783'>
    <tag k='addr:housenumber' v='8/51-53' />
    <tag k='addr:street' v='Portland Street' />
  </node>
  <node id='-517350' action='modify' lat='-33.89280145765' lon='151.09384189783'>
    <tag k='addr:housenumber' v='7/51-53' />
    <tag k='addr:street' v='Portland Street' />
  </node>
  <node id='-517351' action='modify' lat='-33.89280145765' lon='151.09384189783'>
    <tag k='addr:housenumber' v='6/51-53' />
    <tag k='addr:street' v='Portland Street' />
  </node>
  <node id='-517352' action='modify' lat='-33.89280145765' lon='151.09384189783'>
    <tag k='addr:housenumber' v='13/51-53' />
    <tag k='addr:street' v='Portland Street' />
  </node>
  <node id='-517353' action='modify' lat='-33.89280145765' lon='151.09384189783'>
    <tag k='addr:housenumber' v='12/51-53' />
    <tag k='addr:street' v='Portland Street' />
  </node>
  <node id='-517354' action='modify' lat='-33.89280145765' lon='151.09384189783'>
    <tag k='addr:housenumber' v='11/51-53' />
    <tag k='addr:street' v='Portland Street' />
  </node>
  <node id='-517355' action='modify' lat='-33.89280145765' lon='151.09384189783'>
    <tag k='addr:housenumber' v='10/51-53' />
    <tag k='addr:street' v='Portland Street' />
  </node>
  <node id='-517356' action='modify' lat='-33.89280145765' lon='151.09384189783'>
    <tag k='addr:housenumber' v='17/51-53' />
    <tag k='addr:street' v='Portland Street' />
  </node>
  <node id='-517357' action='modify' lat='-33.89280145765' lon='151.09384189783'>
    <tag k='addr:housenumber' v='16/51-53' />
    <tag k='addr:street' v='Portland Street' />
  </node>
  <node id='-517358' action='modify' lat='-33.89280145765' lon='151.09384189783'>
    <tag k='addr:housenumber' v='15/51-53' />
    <tag k='addr:street' v='Portland Street' />
  </node>
  <node id='-517359' action='modify' lat='-33.89280145765' lon='151.09384189783'>
    <tag k='addr:housenumber' v='14/51-53' />
    <tag k='addr:street' v='Portland Street' />
  </node>
  <node id='-517360' action='modify' lat='-33.89280145765' lon='151.09384189783'>
    <tag k='addr:housenumber' v='21/51-53' />
    <tag k='addr:street' v='Portland Street' />
  </node>
  <node id='-517361' action='modify' lat='-33.89280145765' lon='151.09384189783'>
    <tag k='addr:housenumber' v='20/51-53' />
    <tag k='addr:street' v='Portland Street' />
  </node>
  <node id='-517362' action='modify' lat='-33.89280145765' lon='151.09384189783'>
    <tag k='addr:housenumber' v='19/51-53' />
    <tag k='addr:street' v='Portland Street' />
  </node>
  <node id='-517363' action='modify' lat='-33.89280145765' lon='151.09384189783'>
    <tag k='addr:housenumber' v='18/51-53' />
    <tag k='addr:street' v='Portland Street' />
  </node>
  <node id='-517364' action='modify' lat='-33.89280145765' lon='151.09384189783'>
    <tag k='addr:housenumber' v='25/51-53' />
    <tag k='addr:street' v='Portland Street' />
  </node>
  <node id='-517365' action='modify' lat='-33.89280145765' lon='151.09384189783'>
    <tag k='addr:housenumber' v='24/51-53' />
    <tag k='addr:street' v='Portland Street' />
  </node>
  <node id='-517366' action='modify' lat='-33.89280145765' lon='151.09384189783'>
    <tag k='addr:housenumber' v='23/51-53' />
    <tag k='addr:street' v='Portland Street' />
  </node>
  <node id='-517367' action='modify' lat='-33.89280145765' lon='151.09384189783'>
    <tag k='addr:housenumber' v='22/51-53' />
    <tag k='addr:street' v='Portland Street' />
  </node>
  <node id='-517368' action='modify' lat='-33.89280145765' lon='151.09384189783'>
    <tag k='addr:housenumber' v='29/51-53' />
    <tag k='addr:street' v='Portland Street' />
  </node>
  <node id='-517369' action='modify' lat='-33.89280145765' lon='151.09384189783'>
    <tag k='addr:housenumber' v='28/51-53' />
    <tag k='addr:street' v='Portland Street' />
  </node>
  <node id='-517370' action='modify' lat='-33.89280145765' lon='151.09384189783'>
    <tag k='addr:housenumber' v='27/51-53' />
    <tag k='addr:street' v='Portland Street' />
  </node>
  <node id='-517371' action='modify' lat='-33.89280145765' lon='151.09384189783'>
    <tag k='addr:housenumber' v='26/51-53' />
    <tag k='addr:street' v='Portland Street' />
  </node>
  <node id='-517372' action='modify' lat='-33.89280145765' lon='151.09384189783'>
    <tag k='addr:housenumber' v='33/51-53' />
    <tag k='addr:street' v='Portland Street' />
  </node>
  <node id='-517373' action='modify' lat='-33.89280145765' lon='151.09384189783'>
    <tag k='addr:housenumber' v='32/51-53' />
    <tag k='addr:street' v='Portland Street' />
  </node>
  <node id='-517374' action='modify' lat='-33.89280145765' lon='151.09384189783'>
    <tag k='addr:housenumber' v='31/51-53' />
    <tag k='addr:street' v='Portland Street' />
  </node>
  <node id='-517375' action='modify' lat='-33.89280145765' lon='151.09384189783'>
    <tag k='addr:housenumber' v='30/51-53' />
    <tag k='addr:street' v='Portland Street' />
  </node>
  <node id='-517376' action='modify' lat='-33.89280145765' lon='151.09384189783'>
    <tag k='addr:housenumber' v='37/51-53' />
    <tag k='addr:street' v='Portland Street' />
  </node>
  <node id='-517377' action='modify' lat='-33.89280145765' lon='151.09384189783'>
    <tag k='addr:housenumber' v='36/51-53' />
    <tag k='addr:street' v='Portland Street' />
  </node>
  <node id='-517378' action='modify' lat='-33.89280145765' lon='151.09384189783'>
    <tag k='addr:housenumber' v='35/51-53' />
    <tag k='addr:street' v='Portland Street' />
  </node>
  <node id='-517379' action='modify' lat='-33.89280145765' lon='151.09384189783'>
    <tag k='addr:housenumber' v='34/51-53' />
    <tag k='addr:street' v='Portland Street' />
  </node>
  <node id='-517380' action='modify' lat='-33.89280145765' lon='151.09384189783'>
    <tag k='addr:housenumber' v='41/51-53' />
    <tag k='addr:street' v='Portland Street' />
  </node>
  <node id='-517381' action='modify' lat='-33.89280145765' lon='151.09384189783'>
    <tag k='addr:housenumber' v='40/51-53' />
    <tag k='addr:street' v='Portland Street' />
  </node>
  <node id='-517382' action='modify' lat='-33.89280145765' lon='151.09384189783'>
    <tag k='addr:housenumber' v='39/51-53' />
    <tag k='addr:street' v='Portland Street' />
  </node>
  <node id='-517383' action='modify' lat='-33.89280145765' lon='151.09384189783'>
    <tag k='addr:housenumber' v='38/51-53' />
    <tag k='addr:street' v='Portland Street' />
  </node>
  <node id='-517384' action='modify' lat='-33.89280145765' lon='151.09384189783'>
    <tag k='addr:housenumber' v='45/51-53' />
    <tag k='addr:street' v='Portland Street' />
  </node>
  <node id='-517385' action='modify' lat='-33.89280145765' lon='151.09384189783'>
    <tag k='addr:housenumber' v='44/51-53' />
    <tag k='addr:street' v='Portland Street' />
  </node>
  <node id='-517386' action='modify' lat='-33.89280145765' lon='151.09384189783'>
    <tag k='addr:housenumber' v='43/51-53' />
    <tag k='addr:street' v='Portland Street' />
  </node>
  <node id='-517387' action='modify' lat='-33.89280145765' lon='151.09384189783'>
    <tag k='addr:housenumber' v='42/51-53' />
    <tag k='addr:street' v='Portland Street' />
  </node>
  <node id='-517388' action='modify' lat='-33.89280145765' lon='151.09384189783'>
    <tag k='addr:housenumber' v='51-53' />
    <tag k='addr:street' v='Portland Street' />
  </node>
  <node id='-517389' action='modify' lat='-33.89280145765' lon='151.09384189783'>
    <tag k='addr:housenumber' v='46/51-53' />
    <tag k='addr:street' v='Portland Street' />
  </node>
  <node id='-517390' action='modify' lat='-33.88694692821' lon='151.09696727776'>
    <tag k='addr:housenumber' v='2/198' />
    <tag k='addr:street' v='Liverpool Road' />
  </node>
  <node id='-517391' action='modify' lat='-33.88694692821' lon='151.09696727776'>
    <tag k='addr:housenumber' v='1/198' />
    <tag k='addr:street' v='Liverpool Road' />
  </node>
  <node id='-517392' action='modify' lat='-33.88694692821' lon='151.09696727776'>
    <tag k='addr:housenumber' v='198' />
    <tag k='addr:street' v='Liverpool Road' />
  </node>
  <node id='-517393' action='modify' lat='-33.88694692821' lon='151.09696727776'>
    <tag k='addr:housenumber' v='6/198' />
    <tag k='addr:street' v='Liverpool Road' />
  </node>
  <node id='-517394' action='modify' lat='-33.88694692821' lon='151.09696727776'>
    <tag k='addr:housenumber' v='5/198' />
    <tag k='addr:street' v='Liverpool Road' />
  </node>
  <node id='-517395' action='modify' lat='-33.88694692821' lon='151.09696727776'>
    <tag k='addr:housenumber' v='4/198' />
    <tag k='addr:street' v='Liverpool Road' />
  </node>
  <node id='-517396' action='modify' lat='-33.88694692821' lon='151.09696727776'>
    <tag k='addr:housenumber' v='3/198' />
    <tag k='addr:street' v='Liverpool Road' />
  </node>
  <node id='-517397' action='modify' lat='-33.88737229922' lon='151.09224880918'>
    <tag k='addr:housenumber' v='65/320A-338' />
    <tag k='addr:street' v='Liverpool Road' />
  </node>
  <node id='-517398' action='modify' lat='-33.88737229922' lon='151.09224880918'>
    <tag k='addr:housenumber' v='66/320A-338' />
    <tag k='addr:street' v='Liverpool Road' />
  </node>
  <node id='-517399' action='modify' lat='-33.88737229922' lon='151.09224880918'>
    <tag k='addr:housenumber' v='67/320A-338' />
    <tag k='addr:street' v='Liverpool Road' />
  </node>
  <node id='-517400' action='modify' lat='-33.88737229922' lon='151.09224880918'>
    <tag k='addr:housenumber' v='320A-338' />
    <tag k='addr:street' v='Liverpool Road' />
  </node>
  <node id='-517401' action='modify' lat='-33.88737229922' lon='151.09224880918'>
    <tag k='addr:housenumber' v='5S/320A-338' />
    <tag k='addr:street' v='Liverpool Road' />
  </node>
  <node id='-517402' action='modify' lat='-33.88737229922' lon='151.09224880918'>
    <tag k='addr:housenumber' v='62/320A-338' />
    <tag k='addr:street' v='Liverpool Road' />
  </node>
  <node id='-517403' action='modify' lat='-33.88737229922' lon='151.09224880918'>
    <tag k='addr:housenumber' v='63/320A-338' />
    <tag k='addr:street' v='Liverpool Road' />
  </node>
  <node id='-517404' action='modify' lat='-33.88737229922' lon='151.09224880918'>
    <tag k='addr:housenumber' v='64/320A-338' />
    <tag k='addr:street' v='Liverpool Road' />
  </node>
  <node id='-517405' action='modify' lat='-33.88648066177' lon='151.09597301339'>
    <tag k='addr:housenumber' v='7/226' />
    <tag k='addr:street' v='Liverpool Road' />
  </node>
  <node id='-517406' action='modify' lat='-33.88737229922' lon='151.09224880918'>
    <tag k='addr:housenumber' v='57/320A-338' />
    <tag k='addr:street' v='Liverpool Road' />
  </node>
  <node id='-517407' action='modify' lat='-33.88648066177' lon='151.09597301339'>
    <tag k='addr:housenumber' v='6/226' />
    <tag k='addr:street' v='Liverpool Road' />
  </node>
  <node id='-517408' action='modify' lat='-33.88737229922' lon='151.09224880918'>
    <tag k='addr:housenumber' v='58/320A-338' />
    <tag k='addr:street' v='Liverpool Road' />
  </node>
  <node id='-517409' action='modify' lat='-33.88737229922' lon='151.09224880918'>
    <tag k='addr:housenumber' v='59/320A-338' />
    <tag k='addr:street' v='Liverpool Road' />
  </node>
  <node id='-517410' action='modify' lat='-33.88737229922' lon='151.09224880918'>
    <tag k='addr:housenumber' v='60/320A-338' />
    <tag k='addr:street' v='Liverpool Road' />
  </node>
  <node id='-517411' action='modify' lat='-33.88648066177' lon='151.09597301339'>
    <tag k='addr:housenumber' v='3/226' />
    <tag k='addr:street' v='Liverpool Road' />
  </node>
  <node id='-517412' action='modify' lat='-33.88737229922' lon='151.09224880918'>
    <tag k='addr:housenumber' v='53/320A-338' />
    <tag k='addr:street' v='Liverpool Road' />
  </node>
  <node id='-517413' action='modify' lat='-33.88648066177' lon='151.09597301339'>
    <tag k='addr:housenumber' v='10/226' />
    <tag k='addr:street' v='Liverpool Road' />
  </node>
  <node id='-517414' action='modify' lat='-33.88737229922' lon='151.09224880918'>
    <tag k='addr:housenumber' v='54/320A-338' />
    <tag k='addr:street' v='Liverpool Road' />
  </node>
  <node id='-517415' action='modify' lat='-33.88648066177' lon='151.09597301339'>
    <tag k='addr:housenumber' v='9/226' />
    <tag k='addr:street' v='Liverpool Road' />
  </node>
  <node id='-517416' action='modify' lat='-33.88737229922' lon='151.09224880918'>
    <tag k='addr:housenumber' v='55/320A-338' />
    <tag k='addr:street' v='Liverpool Road' />
  </node>
  <node id='-517417' action='modify' lat='-33.88648066177' lon='151.09597301339'>
    <tag k='addr:housenumber' v='8/226' />
    <tag k='addr:street' v='Liverpool Road' />
  </node>
  <node id='-517418' action='modify' lat='-33.88737229922' lon='151.09224880918'>
    <tag k='addr:housenumber' v='56/320A-338' />
    <tag k='addr:street' v='Liverpool Road' />
  </node>
  <node id='-517419' action='modify' lat='-33.88648066177' lon='151.09597301339'>
    <tag k='addr:housenumber' v='2/226' />
    <tag k='addr:street' v='Liverpool Road' />
  </node>
  <node id='-517420' action='modify' lat='-33.88737229922' lon='151.09224880918'>
    <tag k='addr:housenumber' v='49/320A-338' />
    <tag k='addr:street' v='Liverpool Road' />
  </node>
  <node id='-517421' action='modify' lat='-33.88648066177' lon='151.09597301339'>
    <tag k='addr:housenumber' v='1/226' />
    <tag k='addr:street' v='Liverpool Road' />
  </node>
  <node id='-517422' action='modify' lat='-33.88737229922' lon='151.09224880918'>
    <tag k='addr:housenumber' v='50/320A-338' />
    <tag k='addr:street' v='Liverpool Road' />
  </node>
  <node id='-517423' action='modify' lat='-33.88648066177' lon='151.09597301339'>
    <tag k='addr:housenumber' v='5/226' />
    <tag k='addr:street' v='Liverpool Road' />
  </node>
  <node id='-517424' action='modify' lat='-33.88737229922' lon='151.09224880918'>
    <tag k='addr:housenumber' v='51/320A-338' />
    <tag k='addr:street' v='Liverpool Road' />
  </node>
  <node id='-517425' action='modify' lat='-33.88648066177' lon='151.09597301339'>
    <tag k='addr:housenumber' v='4/226' />
    <tag k='addr:street' v='Liverpool Road' />
  </node>
  <node id='-517426' action='modify' lat='-33.88737229922' lon='151.09224880918'>
    <tag k='addr:housenumber' v='52/320A-338' />
    <tag k='addr:street' v='Liverpool Road' />
  </node>
  <node id='-517427' action='modify' lat='-33.88737229922' lon='151.09224880918'>
    <tag k='addr:housenumber' v='45/320A-338' />
    <tag k='addr:street' v='Liverpool Road' />
  </node>
  <node id='-517428' action='modify' lat='-33.88737229922' lon='151.09224880918'>
    <tag k='addr:housenumber' v='46/320A-338' />
    <tag k='addr:street' v='Liverpool Road' />
  </node>
  <node id='-517429' action='modify' lat='-33.88737229922' lon='151.09224880918'>
    <tag k='addr:housenumber' v='47/320A-338' />
    <tag k='addr:street' v='Liverpool Road' />
  </node>
  <node id='-517430' action='modify' lat='-33.88648066177' lon='151.09597301339'>
    <tag k='addr:housenumber' v='226' />
    <tag k='addr:street' v='Liverpool Road' />
  </node>
  <node id='-517431' action='modify' lat='-33.88737229922' lon='151.09224880918'>
    <tag k='addr:housenumber' v='48/320A-338' />
    <tag k='addr:street' v='Liverpool Road' />
  </node>
  <node id='-517432' action='modify' lat='-33.88737229922' lon='151.09224880918'>
    <tag k='addr:housenumber' v='41/320A-338' />
    <tag k='addr:street' v='Liverpool Road' />
  </node>
  <node id='-517433' action='modify' lat='-33.88737229922' lon='151.09224880918'>
    <tag k='addr:housenumber' v='42/320A-338' />
    <tag k='addr:street' v='Liverpool Road' />
  </node>
  <node id='-517434' action='modify' lat='-33.88737229922' lon='151.09224880918'>
    <tag k='addr:housenumber' v='43/320A-338' />
    <tag k='addr:street' v='Liverpool Road' />
  </node>
  <node id='-517435' action='modify' lat='-33.88737229922' lon='151.09224880918'>
    <tag k='addr:housenumber' v='44/320A-338' />
    <tag k='addr:street' v='Liverpool Road' />
  </node>
  <node id='-517436' action='modify' lat='-33.88737229922' lon='151.09224880918'>
    <tag k='addr:housenumber' v='37/320A-338' />
    <tag k='addr:street' v='Liverpool Road' />
  </node>
  <node id='-517437' action='modify' lat='-33.88737229922' lon='151.09224880918'>
    <tag k='addr:housenumber' v='38/320A-338' />
    <tag k='addr:street' v='Liverpool Road' />
  </node>
  <node id='-517438' action='modify' lat='-33.88737229922' lon='151.09224880918'>
    <tag k='addr:housenumber' v='39/320A-338' />
    <tag k='addr:street' v='Liverpool Road' />
  </node>
  <node id='-517439' action='modify' lat='-33.88737229922' lon='151.09224880918'>
    <tag k='addr:housenumber' v='40/320A-338' />
    <tag k='addr:street' v='Liverpool Road' />
  </node>
  <node id='-517440' action='modify' lat='-33.88737229922' lon='151.09224880918'>
    <tag k='addr:housenumber' v='33/320A-338' />
    <tag k='addr:street' v='Liverpool Road' />
  </node>
  <node id='-517441' action='modify' lat='-33.88737229922' lon='151.09224880918'>
    <tag k='addr:housenumber' v='34/320A-338' />
    <tag k='addr:street' v='Liverpool Road' />
  </node>
  <node id='-517442' action='modify' lat='-33.88737229922' lon='151.09224880918'>
    <tag k='addr:housenumber' v='35/320A-338' />
    <tag k='addr:street' v='Liverpool Road' />
  </node>
  <node id='-517443' action='modify' lat='-33.88737229922' lon='151.09224880918'>
    <tag k='addr:housenumber' v='36/320A-338' />
    <tag k='addr:street' v='Liverpool Road' />
  </node>
  <node id='-517444' action='modify' lat='-33.88737229922' lon='151.09224880918'>
    <tag k='addr:housenumber' v='29/320A-338' />
    <tag k='addr:street' v='Liverpool Road' />
  </node>
  <node id='-517445' action='modify' lat='-33.88737229922' lon='151.09224880918'>
    <tag k='addr:housenumber' v='30/320A-338' />
    <tag k='addr:street' v='Liverpool Road' />
  </node>
  <node id='-517446' action='modify' lat='-33.88737229922' lon='151.09224880918'>
    <tag k='addr:housenumber' v='31/320A-338' />
    <tag k='addr:street' v='Liverpool Road' />
  </node>
  <node id='-517447' action='modify' lat='-33.88737229922' lon='151.09224880918'>
    <tag k='addr:housenumber' v='32/320A-338' />
    <tag k='addr:street' v='Liverpool Road' />
  </node>
  <node id='-517448' action='modify' lat='-33.88737229922' lon='151.09224880918'>
    <tag k='addr:housenumber' v='25/320A-338' />
    <tag k='addr:street' v='Liverpool Road' />
  </node>
  <node id='-517449' action='modify' lat='-33.88737229922' lon='151.09224880918'>
    <tag k='addr:housenumber' v='26/320A-338' />
    <tag k='addr:street' v='Liverpool Road' />
  </node>
  <node id='-517450' action='modify' lat='-33.88737229922' lon='151.09224880918'>
    <tag k='addr:housenumber' v='27/320A-338' />
    <tag k='addr:street' v='Liverpool Road' />
  </node>
  <node id='-517451' action='modify' lat='-33.88737229922' lon='151.09224880918'>
    <tag k='addr:housenumber' v='28/320A-338' />
    <tag k='addr:street' v='Liverpool Road' />
  </node>
  <node id='-517452' action='modify' lat='-33.88684875225' lon='151.09362959759'>
    <tag k='addr:housenumber' v='2-4' />
    <tag k='addr:street' v='Byer Street' />
  </node>
  <node id='-517453' action='modify' lat='-33.88737229922' lon='151.09224880918'>
    <tag k='addr:housenumber' v='21/320A-338' />
    <tag k='addr:street' v='Liverpool Road' />
  </node>
  <node id='-517454' action='modify' lat='-33.88737229922' lon='151.09224880918'>
    <tag k='addr:housenumber' v='22/320A-338' />
    <tag k='addr:street' v='Liverpool Road' />
  </node>
  <node id='-517455' action='modify' lat='-33.88737229922' lon='151.09224880918'>
    <tag k='addr:housenumber' v='23/320A-338' />
    <tag k='addr:street' v='Liverpool Road' />
  </node>
  <node id='-517456' action='modify' lat='-33.88737229922' lon='151.09224880918'>
    <tag k='addr:housenumber' v='24/320A-338' />
    <tag k='addr:street' v='Liverpool Road' />
  </node>
  <node id='-517457' action='modify' lat='-33.88684875225' lon='151.09362959759'>
    <tag k='addr:housenumber' v='37/2-4' />
    <tag k='addr:street' v='Byer Street' />
  </node>
  <node id='-517458' action='modify' lat='-33.88737229922' lon='151.09224880918'>
    <tag k='addr:housenumber' v='17/320A-338' />
    <tag k='addr:street' v='Liverpool Road' />
  </node>
  <node id='-517459' action='modify' lat='-33.88684875225' lon='151.09362959759'>
    <tag k='addr:housenumber' v='38/2-4' />
    <tag k='addr:street' v='Byer Street' />
  </node>
  <node id='-517460' action='modify' lat='-33.88737229922' lon='151.09224880918'>
    <tag k='addr:housenumber' v='18/320A-338' />
    <tag k='addr:street' v='Liverpool Road' />
  </node>
  <node id='-517461' action='modify' lat='-33.88684875225' lon='151.09362959759'>
    <tag k='addr:housenumber' v='39/2-4' />
    <tag k='addr:street' v='Byer Street' />
  </node>
  <node id='-517462' action='modify' lat='-33.88737229922' lon='151.09224880918'>
    <tag k='addr:housenumber' v='19/320A-338' />
    <tag k='addr:street' v='Liverpool Road' />
  </node>
  <node id='-517463' action='modify' lat='-33.88684875225' lon='151.09362959759'>
    <tag k='addr:housenumber' v='40/2-4' />
    <tag k='addr:street' v='Byer Street' />
  </node>
  <node id='-517464' action='modify' lat='-33.88737229922' lon='151.09224880918'>
    <tag k='addr:housenumber' v='20/320A-338' />
    <tag k='addr:street' v='Liverpool Road' />
  </node>
  <node id='-517465' action='modify' lat='-33.88684875225' lon='151.09362959759'>
    <tag k='addr:housenumber' v='33/2-4' />
    <tag k='addr:street' v='Byer Street' />
  </node>
  <node id='-517466' action='modify' lat='-33.88737229922' lon='151.09224880918'>
    <tag k='addr:housenumber' v='13/320A-338' />
    <tag k='addr:street' v='Liverpool Road' />
  </node>
  <node id='-517467' action='modify' lat='-33.88684875225' lon='151.09362959759'>
    <tag k='addr:housenumber' v='34/2-4' />
    <tag k='addr:street' v='Byer Street' />
  </node>
  <node id='-517468' action='modify' lat='-33.88737229922' lon='151.09224880918'>
    <tag k='addr:housenumber' v='14/320A-338' />
    <tag k='addr:street' v='Liverpool Road' />
  </node>
  <node id='-517469' action='modify' lat='-33.88684875225' lon='151.09362959759'>
    <tag k='addr:housenumber' v='35/2-4' />
    <tag k='addr:street' v='Byer Street' />
  </node>
  <node id='-517470' action='modify' lat='-33.88737229922' lon='151.09224880918'>
    <tag k='addr:housenumber' v='15/320A-338' />
    <tag k='addr:street' v='Liverpool Road' />
  </node>
  <node id='-517471' action='modify' lat='-33.88684875225' lon='151.09362959759'>
    <tag k='addr:housenumber' v='36/2-4' />
    <tag k='addr:street' v='Byer Street' />
  </node>
  <node id='-517472' action='modify' lat='-33.88737229922' lon='151.09224880918'>
    <tag k='addr:housenumber' v='16/320A-338' />
    <tag k='addr:street' v='Liverpool Road' />
  </node>
  <node id='-517473' action='modify' lat='-33.88684875225' lon='151.09362959759'>
    <tag k='addr:housenumber' v='29/2-4' />
    <tag k='addr:street' v='Byer Street' />
  </node>
  <node id='-517474' action='modify' lat='-33.88737229922' lon='151.09224880918'>
    <tag k='addr:housenumber' v='9/320A-338' />
    <tag k='addr:street' v='Liverpool Road' />
  </node>
  <node id='-517475' action='modify' lat='-33.88684875225' lon='151.09362959759'>
    <tag k='addr:housenumber' v='30/2-4' />
    <tag k='addr:street' v='Byer Street' />
  </node>
  <node id='-517476' action='modify' lat='-33.88737229922' lon='151.09224880918'>
    <tag k='addr:housenumber' v='10/320A-338' />
    <tag k='addr:street' v='Liverpool Road' />
  </node>
  <node id='-517477' action='modify' lat='-33.88684875225' lon='151.09362959759'>
    <tag k='addr:housenumber' v='31/2-4' />
    <tag k='addr:street' v='Byer Street' />
  </node>
  <node id='-517478' action='modify' lat='-33.88737229922' lon='151.09224880918'>
    <tag k='addr:housenumber' v='11/320A-338' />
    <tag k='addr:street' v='Liverpool Road' />
  </node>
  <node id='-517479' action='modify' lat='-33.88684875225' lon='151.09362959759'>
    <tag k='addr:housenumber' v='32/2-4' />
    <tag k='addr:street' v='Byer Street' />
  </node>
  <node id='-517480' action='modify' lat='-33.88737229922' lon='151.09224880918'>
    <tag k='addr:housenumber' v='12/320A-338' />
    <tag k='addr:street' v='Liverpool Road' />
  </node>
  <node id='-517481' action='modify' lat='-33.88684875225' lon='151.09362959759'>
    <tag k='addr:housenumber' v='25/2-4' />
    <tag k='addr:street' v='Byer Street' />
  </node>
  <node id='-517482' action='modify' lat='-33.88737229922' lon='151.09224880918'>
    <tag k='addr:housenumber' v='5/320A-338' />
    <tag k='addr:street' v='Liverpool Road' />
  </node>
  <node id='-517483' action='modify' lat='-33.88684875225' lon='151.09362959759'>
    <tag k='addr:housenumber' v='26/2-4' />
    <tag k='addr:street' v='Byer Street' />
  </node>
  <node id='-517484' action='modify' lat='-33.88737229922' lon='151.09224880918'>
    <tag k='addr:housenumber' v='6/320A-338' />
    <tag k='addr:street' v='Liverpool Road' />
  </node>
  <node id='-517485' action='modify' lat='-33.88684875225' lon='151.09362959759'>
    <tag k='addr:housenumber' v='27/2-4' />
    <tag k='addr:street' v='Byer Street' />
  </node>
  <node id='-517486' action='modify' lat='-33.88737229922' lon='151.09224880918'>
    <tag k='addr:housenumber' v='7/320A-338' />
    <tag k='addr:street' v='Liverpool Road' />
  </node>
  <node id='-517487' action='modify' lat='-33.88684875225' lon='151.09362959759'>
    <tag k='addr:housenumber' v='28/2-4' />
    <tag k='addr:street' v='Byer Street' />
  </node>
  <node id='-517488' action='modify' lat='-33.88737229922' lon='151.09224880918'>
    <tag k='addr:housenumber' v='8/320A-338' />
    <tag k='addr:street' v='Liverpool Road' />
  </node>
  <node id='-517489' action='modify' lat='-33.88684875225' lon='151.09362959759'>
    <tag k='addr:housenumber' v='21/2-4' />
    <tag k='addr:street' v='Byer Street' />
  </node>
  <node id='-517490' action='modify' lat='-33.88737229922' lon='151.09224880918'>
    <tag k='addr:housenumber' v='1/320A-338' />
    <tag k='addr:street' v='Liverpool Road' />
  </node>
  <node id='-517491' action='modify' lat='-33.88684875225' lon='151.09362959759'>
    <tag k='addr:housenumber' v='22/2-4' />
    <tag k='addr:street' v='Byer Street' />
  </node>
  <node id='-517492' action='modify' lat='-33.88737229922' lon='151.09224880918'>
    <tag k='addr:housenumber' v='2/320A-338' />
    <tag k='addr:street' v='Liverpool Road' />
  </node>
  <node id='-517493' action='modify' lat='-33.88684875225' lon='151.09362959759'>
    <tag k='addr:housenumber' v='23/2-4' />
    <tag k='addr:street' v='Byer Street' />
  </node>
  <node id='-517494' action='modify' lat='-33.88737229922' lon='151.09224880918'>
    <tag k='addr:housenumber' v='3/320A-338' />
    <tag k='addr:street' v='Liverpool Road' />
  </node>
  <node id='-517495' action='modify' lat='-33.88684875225' lon='151.09362959759'>
    <tag k='addr:housenumber' v='24/2-4' />
    <tag k='addr:street' v='Byer Street' />
  </node>
  <node id='-517496' action='modify' lat='-33.88737229922' lon='151.09224880918'>
    <tag k='addr:housenumber' v='4/320A-338' />
    <tag k='addr:street' v='Liverpool Road' />
  </node>
  <node id='-517497' action='modify' lat='-33.88594004322' lon='151.09471562949'>
    <tag k='addr:housenumber' v='12/260-264' />
    <tag k='addr:street' v='Liverpool Road' />
  </node>
  <node id='-517498' action='modify' lat='-33.88684875225' lon='151.09362959759'>
    <tag k='addr:housenumber' v='17/2-4' />
    <tag k='addr:street' v='Byer Street' />
  </node>
  <node id='-517499' action='modify' lat='-33.88594004322' lon='151.09471562949'>
    <tag k='addr:housenumber' v='13/260-264' />
    <tag k='addr:street' v='Liverpool Road' />
  </node>
  <node id='-517500' action='modify' lat='-33.88684875225' lon='151.09362959759'>
    <tag k='addr:housenumber' v='18/2-4' />
    <tag k='addr:street' v='Byer Street' />
  </node>
  <node id='-517501' action='modify' lat='-33.88594004322' lon='151.09471562949'>
    <tag k='addr:housenumber' v='14/260-264' />
    <tag k='addr:street' v='Liverpool Road' />
  </node>
  <node id='-517502' action='modify' lat='-33.88684875225' lon='151.09362959759'>
    <tag k='addr:housenumber' v='19/2-4' />
    <tag k='addr:street' v='Byer Street' />
  </node>
  <node id='-517503' action='modify' lat='-33.88594004322' lon='151.09471562949'>
    <tag k='addr:housenumber' v='260-264' />
    <tag k='addr:street' v='Liverpool Road' />
  </node>
  <node id='-517504' action='modify' lat='-33.88684875225' lon='151.09362959759'>
    <tag k='addr:housenumber' v='20/2-4' />
    <tag k='addr:street' v='Byer Street' />
  </node>
  <node id='-517505' action='modify' lat='-33.88594004322' lon='151.09471562949'>
    <tag k='addr:housenumber' v='8/260-264' />
    <tag k='addr:street' v='Liverpool Road' />
  </node>
  <node id='-517506' action='modify' lat='-33.88684875225' lon='151.09362959759'>
    <tag k='addr:housenumber' v='13/2-4' />
    <tag k='addr:street' v='Byer Street' />
  </node>
  <node id='-517507' action='modify' lat='-33.88594004322' lon='151.09471562949'>
    <tag k='addr:housenumber' v='9/260-264' />
    <tag k='addr:street' v='Liverpool Road' />
  </node>
  <node id='-517508' action='modify' lat='-33.88684875225' lon='151.09362959759'>
    <tag k='addr:housenumber' v='14/2-4' />
    <tag k='addr:street' v='Byer Street' />
  </node>
  <node id='-517509' action='modify' lat='-33.88594004322' lon='151.09471562949'>
    <tag k='addr:housenumber' v='10/260-264' />
    <tag k='addr:street' v='Liverpool Road' />
  </node>
  <node id='-517510' action='modify' lat='-33.88684875225' lon='151.09362959759'>
    <tag k='addr:housenumber' v='15/2-4' />
    <tag k='addr:street' v='Byer Street' />
  </node>
  <node id='-517511' action='modify' lat='-33.88594004322' lon='151.09471562949'>
    <tag k='addr:housenumber' v='11/260-264' />
    <tag k='addr:street' v='Liverpool Road' />
  </node>
  <node id='-517512' action='modify' lat='-33.88684875225' lon='151.09362959759'>
    <tag k='addr:housenumber' v='16/2-4' />
    <tag k='addr:street' v='Byer Street' />
  </node>
  <node id='-517513' action='modify' lat='-33.88594004322' lon='151.09471562949'>
    <tag k='addr:housenumber' v='4/260-264' />
    <tag k='addr:street' v='Liverpool Road' />
  </node>
  <node id='-517514' action='modify' lat='-33.88684875225' lon='151.09362959759'>
    <tag k='addr:housenumber' v='9/2-4' />
    <tag k='addr:street' v='Byer Street' />
  </node>
  <node id='-517515' action='modify' lat='-33.88594004322' lon='151.09471562949'>
    <tag k='addr:housenumber' v='5/260-264' />
    <tag k='addr:street' v='Liverpool Road' />
  </node>
  <node id='-517516' action='modify' lat='-33.88684875225' lon='151.09362959759'>
    <tag k='addr:housenumber' v='10/2-4' />
    <tag k='addr:street' v='Byer Street' />
  </node>
  <node id='-517517' action='modify' lat='-33.88594004322' lon='151.09471562949'>
    <tag k='addr:housenumber' v='6/260-264' />
    <tag k='addr:street' v='Liverpool Road' />
  </node>
  <node id='-517518' action='modify' lat='-33.88684875225' lon='151.09362959759'>
    <tag k='addr:housenumber' v='11/2-4' />
    <tag k='addr:street' v='Byer Street' />
  </node>
  <node id='-517519' action='modify' lat='-33.88594004322' lon='151.09471562949'>
    <tag k='addr:housenumber' v='7/260-264' />
    <tag k='addr:street' v='Liverpool Road' />
  </node>
  <node id='-517520' action='modify' lat='-33.88684875225' lon='151.09362959759'>
    <tag k='addr:housenumber' v='12/2-4' />
    <tag k='addr:street' v='Byer Street' />
  </node>
  <node id='-517521' action='modify' lat='-33.88684875225' lon='151.09362959759'>
    <tag k='addr:housenumber' v='5/2-4' />
    <tag k='addr:street' v='Byer Street' />
  </node>
  <node id='-517522' action='modify' lat='-33.88594004322' lon='151.09471562949'>
    <tag k='addr:housenumber' v='1/260-264' />
    <tag k='addr:street' v='Liverpool Road' />
  </node>
  <node id='-517523' action='modify' lat='-33.88684875225' lon='151.09362959759'>
    <tag k='addr:housenumber' v='6/2-4' />
    <tag k='addr:street' v='Byer Street' />
  </node>
  <node id='-517524' action='modify' lat='-33.88594004322' lon='151.09471562949'>
    <tag k='addr:housenumber' v='2/260-264' />
    <tag k='addr:street' v='Liverpool Road' />
  </node>
  <node id='-517525' action='modify' lat='-33.88684875225' lon='151.09362959759'>
    <tag k='addr:housenumber' v='7/2-4' />
    <tag k='addr:street' v='Byer Street' />
  </node>
  <node id='-517526' action='modify' lat='-33.88594004322' lon='151.09471562949'>
    <tag k='addr:housenumber' v='3/260-264' />
    <tag k='addr:street' v='Liverpool Road' />
  </node>
  <node id='-517527' action='modify' lat='-33.88684875225' lon='151.09362959759'>
    <tag k='addr:housenumber' v='8/2-4' />
    <tag k='addr:street' v='Byer Street' />
  </node>
  <node id='-517528' action='modify' lat='-33.88684875225' lon='151.09362959759'>
    <tag k='addr:housenumber' v='1/2-4' />
    <tag k='addr:street' v='Byer Street' />
  </node>
  <node id='-517529' action='modify' lat='-33.88684875225' lon='151.09362959759'>
    <tag k='addr:housenumber' v='2/2-4' />
    <tag k='addr:street' v='Byer Street' />
  </node>
  <node id='-517530' action='modify' lat='-33.88684875225' lon='151.09362959759'>
    <tag k='addr:housenumber' v='3/2-4' />
    <tag k='addr:street' v='Byer Street' />
  </node>
  <node id='-517531' action='modify' lat='-33.88684875225' lon='151.09362959759'>
    <tag k='addr:housenumber' v='3A/2-4' />
    <tag k='addr:street' v='Byer Street' />
  </node>
  <node id='-517532' action='modify' lat='-33.88786181943' lon='151.09859067596'>
    <tag k='addr:housenumber' v='18/2A' />
    <tag k='addr:street' v='Carlyle Street' />
  </node>
  <node id='-517533' action='modify' lat='-33.88786181943' lon='151.09859067596'>
    <tag k='addr:housenumber' v='1/2A' />
    <tag k='addr:street' v='Carlyle Street' />
  </node>
  <node id='-517534' action='modify' lat='-33.88786181943' lon='151.09859067596'>
    <tag k='addr:housenumber' v='2A' />
    <tag k='addr:street' v='Carlyle Street' />
  </node>
  <node id='-517535' action='modify' lat='-33.88786181943' lon='151.09859067596'>
    <tag k='addr:housenumber' v='14/2A' />
    <tag k='addr:street' v='Carlyle Street' />
  </node>
  <node id='-517536' action='modify' lat='-33.88786181943' lon='151.09859067596'>
    <tag k='addr:housenumber' v='15/2A' />
    <tag k='addr:street' v='Carlyle Street' />
  </node>
  <node id='-517537' action='modify' lat='-33.88786181943' lon='151.09859067596'>
    <tag k='addr:housenumber' v='16/2A' />
    <tag k='addr:street' v='Carlyle Street' />
  </node>
  <node id='-517538' action='modify' lat='-33.88786181943' lon='151.09859067596'>
    <tag k='addr:housenumber' v='17/2A' />
    <tag k='addr:street' v='Carlyle Street' />
  </node>
  <node id='-517539' action='modify' lat='-33.88786181943' lon='151.09859067596'>
    <tag k='addr:housenumber' v='10/2A' />
    <tag k='addr:street' v='Carlyle Street' />
  </node>
  <node id='-517540' action='modify' lat='-33.88786181943' lon='151.09859067596'>
    <tag k='addr:housenumber' v='36/2A' />
    <tag k='addr:street' v='Carlyle Street' />
  </node>
  <node id='-517541' action='modify' lat='-33.88786181943' lon='151.09859067596'>
    <tag k='addr:housenumber' v='12/2A' />
    <tag k='addr:street' v='Carlyle Street' />
  </node>
  <node id='-517542' action='modify' lat='-33.88786181943' lon='151.09859067596'>
    <tag k='addr:housenumber' v='13/2A' />
    <tag k='addr:street' v='Carlyle Street' />
  </node>
  <node id='-517543' action='modify' lat='-33.88786181943' lon='151.09859067596'>
    <tag k='addr:housenumber' v='6/2A' />
    <tag k='addr:street' v='Carlyle Street' />
  </node>
  <node id='-517544' action='modify' lat='-33.88786181943' lon='151.09859067596'>
    <tag k='addr:housenumber' v='7/2A' />
    <tag k='addr:street' v='Carlyle Street' />
  </node>
  <node id='-517545' action='modify' lat='-33.88786181943' lon='151.09859067596'>
    <tag k='addr:housenumber' v='8/2A' />
    <tag k='addr:street' v='Carlyle Street' />
  </node>
  <node id='-517546' action='modify' lat='-33.88786181943' lon='151.09859067596'>
    <tag k='addr:housenumber' v='9/2A' />
    <tag k='addr:street' v='Carlyle Street' />
  </node>
  <node id='-517547' action='modify' lat='-33.88786181943' lon='151.09859067596'>
    <tag k='addr:housenumber' v='2/2A' />
    <tag k='addr:street' v='Carlyle Street' />
  </node>
  <node id='-517548' action='modify' lat='-33.88786181943' lon='151.09859067596'>
    <tag k='addr:housenumber' v='3/2A' />
    <tag k='addr:street' v='Carlyle Street' />
  </node>
  <node id='-517549' action='modify' lat='-33.88786181943' lon='151.09859067596'>
    <tag k='addr:housenumber' v='4/2A' />
    <tag k='addr:street' v='Carlyle Street' />
  </node>
  <node id='-517550' action='modify' lat='-33.88786181943' lon='151.09859067596'>
    <tag k='addr:housenumber' v='5/2A' />
    <tag k='addr:street' v='Carlyle Street' />
  </node>
  <node id='-517551' action='modify' lat='-33.8914496024' lon='151.0938004311'>
    <tag k='addr:housenumber' v='2/4-6' />
    <tag k='addr:street' v='King Street' />
  </node>
  <node id='-517552' action='modify' lat='-33.8914496024' lon='151.0938004311'>
    <tag k='addr:housenumber' v='3/4-6' />
    <tag k='addr:street' v='King Street' />
  </node>
  <node id='-517553' action='modify' lat='-33.8914496024' lon='151.0938004311'>
    <tag k='addr:housenumber' v='4/4-6' />
    <tag k='addr:street' v='King Street' />
  </node>
  <node id='-517554' action='modify' lat='-33.8914496024' lon='151.0938004311'>
    <tag k='addr:housenumber' v='4-6' />
    <tag k='addr:street' v='King Street' />
  </node>
  <node id='-517555' action='modify' lat='-33.89287607045' lon='151.10018128256'>
    <tag k='addr:housenumber' v='2/97' />
    <tag k='addr:street' v='Burwood Road' />
  </node>
  <node id='-517556' action='modify' lat='-33.89287607045' lon='151.10018128256'>
    <tag k='addr:housenumber' v='3/97' />
    <tag k='addr:street' v='Burwood Road' />
  </node>
  <node id='-517557' action='modify' lat='-33.89287607045' lon='151.10018128256'>
    <tag k='addr:housenumber' v='97' />
    <tag k='addr:street' v='Burwood Road' />
  </node>
  <node id='-517558' action='modify' lat='-33.8914496024' lon='151.0938004311'>
    <tag k='addr:housenumber' v='1/4-6' />
    <tag k='addr:street' v='King Street' />
  </node>
  <node id='-517559' action='modify' lat='-33.89287607045' lon='151.10018128256'>
    <tag k='addr:housenumber' v='1/97' />
    <tag k='addr:street' v='Burwood Road' />
  </node>
  <node id='-517560' action='modify' lat='-33.88773818519' lon='151.099209259'>
    <tag k='addr:housenumber' v='3/1' />
    <tag k='addr:street' v='Heydon Street' />
  </node>
  <node id='-517561' action='modify' lat='-33.88773818519' lon='151.099209259'>
    <tag k='addr:housenumber' v='1' />
    <tag k='addr:street' v='Heydon Street' />
  </node>
  <node id='-517562' action='modify' lat='-33.89017206503' lon='151.10006686663'>
    <tag k='addr:housenumber' v='38' />
    <tag k='addr:street' v='Baker Street' />
  </node>
  <node id='-517563' action='modify' lat='-33.88727392417' lon='151.09264379395'>
    <tag k='addr:housenumber' v='15/1-3' />
    <tag k='addr:street' v='Byer Street' />
  </node>
  <node id='-517564' action='modify' lat='-33.88773818519' lon='151.099209259'>
    <tag k='addr:housenumber' v='1/1' />
    <tag k='addr:street' v='Heydon Street' />
  </node>
  <node id='-517565' action='modify' lat='-33.88727392417' lon='151.09264379395'>
    <tag k='addr:housenumber' v='1-3' />
    <tag k='addr:street' v='Byer Street' />
  </node>
  <node id='-517566' action='modify' lat='-33.88773818519' lon='151.099209259'>
    <tag k='addr:housenumber' v='2/1' />
    <tag k='addr:street' v='Heydon Street' />
  </node>
  <node id='-517567' action='modify' lat='-33.88773818519' lon='151.099209259'>
    <tag k='addr:housenumber' v='4/1' />
    <tag k='addr:street' v='Heydon Street' />
  </node>
  <node id='-517568' action='modify' lat='-33.89017206503' lon='151.10006686663'>
    <tag k='addr:housenumber' v='4/38' />
    <tag k='addr:street' v='Baker Street' />
  </node>
  <node id='-517569' action='modify' lat='-33.88727392417' lon='151.09264379395'>
    <tag k='addr:housenumber' v='11/1-3' />
    <tag k='addr:street' v='Byer Street' />
  </node>
  <node id='-517570' action='modify' lat='-33.89258982202' lon='151.0919318039'>
    <tag k='addr:housenumber' v='104-106' />
    <tag k='addr:street' v='Mitchell Street' />
  </node>
  <node id='-517571' action='modify' lat='-33.89017206503' lon='151.10006686663'>
    <tag k='addr:housenumber' v='3/38' />
    <tag k='addr:street' v='Baker Street' />
  </node>
  <node id='-517572' action='modify' lat='-33.88727392417' lon='151.09264379395'>
    <tag k='addr:housenumber' v='12/1-3' />
    <tag k='addr:street' v='Byer Street' />
  </node>
  <node id='-517573' action='modify' lat='-33.89017206503' lon='151.10006686663'>
    <tag k='addr:housenumber' v='2/38' />
    <tag k='addr:street' v='Baker Street' />
  </node>
  <node id='-517574' action='modify' lat='-33.88727392417' lon='151.09264379395'>
    <tag k='addr:housenumber' v='13/1-3' />
    <tag k='addr:street' v='Byer Street' />
  </node>
  <node id='-517575' action='modify' lat='-33.89017206503' lon='151.10006686663'>
    <tag k='addr:housenumber' v='1/38' />
    <tag k='addr:street' v='Baker Street' />
  </node>
  <node id='-517576' action='modify' lat='-33.88727392417' lon='151.09264379395'>
    <tag k='addr:housenumber' v='14/1-3' />
    <tag k='addr:street' v='Byer Street' />
  </node>
  <node id='-517577' action='modify' lat='-33.88727392417' lon='151.09264379395'>
    <tag k='addr:housenumber' v='7/1-3' />
    <tag k='addr:street' v='Byer Street' />
  </node>
  <node id='-517578' action='modify' lat='-33.89258982202' lon='151.0919318039'>
    <tag k='addr:housenumber' v='4/104' />
    <tag k='addr:street' v='Mitchell Street' />
  </node>
  <node id='-517579' action='modify' lat='-33.88727392417' lon='151.09264379395'>
    <tag k='addr:housenumber' v='8/1-3' />
    <tag k='addr:street' v='Byer Street' />
  </node>
  <node id='-517580' action='modify' lat='-33.89258982202' lon='151.0919318039'>
    <tag k='addr:housenumber' v='3/104' />
    <tag k='addr:street' v='Mitchell Street' />
  </node>
  <node id='-517581' action='modify' lat='-33.88727392417' lon='151.09264379395'>
    <tag k='addr:housenumber' v='9/1-3' />
    <tag k='addr:street' v='Byer Street' />
  </node>
  <node id='-517582' action='modify' lat='-33.89258982202' lon='151.0919318039'>
    <tag k='addr:housenumber' v='2/104' />
    <tag k='addr:street' v='Mitchell Street' />
  </node>
  <node id='-517583' action='modify' lat='-33.89017206503' lon='151.10006686663'>
    <tag k='addr:housenumber' v='5/38' />
    <tag k='addr:street' v='Baker Street' />
  </node>
  <node id='-517584' action='modify' lat='-33.88727392417' lon='151.09264379395'>
    <tag k='addr:housenumber' v='10/1-3' />
    <tag k='addr:street' v='Byer Street' />
  </node>
  <node id='-517585' action='modify' lat='-33.89258982202' lon='151.0919318039'>
    <tag k='addr:housenumber' v='1/104' />
    <tag k='addr:street' v='Mitchell Street' />
  </node>
  <node id='-517586' action='modify' lat='-33.88727392417' lon='151.09264379395'>
    <tag k='addr:housenumber' v='3/1-3' />
    <tag k='addr:street' v='Byer Street' />
  </node>
  <node id='-517587' action='modify' lat='-33.89258982202' lon='151.0919318039'>
    <tag k='addr:housenumber' v='7/29-31' />
    <tag k='addr:street' v='King Street' />
  </node>
  <node id='-517588' action='modify' lat='-33.88727392417' lon='151.09264379395'>
    <tag k='addr:housenumber' v='4/1-3' />
    <tag k='addr:street' v='Byer Street' />
  </node>
  <node id='-517589' action='modify' lat='-33.89258982202' lon='151.0919318039'>
    <tag k='addr:housenumber' v='6/104' />
    <tag k='addr:street' v='Mitchell Street' />
  </node>
  <node id='-517590' action='modify' lat='-33.88727392417' lon='151.09264379395'>
    <tag k='addr:housenumber' v='5/1-3' />
    <tag k='addr:street' v='Byer Street' />
  </node>
  <node id='-517591' action='modify' lat='-33.88727392417' lon='151.09264379395'>
    <tag k='addr:housenumber' v='6/1-3' />
    <tag k='addr:street' v='Byer Street' />
  </node>
  <node id='-517592' action='modify' lat='-33.89258982202' lon='151.0919318039'>
    <tag k='addr:housenumber' v='5/104' />
    <tag k='addr:street' v='Mitchell Street' />
  </node>
  <node id='-517593' action='modify' lat='-33.89258982202' lon='151.0919318039'>
    <tag k='addr:housenumber' v='11/29-31' />
    <tag k='addr:street' v='King Street' />
  </node>
  <node id='-517594' action='modify' lat='-33.89258982202' lon='151.0919318039'>
    <tag k='addr:housenumber' v='10/29-31' />
    <tag k='addr:street' v='King Street' />
  </node>
  <node id='-517595' action='modify' lat='-33.88727392417' lon='151.09264379395'>
    <tag k='addr:housenumber' v='1/1-3' />
    <tag k='addr:street' v='Byer Street' />
  </node>
  <node id='-517596' action='modify' lat='-33.89258982202' lon='151.0919318039'>
    <tag k='addr:housenumber' v='9/29-31' />
    <tag k='addr:street' v='King Street' />
  </node>
  <node id='-517597' action='modify' lat='-33.88727392417' lon='151.09264379395'>
    <tag k='addr:housenumber' v='2/1-3' />
    <tag k='addr:street' v='Byer Street' />
  </node>
  <node id='-517598' action='modify' lat='-33.89258982202' lon='151.0919318039'>
    <tag k='addr:housenumber' v='8/29-31' />
    <tag k='addr:street' v='King Street' />
  </node>
  <node id='-517599' action='modify' lat='-33.89258982202' lon='151.0919318039'>
    <tag k='addr:housenumber' v='15/29-31' />
    <tag k='addr:street' v='King Street' />
  </node>
  <node id='-517600' action='modify' lat='-33.89258982202' lon='151.0919318039'>
    <tag k='addr:housenumber' v='14/29-31' />
    <tag k='addr:street' v='King Street' />
  </node>
  <node id='-517601' action='modify' lat='-33.89258982202' lon='151.0919318039'>
    <tag k='addr:housenumber' v='13/29-31' />
    <tag k='addr:street' v='King Street' />
  </node>
  <node id='-517602' action='modify' lat='-33.89258982202' lon='151.0919318039'>
    <tag k='addr:housenumber' v='12/29-31' />
    <tag k='addr:street' v='King Street' />
  </node>
  <node id='-517603' action='modify' lat='-33.89258982202' lon='151.0919318039'>
    <tag k='addr:housenumber' v='19/29-31' />
    <tag k='addr:street' v='King Street' />
  </node>
  <node id='-517604' action='modify' lat='-33.89258982202' lon='151.0919318039'>
    <tag k='addr:housenumber' v='18/29-31' />
    <tag k='addr:street' v='King Street' />
  </node>
  <node id='-517605' action='modify' lat='-33.89258982202' lon='151.0919318039'>
    <tag k='addr:housenumber' v='17/29-31' />
    <tag k='addr:street' v='King Street' />
  </node>
  <node id='-517606' action='modify' lat='-33.89258982202' lon='151.0919318039'>
    <tag k='addr:housenumber' v='16/29-31' />
    <tag k='addr:street' v='King Street' />
  </node>
  <node id='-517607' action='modify' lat='-33.89258982202' lon='151.0919318039'>
    <tag k='addr:housenumber' v='23/29-31' />
    <tag k='addr:street' v='King Street' />
  </node>
  <node id='-517608' action='modify' lat='-33.89258982202' lon='151.0919318039'>
    <tag k='addr:housenumber' v='22/29-31' />
    <tag k='addr:street' v='King Street' />
  </node>
  <node id='-517609' action='modify' lat='-33.89258982202' lon='151.0919318039'>
    <tag k='addr:housenumber' v='21/29-31' />
    <tag k='addr:street' v='King Street' />
  </node>
  <node id='-517610' action='modify' lat='-33.89258982202' lon='151.0919318039'>
    <tag k='addr:housenumber' v='20/29-31' />
    <tag k='addr:street' v='King Street' />
  </node>
  <node id='-517611' action='modify' lat='-33.89258982202' lon='151.0919318039'>
    <tag k='addr:housenumber' v='27/29-31' />
    <tag k='addr:street' v='King Street' />
  </node>
  <node id='-517612' action='modify' lat='-33.89258982202' lon='151.0919318039'>
    <tag k='addr:housenumber' v='26/29-31' />
    <tag k='addr:street' v='King Street' />
  </node>
  <node id='-517613' action='modify' lat='-33.89258982202' lon='151.0919318039'>
    <tag k='addr:housenumber' v='25/29-31' />
    <tag k='addr:street' v='King Street' />
  </node>
  <node id='-517614' action='modify' lat='-33.89258982202' lon='151.0919318039'>
    <tag k='addr:housenumber' v='24/29-31' />
    <tag k='addr:street' v='King Street' />
  </node>
  <node id='-517615' action='modify' lat='-33.89258982202' lon='151.0919318039'>
    <tag k='addr:housenumber' v='28/29-31' />
    <tag k='addr:street' v='King Street' />
  </node>
</osm>
