<?xml version='1.0' encoding='UTF-8'?>
<osm version='0.6' generator='JOSM'>
  <node id='-159730' action='modify' visible='true' lat='-33.72102846887' lon='150.82938037679'>
    <tag k='addr:housenumber' v='57' />
    <tag k='addr:street' v='Main Street' />
  </node>
  <node id='-159731' action='modify' visible='true' lat='-33.72102846887' lon='150.82938037679'>
    <tag k='addr:housenumber' v='53' />
    <tag k='addr:street' v='Eagle Street' />
  </node>
  <node id='-159732' action='modify' visible='true' lat='-33.72102846887' lon='150.82938037679'>
    <tag k='addr:housenumber' v='64' />
    <tag k='addr:street' v='Main Street' />
  </node>
  <node id='-159733' action='modify' visible='true' lat='-33.72102846887' lon='150.82938037679'>
    <tag k='addr:housenumber' v='5' />
    <tag k='addr:street' v='Canary Street' />
  </node>
  <node id='-159734' action='modify' visible='true' lat='-33.72102846887' lon='150.82938037679'>
    <tag k='addr:housenumber' v='70' />
    <tag k='addr:street' v='Canary Street' />
  </node>
  <node id='-159735' action='modify' visible='true' lat='-33.72102846887' lon='150.82938037679'>
    <tag k='addr:housenumber' v='68' />
    <tag k='addr:street' v='Canary Street' />
  </node>
  <node id='-159736' action='modify' visible='true' lat='-33.72102846887' lon='150.82938037679'>
    <tag k='addr:housenumber' v='14' />
    <tag k='addr:street' v='Canary Street' />
  </node>
  <node id='-159737' action='modify' visible='true' lat='-33.72102846887' lon='150.82938037679'>
    <tag k='addr:housenumber' v='76' />
    <tag k='addr:street' v='Canary Street' />
  </node>
  <node id='-159738' action='modify' visible='true' lat='-33.72102846887' lon='150.82938037679'>
    <tag k='addr:housenumber' v='230' />
    <tag k='addr:street' v='Dove Street' />
  </node>
  <node id='-159739' action='modify' visible='true' lat='-33.72102846887' lon='150.82938037679'>
    <tag k='addr:housenumber' v='215' />
    <tag k='addr:street' v='Dove Street' />
  </node>
  <node id='-159740' action='modify' visible='true' lat='-33.72102846887' lon='150.82938037679'>
    <tag k='addr:housenumber' v='26' />
    <tag k='addr:street' v='Cockatoo Street' />
  </node>
  <node id='-159741' action='modify' visible='true' lat='-33.72102846887' lon='150.82938037679'>
    <tag k='addr:housenumber' v='234' />
    <tag k='addr:street' v='Dove Street' />
  </node>
  <node id='-159742' action='modify' visible='true' lat='-33.72102846887' lon='150.82938037679'>
    <tag k='addr:housenumber' v='239' />
    <tag k='addr:street' v='Dove Street' />
  </node>
  <node id='-159743' action='modify' visible='true' lat='-33.72102846887' lon='150.82938037679'>
    <tag k='addr:housenumber' v='101' />
    <tag k='addr:street' v='Magpie Street' />
  </node>
  <node id='-159744' action='modify' visible='true' lat='-33.72102846887' lon='150.82938037679'>
    <tag k='addr:housenumber' v='82' />
    <tag k='addr:street' v='Finch Street' />
  </node>
  <node id='-159745' action='modify' visible='true' lat='-33.72102846887' lon='150.82938037679'>
    <tag k='addr:housenumber' v='74' />
    <tag k='addr:street' v='Canary Street' />
  </node>
  <node id='-159746' action='modify' visible='true' lat='-33.72102846887' lon='150.82938037679'>
    <tag k='addr:housenumber' v='100' />
    <tag k='addr:street' v='Robin Street' />
  </node>
  <node id='-159747' action='modify' visible='true' lat='-33.72102846887' lon='150.82938037679'>
    <tag k='addr:housenumber' v='119' />
    <tag k='addr:street' v='Robin Street' />
  </node>
  <node id='-159748' action='modify' visible='true' lat='-33.72102846887' lon='150.82938037679'>
    <tag k='addr:housenumber' v='103' />
    <tag k='addr:street' v='Magpie Street' />
  </node>
  <node id='-159749' action='modify' visible='true' lat='-33.72102846887' lon='150.82938037679'>
    <tag k='addr:housenumber' v='8' />
    <tag k='addr:street' v='Canary Street' />
  </node>
  <node id='-159750' action='modify' visible='true' lat='-33.72102846887' lon='150.82938037679'>
    <tag k='addr:housenumber' v='102' />
    <tag k='addr:street' v='Magpie Street' />
  </node>
  <node id='-159751' action='modify' visible='true' lat='-33.72102846887' lon='150.82938037679'>
    <tag k='addr:housenumber' v='161' />
    <tag k='addr:street' v='Main Street' />
  </node>
  <node id='-159752' action='modify' visible='true' lat='-33.72102846887' lon='150.82938037679'>
    <tag k='addr:housenumber' v='106' />
    <tag k='addr:street' v='Magpie Street' />
  </node>
  <node id='-159753' action='modify' visible='true' lat='-33.72102846887' lon='150.82938037679'>
    <tag k='addr:housenumber' v='131' />
    <tag k='addr:street' v='Sparrow Street' />
  </node>
  <node id='-159754' action='modify' visible='true' lat='-33.72102846887' lon='150.82938037679'>
    <tag k='addr:housenumber' v='105' />
    <tag k='addr:street' v='Magpie Street' />
  </node>
  <node id='-159755' action='modify' visible='true' lat='-33.72102846887' lon='150.82938037679'>
    <tag k='addr:housenumber' v='220' />
    <tag k='addr:street' v='Dove Street' />
  </node>
  <node id='-159756' action='modify' visible='true' lat='-33.72102846887' lon='150.82938037679'>
    <tag k='addr:housenumber' v='108' />
    <tag k='addr:street' v='Parrot Street' />
  </node>
  <node id='-159757' action='modify' visible='true' lat='-33.72102846887' lon='150.82938037679'>
    <tag k='addr:housenumber' v='209' />
    <tag k='addr:street' v='Dove Street' />
  </node>
  <node id='-159758' action='modify' visible='true' lat='-33.72102846887' lon='150.82938037679'>
    <tag k='addr:housenumber' v='107' />
    <tag k='addr:street' v='Magpie Street' />
  </node>
  <node id='-159759' action='modify' visible='true' lat='-33.72102846887' lon='150.82938037679'>
    <tag k='addr:housenumber' v='25' />
    <tag k='addr:street' v='Cockatoo Street' />
  </node>
  <node id='-159760' action='modify' visible='true' lat='-33.72102846887' lon='150.82938037679'>
    <tag k='addr:housenumber' v='110' />
    <tag k='addr:street' v='Parrot Street' />
  </node>
  <node id='-159761' action='modify' visible='true' lat='-33.72102846887' lon='150.82938037679'>
    <tag k='addr:housenumber' v='233' />
    <tag k='addr:street' v='Dove Street' />
  </node>
  <node id='-159762' action='modify' visible='true' lat='-33.72102846887' lon='150.82938037679'>
    <tag k='addr:housenumber' v='109' />
    <tag k='addr:street' v='Parrot Street' />
  </node>
  <node id='-159763' action='modify' visible='true' lat='-33.72102846887' lon='150.82938037679'>
    <tag k='addr:housenumber' v='62' />
    <tag k='addr:street' v='Main Street' />
  </node>
  <node id='-159764' action='modify' visible='true' lat='-33.72102846887' lon='150.82938037679'>
    <tag k='addr:housenumber' v='114' />
    <tag k='addr:street' v='Parrot Street' />
  </node>
  <node id='-159765' action='modify' visible='true' lat='-33.72102846887' lon='150.82938037679'>
    <tag k='addr:housenumber' v='51' />
    <tag k='addr:street' v='Eagle Street' />
  </node>
  <node id='-159766' action='modify' visible='true' lat='-33.72102846887' lon='150.82938037679'>
    <tag k='addr:housenumber' v='112' />
    <tag k='addr:street' v='Parrot Street' />
  </node>
  <node id='-159767' action='modify' visible='true' lat='-33.72102846887' lon='150.82938037679'>
    <tag k='addr:housenumber' v='87' />
    <tag k='addr:street' v='Finch Street' />
  </node>
  <node id='-159768' action='modify' visible='true' lat='-33.72102846887' lon='150.82938037679'>
    <tag k='addr:housenumber' v='117' />
    <tag k='addr:street' v='Robin Street' />
  </node>
  <node id='-159769' action='modify' visible='true' lat='-33.72102846887' lon='150.82938037679'>
    <tag k='addr:housenumber' v='75' />
    <tag k='addr:street' v='Canary Street' />
  </node>
  <node id='-159770' action='modify' visible='true' lat='-33.72102846887' lon='150.82938037679'>
    <tag k='addr:housenumber' v='115' />
    <tag k='addr:street' v='Robin Street' />
  </node>
  <node id='-159771' action='modify' visible='true' lat='-33.72102846887' lon='150.82938037679'>
    <tag k='addr:housenumber' v='38' />
    <tag k='addr:street' v='Cockatoo Street' />
  </node>
  <node id='-159772' action='modify' visible='true' lat='-33.72102846887' lon='150.82938037679'>
    <tag k='addr:housenumber' v='121' />
    <tag k='addr:street' v='Robin Street' />
  </node>
  <node id='-159773' action='modify' visible='true' lat='-33.72102846887' lon='150.82938037679'>
    <tag k='addr:housenumber' v='118' />
    <tag k='addr:street' v='Parrot Street' />
  </node>
  <node id='-159774' action='modify' visible='true' lat='-33.72102846887' lon='150.82938037679'>
    <tag k='addr:housenumber' v='153' />
    <tag k='addr:street' v='Sparrow Street' />
  </node>
  <node id='-159775' action='modify' visible='true' lat='-33.72102846887' lon='150.82938037679'>
    <tag k='addr:housenumber' v='54' />
    <tag k='addr:street' v='Eagle Street' />
  </node>
  <node id='-159776' action='modify' visible='true' lat='-33.72102846887' lon='150.82938037679'>
    <tag k='addr:housenumber' v='124' />
    <tag k='addr:street' v='Robin Street' />
  </node>
  <node id='-159777' action='modify' visible='true' lat='-33.72102846887' lon='150.82938037679'>
    <tag k='addr:housenumber' v='46' />
    <tag k='addr:street' v='Canary Street' />
  </node>
  <node id='-159778' action='modify' visible='true' lat='-33.72102846887' lon='150.82938037679'>
    <tag k='addr:housenumber' v='122' />
    <tag k='addr:street' v='Robin Street' />
  </node>
  <node id='-159779' action='modify' visible='true' lat='-33.72102846887' lon='150.82938037679'>
    <tag k='addr:housenumber' v='72' />
    <tag k='addr:street' v='Canary Street' />
  </node>
  <node id='-159780' action='modify' visible='true' lat='-33.72102846887' lon='150.82938037679'>
    <tag k='addr:housenumber' v='127' />
    <tag k='addr:street' v='Robin Street' />
  </node>
  <node id='-159781' action='modify' visible='true' lat='-33.72102846887' lon='150.82938037679'>
    <tag k='addr:housenumber' v='63' />
    <tag k='addr:street' v='Main Street' />
  </node>
  <node id='-159782' action='modify' visible='true' lat='-33.72102846887' lon='150.82938037679'>
    <tag k='addr:housenumber' v='125' />
    <tag k='addr:street' v='Robin Street' />
  </node>
  <node id='-159783' action='modify' visible='true' lat='-33.72102846887' lon='150.82938037679'>
    <tag k='addr:housenumber' v='92' />
    <tag k='addr:street' v='Finch Street' />
  </node>
  <node id='-159784' action='modify' visible='true' lat='-33.72102846887' lon='150.82938037679'>
    <tag k='addr:housenumber' v='136' />
    <tag k='addr:street' v='Sparrow Street' />
  </node>
  <node id='-159785' action='modify' visible='true' lat='-33.72102846887' lon='150.82938037679'>
    <tag k='addr:housenumber' v='81' />
    <tag k='addr:street' v='Finch Street' />
  </node>
  <node id='-159786' action='modify' visible='true' lat='-33.72102846887' lon='150.82938037679'>
    <tag k='addr:housenumber' v='128' />
    <tag k='addr:street' v='Robin Street' />
  </node>
  <node id='-159787' action='modify' visible='true' lat='-33.72102846887' lon='150.82938037679'>
    <tag k='addr:housenumber' v='144' />
    <tag k='addr:street' v='Sparrow Street' />
  </node>
  <node id='-159788' action='modify' visible='true' lat='-33.72102846887' lon='150.82938037679'>
    <tag k='addr:housenumber' v='104' />
    <tag k='addr:street' v='Magpie Street' />
  </node>
  <node id='-159789' action='modify' visible='true' lat='-33.72102846887' lon='150.82938037679'>
    <tag k='addr:housenumber' v='9' />
    <tag k='addr:street' v='Canary Street' />
  </node>
  <node id='-159790' action='modify' visible='true' lat='-33.72102846887' lon='150.82938037679'>
    <tag k='addr:housenumber' v='13' />
    <tag k='addr:street' v='Canary Street' />
  </node>
  <node id='-159791' action='modify' visible='true' lat='-33.72102846887' lon='150.82938037679'>
    <tag k='addr:housenumber' v='120' />
    <tag k='addr:street' v='Robin Street' />
  </node>
  <node id='-159792' action='modify' visible='true' lat='-33.72102846887' lon='150.82938037679'>
    <tag k='addr:housenumber' v='155' />
    <tag k='addr:street' v='Sparrow Street' />
  </node>
  <node id='-159793' action='modify' visible='true' lat='-33.72102846887' lon='150.82938037679'>
    <tag k='addr:housenumber' v='111' />
    <tag k='addr:street' v='Parrot Street' />
  </node>
  <node id='-159794' action='modify' visible='true' lat='-33.72102846887' lon='150.82938037679'>
    <tag k='addr:housenumber' v='145' />
    <tag k='addr:street' v='Dove Street' />
  </node>
  <node id='-159795' action='modify' visible='true' lat='-33.72102846887' lon='150.82938037679'>
    <tag k='addr:housenumber' v='157' />
    <tag k='addr:street' v='Sparrow Street' />
  </node>
  <node id='-159796' action='modify' visible='true' lat='-33.72102846887' lon='150.82938037679'>
    <tag k='addr:housenumber' v='16' />
    <tag k='addr:street' v='Canary Street' />
  </node>
  <node id='-159797' action='modify' visible='true' lat='-33.72102846887' lon='150.82938037679'>
    <tag k='addr:housenumber' v='12' />
    <tag k='addr:street' v='Canary Street' />
  </node>
  <node id='-159798' action='modify' visible='true' lat='-33.72102846887' lon='150.82938037679'>
    <tag k='addr:housenumber' v='15' />
    <tag k='addr:street' v='Canary Street' />
  </node>
  <node id='-159799' action='modify' visible='true' lat='-33.72102846887' lon='150.82938037679'>
    <tag k='addr:housenumber' v='21' />
    <tag k='addr:street' v='Canary Street' />
  </node>
  <node id='-159800' action='modify' visible='true' lat='-33.72102846887' lon='150.82938037679'>
    <tag k='addr:housenumber' v='116' />
    <tag k='addr:street' v='Robin Street' />
  </node>
  <node id='-159801' action='modify' visible='true' lat='-33.72102846887' lon='150.82938037679'>
    <tag k='addr:housenumber' v='113' />
    <tag k='addr:street' v='Parrot Street' />
  </node>
  <node id='-159802' action='modify' visible='true' lat='-33.72102846887' lon='150.82938037679'>
    <tag k='addr:housenumber' v='210' />
    <tag k='addr:street' v='Dove Street' />
  </node>
  <node id='-159803' action='modify' visible='true' lat='-33.72102846887' lon='150.82938037679'>
    <tag k='addr:housenumber' v='2' />
    <tag k='addr:street' v='Canary Street' />
  </node>
  <node id='-159804' action='modify' visible='true' lat='-33.72102846887' lon='150.82938037679'>
    <tag k='addr:housenumber' v='123' />
    <tag k='addr:street' v='Robin Street' />
  </node>
  <node id='-159805' action='modify' visible='true' lat='-33.72102846887' lon='150.82938037679'>
    <tag k='addr:housenumber' v='23' />
    <tag k='addr:street' v='Cockatoo Street' />
  </node>
  <node id='-159806' action='modify' visible='true' lat='-33.72102846887' lon='150.82938037679'>
    <tag k='addr:housenumber' v='11' />
    <tag k='addr:street' v='Canary Street' />
  </node>
  <node id='-159807' action='modify' visible='true' lat='-33.72102846887' lon='150.82938037679'>
    <tag k='addr:housenumber' v='67' />
    <tag k='addr:street' v='Canary Street' />
  </node>
  <node id='-159808' action='modify' visible='true' lat='-33.72102846887' lon='150.82938037679'>
    <tag k='addr:housenumber' v='134' />
    <tag k='addr:street' v='Sparrow Street' />
  </node>
  <node id='-159809' action='modify' visible='true' lat='-33.72102846887' lon='150.82938037679'>
    <tag k='addr:housenumber' v='126' />
    <tag k='addr:street' v='Robin Street' />
  </node>
  <node id='-159810' action='modify' visible='true' lat='-33.72102846887' lon='150.82938037679'>
    <tag k='addr:housenumber' v='132' />
    <tag k='addr:street' v='Sparrow Street' />
  </node>
  <node id='-159811' action='modify' visible='true' lat='-33.72102846887' lon='150.82938037679'>
    <tag k='addr:housenumber' v='87' />
    <tag k='addr:street' v='Magpie Street' />
  </node>
  <node id='-159812' action='modify' visible='true' lat='-33.72102846887' lon='150.82938037679'>
    <tag k='addr:housenumber' v='17' />
    <tag k='addr:street' v='Canary Street' />
  </node>
  <node id='-159813' action='modify' visible='true' lat='-33.72102846887' lon='150.82938037679'>
    <tag k='addr:housenumber' v='140' />
    <tag k='addr:street' v='Hollinsworth Road' />
  </node>
  <node id='-159814' action='modify' visible='true' lat='-33.72102846887' lon='150.82938037679'>
    <tag k='addr:housenumber' v='10' />
    <tag k='addr:street' v='Canary Street' />
  </node>
  <node id='-159815' action='modify' visible='true' lat='-33.72102846887' lon='150.82938037679'>
    <tag k='addr:housenumber' v='207' />
    <tag k='addr:street' v='Dove Street' />
  </node>
  <node id='-159816' action='modify' visible='true' lat='-33.72102846887' lon='150.82938037679'>
    <tag k='addr:housenumber' v='130' />
    <tag k='addr:street' v='Sparrow Street' />
  </node>
  <node id='-159817' action='modify' visible='true' lat='-33.72102846887' lon='150.82938037679'>
    <tag k='addr:housenumber' v='129' />
    <tag k='addr:street' v='Sparrow Street' />
  </node>
  <node id='-159818' action='modify' visible='true' lat='-33.72102846887' lon='150.82938037679'>
    <tag k='addr:housenumber' v='19' />
    <tag k='addr:street' v='Canary Street' />
  </node>
  <node id='-159819' action='modify' visible='true' lat='-33.72102846887' lon='150.82938037679'>
    <tag k='addr:housenumber' v='135' />
    <tag k='addr:street' v='Sparrow Street' />
  </node>
  <node id='-159820' action='modify' visible='true' lat='-33.72102846887' lon='150.82938037679'>
    <tag k='addr:housenumber' v='211' />
    <tag k='addr:street' v='Dove Street' />
  </node>
  <node id='-159821' action='modify' visible='true' lat='-33.72102846887' lon='150.82938037679'>
    <tag k='addr:housenumber' v='133' />
    <tag k='addr:street' v='Sparrow Street' />
  </node>
  <node id='-159822' action='modify' visible='true' lat='-33.72102846887' lon='150.82938037679'>
    <tag k='addr:housenumber' v='208' />
    <tag k='addr:street' v='Dove Street' />
  </node>
  <node id='-159823' action='modify' visible='true' lat='-33.72102846887' lon='150.82938037679'>
    <tag k='addr:housenumber' v='214' />
    <tag k='addr:street' v='Dove Street' />
  </node>
  <node id='-159824' action='modify' visible='true' lat='-33.72102846887' lon='150.82938037679'>
    <tag k='addr:housenumber' v='138' />
    <tag k='addr:street' v='Sparrow Street' />
  </node>
  <node id='-159825' action='modify' visible='true' lat='-33.72102846887' lon='150.82938037679'>
    <tag k='addr:housenumber' v='137' />
    <tag k='addr:street' v='Sparrow Street' />
  </node>
  <node id='-159826' action='modify' visible='true' lat='-33.72102846887' lon='150.82938037679'>
    <tag k='addr:housenumber' v='212' />
    <tag k='addr:street' v='Dove Street' />
  </node>
  <node id='-159827' action='modify' visible='true' lat='-33.72102846887' lon='150.82938037679'>
    <tag k='addr:housenumber' v='140' />
    <tag k='addr:street' v='Sparrow Street' />
  </node>
  <node id='-159828' action='modify' visible='true' lat='-33.72102846887' lon='150.82938037679'>
    <tag k='addr:housenumber' v='218' />
    <tag k='addr:street' v='Dove Street' />
  </node>
  <node id='-159829' action='modify' visible='true' lat='-33.72102846887' lon='150.82938037679'>
    <tag k='addr:housenumber' v='139' />
    <tag k='addr:street' v='Sparrow Street' />
  </node>
  <node id='-159830' action='modify' visible='true' lat='-33.72102846887' lon='150.82938037679'>
    <tag k='addr:housenumber' v='216' />
    <tag k='addr:street' v='Dove Street' />
  </node>
  <node id='-159831' action='modify' visible='true' lat='-33.72102846887' lon='150.82938037679'>
    <tag k='addr:housenumber' v='142' />
    <tag k='addr:street' v='Sparrow Street' />
  </node>
  <node id='-159832' action='modify' visible='true' lat='-33.72102846887' lon='150.82938037679'>
    <tag k='addr:housenumber' v='22' />
    <tag k='addr:street' v='Canary Street' />
  </node>
  <node id='-159833' action='modify' visible='true' lat='-33.72102846887' lon='150.82938037679'>
    <tag k='addr:housenumber' v='141' />
    <tag k='addr:street' v='Sparrow Street' />
  </node>
  <node id='-159834' action='modify' visible='true' lat='-33.72102846887' lon='150.82938037679'>
    <tag k='addr:housenumber' v='219' />
    <tag k='addr:street' v='Dove Street' />
  </node>
  <node id='-159835' action='modify' visible='true' lat='-33.72102846887' lon='150.82938037679'>
    <tag k='addr:housenumber' v='149' />
    <tag k='addr:street' v='Sparrow Street' />
  </node>
  <node id='-159836' action='modify' visible='true' lat='-33.72102846887' lon='150.82938037679'>
    <tag k='addr:housenumber' v='148' />
    <tag k='addr:street' v='Dove Street' />
  </node>
  <node id='-159837' action='modify' visible='true' lat='-33.72102846887' lon='150.82938037679'>
    <tag k='addr:housenumber' v='143' />
    <tag k='addr:street' v='Sparrow Street' />
  </node>
  <node id='-159838' action='modify' visible='true' lat='-33.72102846887' lon='150.82938037679'>
    <tag k='addr:housenumber' v='231' />
    <tag k='addr:street' v='Dove Street' />
  </node>
  <node id='-159839' action='modify' visible='true' lat='-33.72102846887' lon='150.82938037679'>
    <tag k='addr:housenumber' v='151' />
    <tag k='addr:street' v='Sparrow Street' />
  </node>
  <node id='-159840' action='modify' visible='true' lat='-33.72102846887' lon='150.82938037679'>
    <tag k='addr:housenumber' v='235' />
    <tag k='addr:street' v='Dove Street' />
  </node>
  <node id='-159841' action='modify' visible='true' lat='-33.72102846887' lon='150.82938037679'>
    <tag k='addr:housenumber' v='150' />
    <tag k='addr:street' v='Sparrow Street' />
  </node>
  <node id='-159842' action='modify' visible='true' lat='-33.72102846887' lon='150.82938037679'>
    <tag k='addr:housenumber' v='160' />
    <tag k='addr:street' v='Sparrow Street' />
  </node>
  <node id='-159843' action='modify' visible='true' lat='-33.72102846887' lon='150.82938037679'>
    <tag k='addr:housenumber' v='154' />
    <tag k='addr:street' v='Sparrow Street' />
  </node>
  <node id='-159844' action='modify' visible='true' lat='-33.72102846887' lon='150.82938037679'>
    <tag k='addr:housenumber' v='237' />
    <tag k='addr:street' v='Dove Street' />
  </node>
  <node id='-159845' action='modify' visible='true' lat='-33.72102846887' lon='150.82938037679'>
    <tag k='addr:housenumber' v='152' />
    <tag k='addr:street' v='Sparrow Street' />
  </node>
  <node id='-159846' action='modify' visible='true' lat='-33.72102846887' lon='150.82938037679'>
    <tag k='addr:housenumber' v='236' />
    <tag k='addr:street' v='Dove Street' />
  </node>
  <node id='-159847' action='modify' visible='true' lat='-33.72102846887' lon='150.82938037679'>
    <tag k='addr:housenumber' v='158' />
    <tag k='addr:street' v='Sparrow Street' />
  </node>
  <node id='-159848' action='modify' visible='true' lat='-33.72102846887' lon='150.82938037679'>
    <tag k='addr:housenumber' v='242' />
    <tag k='addr:street' v='Dove Street' />
  </node>
  <node id='-159849' action='modify' visible='true' lat='-33.72102846887' lon='150.82938037679'>
    <tag k='addr:housenumber' v='156' />
    <tag k='addr:street' v='Sparrow Street' />
  </node>
  <node id='-159850' action='modify' visible='true' lat='-33.72102846887' lon='150.82938037679'>
    <tag k='addr:housenumber' v='238' />
    <tag k='addr:street' v='Dove Street' />
  </node>
  <node id='-159851' action='modify' visible='true' lat='-33.72102846887' lon='150.82938037679'>
    <tag k='addr:housenumber' v='146' />
    <tag k='addr:street' v='Dove Street' />
  </node>
  <node id='-159852' action='modify' visible='true' lat='-33.72102846887' lon='150.82938037679'>
    <tag k='addr:housenumber' v='24' />
    <tag k='addr:street' v='Cockatoo Street' />
  </node>
  <node id='-159853' action='modify' visible='true' lat='-33.72102846887' lon='150.82938037679'>
    <tag k='addr:housenumber' v='159' />
    <tag k='addr:street' v='Sparrow Street' />
  </node>
  <node id='-159854' action='modify' visible='true' lat='-33.72102846887' lon='150.82938037679'>
    <tag k='addr:housenumber' v='243' />
    <tag k='addr:street' v='Dove Street' />
  </node>
  <node id='-159855' action='modify' visible='true' lat='-33.72102846887' lon='150.82938037679'>
    <tag k='addr:housenumber' v='277' />
    <tag k='addr:street' v='Dove Street' />
  </node>
  <node id='-159856' action='modify' visible='true' lat='-33.72102846887' lon='150.82938037679'>
    <tag k='addr:housenumber' v='30' />
    <tag k='addr:street' v='Cockatoo Street' />
  </node>
  <node id='-159857' action='modify' visible='true' lat='-33.72102846887' lon='150.82938037679'>
    <tag k='addr:housenumber' v='147' />
    <tag k='addr:street' v='Dove Street' />
  </node>
  <node id='-159858' action='modify' visible='true' lat='-33.72102846887' lon='150.82938037679'>
    <tag k='addr:housenumber' v='28' />
    <tag k='addr:street' v='Cockatoo Street' />
  </node>
  <node id='-159859' action='modify' visible='true' lat='-33.72102846887' lon='150.82938037679'>
    <tag k='addr:housenumber' v='33' />
    <tag k='addr:street' v='Cockatoo Street' />
  </node>
  <node id='-159860' action='modify' visible='true' lat='-33.72102846887' lon='150.82938037679'>
    <tag k='addr:housenumber' v='32' />
    <tag k='addr:street' v='Cockatoo Street' />
  </node>
  <node id='-159861' action='modify' visible='true' lat='-33.72102846887' lon='150.82938037679'>
    <tag k='addr:housenumber' v='65' />
    <tag k='addr:street' v='Canary Street' />
  </node>
  <node id='-159862' action='modify' visible='true' lat='-33.72102846887' lon='150.82938037679'>
    <tag k='addr:housenumber' v='36' />
    <tag k='addr:street' v='Cockatoo Street' />
  </node>
  <node id='-159863' action='modify' visible='true' lat='-33.72102846887' lon='150.82938037679'>
    <tag k='addr:housenumber' v='35' />
    <tag k='addr:street' v='Cockatoo Street' />
  </node>
  <node id='-159864' action='modify' visible='true' lat='-33.72102846887' lon='150.82938037679'>
    <tag k='addr:housenumber' v='3' />
    <tag k='addr:street' v='Canary Street' />
  </node>
  <node id='-159865' action='modify' visible='true' lat='-33.72102846887' lon='150.82938037679'>
    <tag k='addr:housenumber' v='39' />
    <tag k='addr:street' v='Cockatoo Street' />
  </node>
  <node id='-159866' action='modify' visible='true' lat='-33.72102846887' lon='150.82938037679'>
    <tag k='addr:housenumber' v='42' />
    <tag k='addr:street' v='Eagle Street' />
  </node>
  <node id='-159867' action='modify' visible='true' lat='-33.72102846887' lon='150.82938037679'>
    <tag k='addr:housenumber' v='41' />
    <tag k='addr:street' v='Eagle Street' />
  </node>
  <node id='-159868' action='modify' visible='true' lat='-33.72102846887' lon='150.82938037679'>
    <tag k='addr:housenumber' v='45' />
    <tag k='addr:street' v='Eagle Street' />
  </node>
  <node id='-159869' action='modify' visible='true' lat='-33.72102846887' lon='150.82938037679'>
    <tag k='addr:housenumber' v='44' />
    <tag k='addr:street' v='Eagle Street' />
  </node>
  <node id='-159870' action='modify' visible='true' lat='-33.72102846887' lon='150.82938037679'>
    <tag k='addr:housenumber' v='49' />
    <tag k='addr:street' v='Eagle Street' />
  </node>
  <node id='-159871' action='modify' visible='true' lat='-33.72102846887' lon='150.82938037679'>
    <tag k='addr:housenumber' v='48' />
    <tag k='addr:street' v='Eagle Street' />
  </node>
  <node id='-159872' action='modify' visible='true' lat='-33.72102846887' lon='150.82938037679'>
    <tag k='addr:housenumber' v='52' />
    <tag k='addr:street' v='Eagle Street' />
  </node>
  <node id='-159873' action='modify' visible='true' lat='-33.72102846887' lon='150.82938037679'>
    <tag k='addr:housenumber' v='50' />
    <tag k='addr:street' v='Eagle Street' />
  </node>
  <node id='-159874' action='modify' visible='true' lat='-33.72102846887' lon='150.82938037679'>
    <tag k='addr:housenumber' v='56' />
    <tag k='addr:street' v='Eagle Street' />
  </node>
  <node id='-159875' action='modify' visible='true' lat='-33.72102846887' lon='150.82938037679'>
    <tag k='addr:housenumber' v='55' />
    <tag k='addr:street' v='Eagle Street' />
  </node>
  <node id='-159876' action='modify' visible='true' lat='-33.72102846887' lon='150.82938037679'>
    <tag k='addr:housenumber' v='61' />
    <tag k='addr:street' v='Dove Street' />
  </node>
  <node id='-159877' action='modify' visible='true' lat='-33.72102846887' lon='150.82938037679'>
    <tag k='addr:housenumber' v='60' />
    <tag k='addr:street' v='Dove Street' />
  </node>
  <node id='-159878' action='modify' visible='true' lat='-33.72102846887' lon='150.82938037679'>
    <tag k='addr:housenumber' v='69' />
    <tag k='addr:street' v='Canary Street' />
  </node>
  <node id='-159879' action='modify' visible='true' lat='-33.72102846887' lon='150.82938037679'>
    <tag k='addr:housenumber' v='66' />
    <tag k='addr:street' v='Canary Street' />
  </node>
  <node id='-159880' action='modify' visible='true' lat='-33.72102846887' lon='150.82938037679'>
    <tag k='addr:housenumber' v='71' />
    <tag k='addr:street' v='Canary Street' />
  </node>
  <node id='-159881' action='modify' visible='true' lat='-33.72102846887' lon='150.82938037679'>
    <tag k='addr:housenumber' v='6' />
    <tag k='addr:street' v='Canary Street' />
  </node>
  <node id='-159882' action='modify' visible='true' lat='-33.72102846887' lon='150.82938037679'>
    <tag k='addr:housenumber' v='18' />
    <tag k='addr:street' v='Canary Street' />
  </node>
  <node id='-159883' action='modify' visible='true' lat='-33.72102846887' lon='150.82938037679'>
    <tag k='addr:housenumber' v='73' />
    <tag k='addr:street' v='Canary Street' />
  </node>
  <node id='-159884' action='modify' visible='true' lat='-33.72102846887' lon='150.82938037679'>
    <tag k='addr:housenumber' v='206' />
    <tag k='addr:street' v='Dove Street' />
  </node>
  <node id='-159885' action='modify' visible='true' lat='-33.72102846887' lon='150.82938037679'>
    <tag k='addr:housenumber' v='1' />
    <tag k='addr:street' v='Canary Street' />
  </node>
  <node id='-159886' action='modify' visible='true' lat='-33.72102846887' lon='150.82938037679'>
    <tag k='addr:housenumber' v='213' />
    <tag k='addr:street' v='Dove Street' />
  </node>
  <node id='-159887' action='modify' visible='true' lat='-33.72102846887' lon='150.82938037679'>
    <tag k='addr:housenumber' v='20' />
    <tag k='addr:street' v='Canary Street' />
  </node>
  <node id='-159888' action='modify' visible='true' lat='-33.72102846887' lon='150.82938037679'>
    <tag k='addr:housenumber' v='78' />
    <tag k='addr:street' v='Finch Street' />
  </node>
  <node id='-159889' action='modify' visible='true' lat='-33.72102846887' lon='150.82938037679'>
    <tag k='addr:housenumber' v='77' />
    <tag k='addr:street' v='Finch Street' />
  </node>
  <node id='-159890' action='modify' visible='true' lat='-33.72102846887' lon='150.82938037679'>
    <tag k='addr:housenumber' v='7' />
    <tag k='addr:street' v='Canary Street' />
  </node>
  <node id='-159891' action='modify' visible='true' lat='-33.72102846887' lon='150.82938037679'>
    <tag k='addr:housenumber' v='79' />
    <tag k='addr:street' v='Finch Street' />
  </node>
  <node id='-159892' action='modify' visible='true' lat='-33.72102846887' lon='150.82938037679'>
    <tag k='addr:housenumber' v='83' />
    <tag k='addr:street' v='Finch Street' />
  </node>
  <node id='-159893' action='modify' visible='true' lat='-33.72102846887' lon='150.82938037679'>
    <tag k='addr:housenumber' v='80' />
    <tag k='addr:street' v='Finch Street' />
  </node>
  <node id='-159894' action='modify' visible='true' lat='-33.72102846887' lon='150.82938037679'>
    <tag k='addr:housenumber' v='85' />
    <tag k='addr:street' v='Finch Street' />
  </node>
  <node id='-159895' action='modify' visible='true' lat='-33.72102846887' lon='150.82938037679'>
    <tag k='addr:housenumber' v='84' />
    <tag k='addr:street' v='Finch Street' />
  </node>
  <node id='-159896' action='modify' visible='true' lat='-33.72102846887' lon='150.82938037679'>
    <tag k='addr:housenumber' v='88' />
    <tag k='addr:street' v='Canary Street' />
  </node>
  <node id='-159897' action='modify' visible='true' lat='-33.72102846887' lon='150.82938037679'>
    <tag k='addr:housenumber' v='86' />
    <tag k='addr:street' v='Finch Street' />
  </node>
  <node id='-159898' action='modify' visible='true' lat='-33.72102846887' lon='150.82938037679'>
    <tag k='addr:housenumber' v='90' />
    <tag k='addr:street' v='Finch Street' />
  </node>
  <node id='-159899' action='modify' visible='true' lat='-33.72102846887' lon='150.82938037679'>
    <tag k='addr:housenumber' v='89' />
    <tag k='addr:street' v='Finch Street' />
  </node>
  <node id='-159900' action='modify' visible='true' lat='-33.72102846887' lon='150.82938037679'>
    <tag k='addr:housenumber' v='93' />
    <tag k='addr:street' v='Finch Street' />
  </node>
  <node id='-159901' action='modify' visible='true' lat='-33.72102846887' lon='150.82938037679'>
    <tag k='addr:housenumber' v='91' />
    <tag k='addr:street' v='Finch Street' />
  </node>
  <node id='-159902' action='modify' visible='true' lat='-33.72102846887' lon='150.82938037679'>
    <tag k='addr:housenumber' v='95' />
    <tag k='addr:street' v='Magpie Street' />
  </node>
  <node id='-159903' action='modify' visible='true' lat='-33.72102846887' lon='150.82938037679'>
    <tag k='addr:housenumber' v='94' />
    <tag k='addr:street' v='Magpie Street' />
  </node>
  <node id='-159904' action='modify' visible='true' lat='-33.72102846887' lon='150.82938037679'>
    <tag k='addr:housenumber' v='97' />
    <tag k='addr:street' v='Magpie Street' />
  </node>
  <node id='-159905' action='modify' visible='true' lat='-33.72102846887' lon='150.82938037679'>
    <tag k='addr:housenumber' v='96' />
    <tag k='addr:street' v='Magpie Street' />
  </node>
  <node id='-159906' action='modify' visible='true' lat='-33.72102846887' lon='150.82938037679'>
    <tag k='addr:housenumber' v='221' />
    <tag k='addr:street' v='Dove Street' />
  </node>
  <node id='-159907' action='modify' visible='true' lat='-33.72102846887' lon='150.82938037679'>
    <tag k='addr:housenumber' v='99' />
    <tag k='addr:street' v='Canary Street' />
  </node>
  <node id='-159908' action='modify' visible='true' lat='-33.72102846887' lon='150.82938037679'>
    <tag k='addr:housenumber' v='27' />
    <tag k='addr:street' v='Cockatoo Street' />
  </node>
  <node id='-159909' action='modify' visible='true' lat='-33.72102846887' lon='150.82938037679'>
    <tag k='addr:housenumber' v='232' />
    <tag k='addr:street' v='Dove Street' />
  </node>
  <node id='-159910' action='modify' visible='true' lat='-33.72102846887' lon='150.82938037679'>
    <tag k='addr:housenumber' v='31' />
    <tag k='addr:street' v='Cockatoo Street' />
  </node>
  <node id='-159911' action='modify' visible='true' lat='-33.72102846887' lon='150.82938037679'>
    <tag k='addr:housenumber' v='29' />
    <tag k='addr:street' v='Cockatoo Street' />
  </node>
  <node id='-159912' action='modify' visible='true' lat='-33.72102846887' lon='150.82938037679'>
    <tag k='addr:housenumber' v='37' />
    <tag k='addr:street' v='Cockatoo Street' />
  </node>
  <node id='-159913' action='modify' visible='true' lat='-33.72102846887' lon='150.82938037679'>
    <tag k='addr:housenumber' v='34' />
    <tag k='addr:street' v='Cockatoo Street' />
  </node>
  <node id='-159914' action='modify' visible='true' lat='-33.72102846887' lon='150.82938037679'>
    <tag k='addr:housenumber' v='43' />
    <tag k='addr:street' v='Eagle Street' />
  </node>
  <node id='-159915' action='modify' visible='true' lat='-33.72102846887' lon='150.82938037679'>
    <tag k='addr:housenumber' v='40' />
    <tag k='addr:street' v='Eagle Street' />
  </node>
  <node id='-159916' action='modify' visible='true' lat='-33.72102846887' lon='150.82938037679'>
    <tag k='addr:housenumber' v='4' />
    <tag k='addr:street' v='Canary Street' />
  </node>
  <node id='-159917' action='modify' visible='true' lat='-33.72102846887' lon='150.82938037679'>
    <tag k='addr:housenumber' v='47' />
    <tag k='addr:street' v='Eagle Street' />
  </node>
</osm>
